# If you add advisortypes, and use those tags, do not change them without changing everywhere they are used.

# Uses all 'modifiers' possible thats exported as a Modifier.


######################################################
philosopher = {
	prestige = 0.008
	government_tech_investment = 1	
	
	chance = {
		factor = 1
		modifier = {
			factor = 0.2
			owner = { advisor = philosopher }
		}
		modifier = {
			factor = 1.1
			NOT = { owner = { innovative_narrowminded = -2 } }
		}
		modifier = {
			factor = 1.2
			owner = { idea = ecumenism }
		}
		modifier = {
			factor = 1.2
			owner = { idea = humanist_tolerance }
		}	
		modifier = {
			factor = 0.9
			owner = { idea = deus_vult }
		}	
		modifier = { 
			owner = { check_variable = { which = "religious_fervor" value = 5 } }
			factor = 0.7
			}
		modifier = { 
			owner = { check_variable = { which = "religious_fervor" value = 9 } }
			factor = 0.7
			}
	}
}

######################################################
natural_scientist = {
	production_tech_investment = 3
	production_efficiency = 0.005

	chance = {
		factor = 1
		modifier = {
			factor = 0.2
			owner = { advisor = natural_scientist }
		}
		modifier = {
			factor = 1.1
			NOT = { owner = { innovative_narrowminded = -2 } }
		}
		modifier = {
			factor = 1.2
			owner = { idea = scientific_revolution }
		}
		modifier = {
			factor = 1.2
			owner = { idea = smithian_economics }
		}	
		modifier = {
			factor = 0.9
			owner = { idea = bureaucracy }
		}	
	}	
}


######################################################
artist = {
	stability_investment = 3
	stability_cost_modifier = -0.02

	chance = {
		factor = 1
		modifier = {
			factor = 0.2
			owner = { advisor = artist }
		}
		modifier = {
			factor = 1.1
			NOT = { owner = { aristocracy_plutocracy = -1 } }
		}
		modifier = {
			factor = 1.2
			owner = { idea = patron_of_art }
		}
	}	
}

######################################################
statesman = {
	government_tech_investment = 3
	global_tax_modifier = 0.005

	chance = {
		factor = 1
		modifier = {
			factor = 0.2
			owner = { advisor = statesman }
		}
		modifier = {
			factor = 1.1
			NOT = { owner = { centralization_decentralization = -2 } }
		}
		modifier = {
			factor = 1.2
			owner = { idea = bureaucracy }
		}
		modifier = {
			factor = 1.2
			owner = { idea = bill_of_rights }
		}
		modifier = {
			factor = 0.9
			owner = { idea = shrewd_commerce_practise }
		}
	}	
}

######################################################
treasurer = {
	trade_tech_investment = 3
	advisor_cost = -0.05

	chance = {
		factor = 1
		modifier = {
			factor = 0.2
			owner = { advisor = treasurer }
		}
		modifier = {
			factor = 1.1
			owner = { aristocracy_plutocracy = 1 } 
		}
		modifier = {
			factor = 1.2
			owner = { idea = merchant_adventures }
		}
		modifier = {
			factor = 1.2
			owner = { idea = national_trade_policy }
		}
		modifier = {
			factor = 0.9
			owner = { idea = espionage }
		}
	}	
}

######################################################
naval_reformer = {
	naval_tech_investment = 3
	global_ship_cost = -0.01

	chance = {
		factor = 1
		modifier = {
			factor = 0.2
			owner = { advisor = naval_reformer }
		}
		modifier = {
			factor = 1.1
			owner = { land_naval = 2 }
		}
		modifier = {
			factor = 0
			port = no
		}
		modifier = {
			factor = 1.2
			owner = { idea = sea_hawks }
		}
		modifier = {
			factor = 1.2
			owner = { idea = excellent_shipwrights }
		}
		modifier = {
			factor = 0.9
			owner = { idea = grand_army }
		}		
	}
}

######################################################
army_reformer = {
	land_tech_investment = 3
	infantry_cost = -0.03

	chance = {
		factor = 1
		modifier = {
			factor = 0.2
			owner = { advisor = army_reformer }
		}
		modifier = {
			factor = 1.1
			NOT = { owner = { land_naval = -2 } }
		}		
		modifier = {
			factor = 1.2
			owner = { idea = battlefield_commisions }
		}
		modifier = {
			factor = 1.2
			owner = { idea = national_conscripts }
		}
		modifier = {
			factor = 0.9
			owner = { idea = grand_navy }
		}		
	}	
}

######################################################
trader = {
	merchant_compete_chance = 0.01
	merchant_placement_chance = 0.01

	chance = {
		factor = 1
		modifier = {
			factor = 0.2
			owner = { advisor = trader }
		}
		modifier = {
			factor = 1.1
			owner = { aristocracy_plutocracy = 1 } 
		}
		modifier = {
			factor = 1.2
			owner = { idea = merchant_adventures }
		}
		modifier = {
			factor = 1.2
			owner = { idea = national_trade_policy }
		}
		modifier = {
			factor = 0.9
			owner = { idea = espionage }
		}
	}
}

######################################################
theologian = {
	missionary_placement_chance = 0.01
	missionary_cost = -0.005

	chance = {
		factor = 1
		modifier = {
			factor = 0.2
			owner = { advisor = theologian }
		}
		modifier = {
			factor = 1.2
			owner = { idea = divine_supremacy }
		}
		modifier = {
			factor = 1.2
			owner = { idea = church_attendance_duty }
		}
		modifier = {
			factor = 0.8
			owner = { idea = ecumenism }
		}	
		modifier = {
			factor = 0.8
			owner = { idea = humanist_tolerance }
		}			
		modifier = { 
			NOT = { owner = { check_variable = { which = "religious_fervor" value = -3 } } }
			factor = 0
			}
		modifier = { 
			NOT = { owner = { check_variable = { which = "religious_fervor" value = 1 } } }
			factor = 0.8
			}
		modifier = { 
			NOT = { owner = { check_variable = { which = "religious_fervor" value = 5 } } }
			factor = 0.8
			}
		modifier = { 
			NOT = { owner = { check_variable = { which = "religious_fervor" value = 9 } } }
			factor = 0.8
			}
		modifier = { 
			owner = { check_variable = { which = "clergy_mood" value = 70 } }
			factor = 1.2
			}
		modifier = { 
			owner = { check_variable = { which = "clergy_mood" value = 90 } }
			factor = 1.2
			}
		modifier = { 
			owner = { NOT = { check_variable = { which = "clergy_mood" value = 30 } } }
			factor = 0.8
			}
		modifier = { 
			owner = { NOT = { check_variable = { which = "clergy_mood" value = 10 } } }
			factor = 0.8
			}
	}
}
 
######################################################
spymaster = {
	spy_efficiency = 0.02
	global_spy_defence = 0.01

	chance = {
		factor = 1
		modifier = {
			factor = 0.2
			owner = { advisor = spymaster }
		}
		modifier = {
			factor = 1.1
			owner = { innovative_narrowminded = 2 } 
		}		
		modifier = {
			factor = 1.2
			owner = { idea = espionage }
		}
		modifier = {
			factor = 1.2
			owner = { idea = vetting }
		}
		modifier = {
			factor = 0.8
			owner = { idea = ecumenism }
		}	
		modifier = {
			factor = 0.8
			owner = { idea = bill_of_rights }
		}
		
	}	
}

######################################################
colonial_governor = {
	global_tariffs = 0.01
	colonist_cost = -0.01
	
	chance = {
		factor = 1

		modifier = {
			factor = 0.2
			owner = { advisor = colonial_governor }
		}

		modifier = {
			factor = 0
			owner = {
				NOT = { number_of_colonies = 1 }
			} 
		}

		modifier = {
			factor = 1.2
			owner = { idea = vice_roys }
		}
		modifier = {
			factor = 1.05
			owner = { idea = colonial_ventures }
		}
		modifier = {
			factor = 1.1
			owner = { idea = quest_for_the_new_world }
		}
	}
}

######################################################
diplomat = {
	badboy = -0.04
	diplomats = 0.2

	chance = {
		factor = 1
		modifier = {
			factor = 0.2
			owner = { advisor = diplomat }
		}

		modifier = {
			factor = 1.2
			owner = { idea = cabinet }
		}
		modifier = {
			factor = 1.2
			owner = { idea = espionage }
		}
		modifier = {
			factor = 0.8
			owner = { idea = vetting }
		}	
		
	}
}

######################################################
sheriff = {
	global_tax_modifier = 0.01
	global_revolt_risk = -0.25

	chance = {
		factor = 1
		modifier = {
			factor = 0.2
			owner = { advisor = sheriff }
		}
		modifier = {
			factor = 1.1
			NOT = { owner = { centralization_decentralization = -2 } }
		}
		modifier = {
			factor = 1.1
			owner = { idea = bureaucracy }
		}
		modifier = {
			factor = 1.2
			owner = { idea = bill_of_rights }
		}
		modifier = {
			factor = 0.8
			owner = { idea = shrewd_commerce_practise }
		}
	}	
}

######################################################
high_judge = {
	global_revolt_risk = -0.75
	stability_investment = 1

	chance = {
		factor = 1
		modifier = {
			factor = 0.2
			owner = { advisor = high_judge }
		}
		modifier = {
			factor = 1.1
			NOT = { owner = { centralization_decentralization = -2 } }
		}
		modifier = {
			factor = 1.1
			owner = { idea = bureaucracy }
		}
		modifier = {
			factor = 1.1
			owner = { idea = bill_of_rights }
		}
		modifier = {
			factor = 0.8
			owner = { idea = shrewd_commerce_practise }
		}
		modifier = {
			factor = 0.8
			owner = { idea = vetting }
		}
	}	
}

######################################################
alderman = {
	production_efficiency = 0.01
	trade_efficiency = 0.005

	chance = {
		factor = 1
		modifier = {
			factor = 0.2
			owner = { advisor = alderman }
		}
		modifier = {
			factor = 1.1
			NOT = { owner = { centralization_decentralization = -2 } }
		}
		modifier = {
			factor = 1.1
			owner = { idea = bureaucracy }
		}
		modifier = {
			factor = 1.1
			owner = { idea = bill_of_rights }
		}
		modifier = {
			factor = 0.8
			owner = { idea = shrewd_commerce_practise }
		}
		modifier = {
			factor = 0.8
			owner = { idea = vetting }
		}
	}	
}

######################################################
colonel = {
	mercenary_cost = -0.05
	cavalry_cost = -0.03

	chance = {
		factor = 1
		modifier = {
			factor = 0.2
			owner = { advisor = colonel }
		}
		modifier = {
			factor = 1.2
			owner = { idea = glorious_arms }
		}
		modifier = {
			factor = 1.2
			owner = { idea = bureaucracy }
		}
		modifier = {
			factor = 0.8
			owner = { idea = national_conscripts }
		}
	}	
}

######################################################
collector = {
	trade_efficiency = 0.01
	global_tariffs = +0.005

	chance = {
		factor = 1
		modifier = {
			factor = 0.2
			owner = { advisor = collector }
		}
		modifier = {
			factor = 1.1
			owner = { idea = merchant_adventures }
		}
		modifier = {
			factor = 1.1
			owner = { idea = national_trade_policy }
		}
		modifier = {
			factor = 0.8
			owner = { idea = shrewd_commerce_practise }
		}
		modifier = {
			factor = 0.8
			owner = { mercantilism_freetrade = 1 }
		}
	}	
}

######################################################
master_of_mint = {
	inflation_reduction = 0.01
	interest = -0.005

	chance = {
		factor = 1
		modifier = {
			factor = 0.2
			owner = { advisor = master_of_mint }
		}
		modifier = {
			factor = 0.2
			owner = { advisor = banker }
		}
		modifier = {
			factor = 1.2
			owner = { idea = national_bank }
		}
	}	
}

######################################################
banker = {
	interest= -0.015
	inflation_reduction = 0.005

	chance = {
		factor = 1
		modifier = {
			factor = 0.2
			owner = { advisor = banker }
		}
		modifier = {
			factor = 0.2
			owner = { advisor = master_of_mint }
		}
		modifier = {
			factor = 0.1
			owner = { NOT = { prestige = 0 } }
		}
		modifier = {
			factor = 1.1
			owner = { prestige = 0.25 }
		}

		modifier = {
			factor = 1.1
			owner = { prestige = 0.5 }
		}

		modifier = {
			factor = 1.1
			owner = { prestige = 0.75 }
		}
	}	
}

######################################################
lord_proprietor = {
	global_colonial_growth = 0.02
	colonist_placement_chance = 0.01

	chance = {
		factor = 1
		modifier = {
			factor = 0.2
			owner = { advisor = lord_proprietor }
		}
		modifier = {
			factor = 0.2
			owner = {
				NOT = { number_of_colonies = 1 }
			} 
		}
	}	
}

######################################################
pioneer = {

	land_attrition = -0.02
	colonist_placement_chance = 0.005

	chance = {
		factor = 1

		modifier = {
			factor = 0
			owner = { advisor = pioneer }
		}
		modifier = {
			factor = 0.2
			owner = {
				NOT = { number_of_colonies = 1 }
			} 
		}
	}	
}

######################################################
grand_admiral = {
	global_ship_cost = -0.04
	navy_tradition = 0.002

	chance = {
		factor = 1
		modifier = {
			factor = 0.2
			owner = { advisor = grand_admiral }
		}
		modifier = {
			factor = 0
			port = no
		}
	}
}

######################################################
naval_organiser = {
	naval_forcelimit_modifier = 0.04
	naval_tech_investment = 1

	chance = {
		factor = 1
		modifier = {
			factor = 0.2
			owner = { advisor = naval_organiser }
		}
		modifier = {
			factor = 0
			port = no
		}
	}
}

######################################################
navigator = {
	range = 0.1
	naval_attrition = -0.05

	chance = {
		factor = 1
		modifier = {
			factor = 0.2
			owner = { advisor = navigator }
		}
		modifier = {
			factor = 0
			port = no
		}
		modifier = {
			factor = 0.1
			owner = { 
				NOT = { idea = naval_provisioning } 
			}
		}
		modifier = {
			factor = 1.2
			owner = { idea = quest_for_the_new_world }
		}		
	}
}

######################################################
rear_admiral = {
	naval_morale = 0.1
	prestige_from_naval = 0.01

	chance = {
		factor = 1
		modifier = {
			factor = 0.2
			owner = { advisor = rear_admiral }
		}
		modifier = {
			factor = 0
			port = no
		}
		modifier = {
			factor = 1.2
			owner = { idea = naval_fighting_instruction }
		}		
	}	
}

######################################################
privateer = {
	blockade_efficiency = 0.1
	leader_naval_manuever = 0.2

	chance = {
		factor = 1
		modifier = {
			factor = 0
			owner = { advisor = privateer }
		}
		modifier = {
			factor = 0
			port = no
		}
		modifier = {
			factor = 0
			NOT = { owner = { naval_tech = 7 } }
		}
		modifier = {
			factor = 1.2
			owner = { idea = sea_hawks }
		}		
		modifier = {
			factor = 1.3
			owner = { has_country_modifier = privateers_sponsorship } 
		}
	}	
}

######################################################
sergeant_major_general = {
	discipline = 0.015
	leader_shock = 0.2

	chance = {
		factor = 1
		modifier = {
			factor = 0.2
			owner = { advisor = sergeant_major_general }
		}

	}
}

######################################################
grand_captain = {
	land_morale = 0.05
	leader_fire = 0.2

	chance = {
		factor = 1
		modifier = {
			factor = 0.2
			owner = { advisor = grand_captain }
		}

	}
}

######################################################
army_organiser = {
	land_forcelimit_modifier = 0.05
	global_manpower_modifier = 0.02
	
	chance = {
		factor = 1
		modifier = {
			factor = 0.2
			owner = { advisor = army_organiser }
		}

	}
}

######################################################
commandant = {
	land_morale = 0.10
	prestige_from_land = 0.01

	chance = {
		factor = 1
		modifier = {
			factor = 0.2
			owner = { advisor = commandant }
		}
		modifier = {
			factor = 0.5
			owner = { quality_quantity = 1 } 
		}		
	}
}

######################################################
quartermaster = {
	war_exhaustion = -0.01
	reinforce_speed = 0.0125

	chance = {
		factor = 1
		modifier = {
			factor = 0.2
			owner = { advisor = quartermaster }
		}
	
	}

}

######################################################
recruitmaster = {
	reinforce_speed = 0.025
	war_exhaustion = -0.005

	chance = {
		factor = 1
		modifier = {
			factor = 0.2
			owner = { advisor = recruitmaster }
		}
	
	}

}

######################################################
fortification_expert = {	
	defensiveness = 0.1
	build_cost = -0.01

	chance = {
		factor = 1
		modifier = {
			factor = 0.2
			owner = { advisor = fortification_expert }
		}
		modifier = {
			factor = 1.1
			owner = { offensive_defensive = 1 } 
		}		
		modifier = {
			factor = 1.2
			owner = { idea = engineer_corps }
		}
	}	
}


######################################################
inquisitor = {
	global_spy_defence = 0.05
	global_revolt_risk = -0.5
	

	chance = {
		factor = 1
		modifier = {
			factor = 0.2
			owner = { advisor = inquisitor }
		}
		modifier = {
			factor = 1.1
			owner = { innovative_narrowminded = 2 } 
		}		
		modifier = {
			factor = 1.2
			owner = { idea = espionage }
		}
		modifier = {
			factor = 1.2
			owner = { idea = vetting }
		}
		modifier = {
			factor = 0.8
			owner = { idea = ecumenism }
		}	
		
	}
}

######################################################
ambassador = {
	
	badboy_limit = 1
	diplomats = 0.2

	chance = {
		factor = 1

		modifier = {
			factor = 0.2
			owner = { advisor = ambassador }
		}
	}
}

#########################################################
#							#
#		SRI Jewish Advisors			#
#							#
#########################################################

jewish_advisor_1 = {	# banker
	global_revolt_risk = 1 	        #@5=8
	inflation_reduction = 0.008	#@5=0.05
	global_tax_modifier = 0.02	#@5=0.1
	interest = -0.005		#@5=-0.05
	chance = {
		factor = 1
		modifier = {
			factor = 0
			NOT = { check_variable = { which = jews value = 0.1 } }
		}
		modifier = {
			factor = 0
			owner = { has_country_flag = has_expelled_jews }
		}
		modifier = {
			factor = 0
			has_province_modifier = pogrom
		}
		modifier = {
			factor = 0.5
			owner = { has_country_flag = expelled_advisor }
		}
		modifier = {
			factor = 0.65
			has_province_flag = pogrom_happened
		}
		modifier = {
			factor = 1.2
			owner = { idea = national_bank }
		}
		modifier = {
			factor = 0.9
			NOT = { has_building = tax_assessor }
		}
		modifier = {
			factor = 0.9
			NOT = { has_building = constable }
		}
		modifier = {
			factor = 1.1
			has_province_modifier = jewish_community
		}
		modifier = {
			factor = 1.2
			has_province_modifier = ghetto
		}
		modifier = {
			factor = 0.4
			has_province_modifier = shtetl
		}
		modifier = {
			factor = 0.9
			NOT = { check_variable = { which = jews value = 2 } }
		}
		modifier = {
			factor = 0.9
			NOT = { check_variable = { which = jews value = 5 } }
		}
		modifier = {
			factor = 0.95
			NOT = { check_variable = { which = jews value = 10 } }
		}
		modifier = {
			factor = 1.05
			check_variable = { which = jews value = 15 }
		}
		modifier = {
			factor = 1.1
			check_variable = { which = jews value = 25 }
		}
		modifier = {
			factor = 1.2
			check_variable = { which = jews value = 50 }
		}
		modifier = {
			factor = 1.2
			owner = { idea = humanist_tolerance }
		}
		modifier = {
			factor = 1.2
			owner = { idea = liberty_egalite_fraternity }
		}
	}
}

jewish_advisor_2 = {	# diplomat
	global_revolt_risk = 0.8	#@5=6
	badboy_limit = 1		#@5=5
	diplomatic_skill = 0.5		#@6=3
	prestige = 0.001		#@5=0.005
	badboy = -0.01			#@5=-0.05
	chance = {
		factor = 1
		modifier = {
			factor = 0
			NOT = { check_variable = { which = jews value = 0.1 } }
		}
		modifier = {
			factor = 0
			has_province_modifier = pogrom
		}
		modifier = {
			factor = 0
			owner = { has_country_flag = has_expelled_jews }
		}
		modifier = {
			factor = 0.5
			owner = { has_country_flag = expelled_advisor }
		}
		modifier = {
			factor = 0.65
			has_province_flag = pogrom_happened
		}
		modifier = {
			factor = 1.1
			owner = { NOT = { DIP = 4 } }
		}
		modifier = {
			factor = 1.2
			owner = { idea = cabinet }
		}
		modifier = {
			factor = 0.25
			NOT = { has_building = guardia_real }
		}
		modifier = {
			factor = 1.2
			has_building = guardia_real
		}
		modifier = {
			factor = 1.2
			has_province_modifier = jewish_community
		}
		modifier = {
			factor = 0.9
			has_province_modifier = ghetto
		}
		modifier = {
			factor = 0.4
			has_province_modifier = shtetl
		}
		modifier = {
			factor = 0.9
			NOT = { check_variable = { which = jews value = 2 } }
		}
		modifier = {
			factor = 0.9
			NOT = { check_variable = { which = jews value = 5 } }
		}
		modifier = {
			factor = 0.95
			NOT = { check_variable = { which = jews value = 10 } }
		}
		modifier = {
			factor = 1.05
			check_variable = { which = jews value = 15 }
		}
		modifier = {
			factor = 1.1
			check_variable = { which = jews value = 25 }
		}
		modifier = {
			factor = 1.2
			check_variable = { which = jews value = 50 }
		}
		modifier = {
			factor = 1.2
			owner = { idea = humanist_tolerance }
		}
		modifier = {
			factor = 1.2
			owner = { idea = liberty_egalite_fraternity }
		}
	}
}

jewish_advisor_3 = {	# spy
	global_revolt_risk = 1   	#@5=7
	badboy_limit = -1		#@5=-5
	spy_efficiency = 0.02		#@5=0.2
	global_spy_defence = 0.02	#@5=0.2
	spies = 0.2		# MM addition
	spies_cost = -0.04	# MM addition
	badboy = 0.02			#@5=0.05
	chance = {
		factor = 1
		modifier = {
			factor = 0
			NOT = { check_variable = { which = jews value = 0.1 } }
		}
		modifier = {
			factor = 0
			has_province_modifier = pogrom
		}
		modifier = {
			factor = 0
			owner = { has_country_flag = has_expelled_jews }
		}
		modifier = {
			factor = 0.5
			owner = { has_country_flag = expelled_advisor }
		}
		modifier = {
			factor = 0.65
			has_province_flag = pogrom_happened
		}
		modifier = {
			factor = 1.2
			owner = { idea = espionage }
		}
		modifier = {
			factor = 1.2
			has_province_modifier = jewish_community
		}
		modifier = {
			factor = 0.8
			has_province_modifier = ghetto
		}
		modifier = {
			factor = 0.4
			has_province_modifier = shtetl
		}
		modifier = {
			factor = 0.9
			NOT = { check_variable = { which = jews value = 2 } }
		}
		modifier = {
			factor = 0.9
			NOT = { check_variable = { which = jews value = 5 } }
		}
		modifier = {
			factor = 0.95
			NOT = { check_variable = { which = jews value = 10 } }
		}
		modifier = {
			factor = 1.05
			check_variable = { which = jews value = 15 }
		}
		modifier = {
			factor = 1.1
			check_variable = { which = jews value = 25 }
		}
		modifier = {
			factor = 1.2
			check_variable = { which = jews value = 50 }
		}
		modifier = {
			factor = 1.2
			owner = { idea = humanist_tolerance }
		}
		modifier = {
			factor = 1.2
			owner = { idea = liberty_egalite_fraternity }
		}
	}
}

jewish_advisor_4 = {	# architect
	global_revolt_risk = 1		#@5=5
	build_cost = -0.02		#@5=-0.1
	production_tech_investment = 2	#@5=10
	production_efficiency = 0.02	#@5=0.1
	chance = {
		factor = 1
		modifier = {
			factor = 0
			NOT = { check_variable = { which = jews value = 0.1 } }
		}
		modifier = {
			factor = 0
			has_province_modifier = pogrom
		}
		modifier = {
			factor = 0
			owner = { has_country_flag = has_expelled_jews }
		}
		modifier = {
			factor = 0.5
			owner = { has_country_flag = expelled_advisor }
		}
		modifier = {
			factor = 0.65
			has_province_flag = pogrom_happened
		}
		modifier = {
			factor = 2
			has_building = fine_arts_academy
		}
		modifier = {
			factor = 1.2
			has_province_modifier = jewish_community
		}
		modifier = {
			factor = 0.8
			has_province_modifier = ghetto
		}
		modifier = {
			factor = 0.4
			has_province_modifier = shtetl
		}
		modifier = {
			factor = 0.9
			NOT = { check_variable = { which = jews value = 2 } }
		}
		modifier = {
			factor = 0.9
			NOT = { check_variable = { which = jews value = 5 } }
		}
		modifier = {
			factor = 0.95
			NOT = { check_variable = { which = jews value = 10 } }
		}
		modifier = {
			factor = 1.05
			check_variable = { which = jews value = 15 }
		}
		modifier = {
			factor = 1.1
			check_variable = { which = jews value = 25 }
		}
		modifier = {
			factor = 1.2
			check_variable = { which = jews value = 50 }
		}
		modifier = {
			factor = 1.2
			owner = { idea = humanist_tolerance }
		}
		modifier = {
			factor = 1.2
			owner = { idea = liberty_egalite_fraternity }
		}
	}
}

jewish_advisor_5 = {	# merchant
	global_revolt_risk = 1		#@5=10
	trade_tech_investment = 2	#@5=10
	merchant_compete_chance = 0.01	#@5=0.05
	merchants = 0.2			#@5=1
	badboy = 0.02			#@5=0.1
	trade_efficiency = 0.02		#@5=0.1
	chance = {
		factor = 1
		modifier = {
			factor = 0
			NOT = { check_variable = { which = jews value = 0.1 } }
		}
		modifier = {
			factor = 0
			has_province_modifier = pogrom
		}
		modifier = {
			factor = 0
			owner = { has_country_flag = has_expelled_jews }
		}
		modifier = {
			factor = 0.5
			owner = { has_country_flag = expelled_advisor }
		}
		modifier = {
			factor = 0.65
			has_province_flag = pogrom_happened
		}
		modifier = {
			factor = 2
			cot = yes
		}
		modifier = {
			factor = 1.2
			has_province_modifier = jewish_community
		}
		modifier = {
			factor = 1.2
			has_province_modifier = ghetto
		}
		modifier = {
			factor = 0.8
			has_province_modifier = shtetl
		}
		modifier = {
			factor = 0.9
			NOT = { check_variable = { which = jews value = 2 } }
		}
		modifier = {
			factor = 0.9
			NOT = { check_variable = { which = jews value = 5 } }
		}
		modifier = {
			factor = 0.95
			NOT = { check_variable = { which = jews value = 10 } }
		}
		modifier = {
			factor = 1.05
			check_variable = { which = jews value = 15 }
		}
		modifier = {
			factor = 1.1
			check_variable = { which = jews value = 25 }
		}
		modifier = {
			factor = 1.2
			check_variable = { which = jews value = 50 }
		}
		modifier = {
			factor = 1.2
			owner = { idea = humanist_tolerance }
		}
		modifier = {
			factor = 1.2
			owner = { idea = liberty_egalite_fraternity }
		}
	}
}

jewish_advisor_6 = {	# writer
	global_revolt_risk = 0.8		#@5=5
	prestige = 0.004		#@5=0.02
	government_tech_investment = 2	#@5=10
	chance = {
		factor = 1
		modifier = {
			factor = 0
			NOT = { check_variable = { which = jews value = 0.1 } }
		}
		modifier = {
			factor = 0
			has_province_modifier = pogrom
		}
		modifier = {
			factor = 0
			owner = { has_country_flag = has_expelled_jews }
		}
		modifier = {
			factor = 0.5
			owner = { has_country_flag = expelled_advisor }
		}
		modifier = {
			factor = 0.65
			has_province_flag = pogrom_happened
		}
		modifier = {
			factor = 2
			has_building = fine_arts_academy
		}
		modifier = {
			factor = 1.2
			has_province_modifier = jewish_community
		}
		modifier = {
			factor = 0.9
			has_province_modifier = ghetto
		}
		modifier = {
			factor = 0.9
			has_province_modifier = shtetl
		}
		modifier = {
			factor = 0.9
			NOT = { check_variable = { which = jews value = 2 } }
		}
		modifier = {
			factor = 0.9
			NOT = { check_variable = { which = jews value = 5 } }
		}
		modifier = {
			factor = 0.95
			NOT = { check_variable = { which = jews value = 10 } }
		}
		modifier = {
			factor = 1.05
			check_variable = { which = jews value = 15 }
		}
		modifier = {
			factor = 1.1
			check_variable = { which = jews value = 25 }
		}
		modifier = {
			factor = 1.2
			check_variable = { which = jews value = 50 }
		}
		modifier = {
			factor = 1.2
			owner = { idea = humanist_tolerance }
		}
		modifier = {
			factor = 1.2
			owner = { idea = liberty_egalite_fraternity }
		}
	}
}



#########################################################
#							                                          #
#		Knights Advisors			                              #
#							                                          #
#########################################################

# Knight of St John
KoSJ_advisor_1 = {
	tolerance_heathen = -0.35
	discipline = 0.01
	defensiveness = 0.05
	land_morale = 0.05
	chance = {
		factor = 1
		modifier = {
			factor = 0
      NOT = { has_province_modifier = stjohn_grandpriory }
      NOT = { has_province_modifier = KoSJ_FORT1 }
  		NOT = { has_province_modifier = KoSJ_FORT2 }
  		NOT = { has_province_modifier = KoSJ_FORT3 }
  		NOT = { has_province_modifier = KoSJ_FORT4 }
  		NOT = { has_province_modifier = KoSJ_FORT5 }
  		NOT = { has_province_modifier = KoSJ_FORT6 }
  		NOT = { has_province_modifier = KoSJ_FORT7 }
  		NOT = { has_province_modifier = KoSJ_FORT8 }
  		NOT = { has_province_modifier = KoSJ_FORT9 }
		}
		modifier = {
		  factor = 0.8 #dont want them flooding Europe so give a lesser chance for AI countries
		  owner = {
		    ai = yes
		    NOT = { tag = KNI }
		  }
    }
    modifier = {
      factor = 1.1
      or = {
        has_province_modifier = KoSJ_FORT1
        has_province_modifier = KoSJ_FORT2
        has_province_modifier = KoSJ_FORT3
      }
    }
    modifier = {
      factor = 1.2
      or = {
        has_province_modifier = KoSJ_FORT4
        has_province_modifier = KoSJ_FORT5
        has_province_modifier = KoSJ_FORT6
      }
    }
    modifier = {
      factor = 1.3
      or = {
        has_province_modifier = KoSJ_FORT7
        has_province_modifier = KoSJ_FORT8
        has_province_modifier = KoSJ_FORT9
      }
    }
		modifier = {
		  factor = 0
		  NOT = { owner = { religion_group = christian } }
    }
    modifier = {
			factor = 0.9
			owner = { quality_quantity = 2 } 
		}
		modifier = {
		  factor = 0.9
		  owner = { aristocracy_plutocracy = 0 }
    }
    modifier = {
		  factor = 0.9
		  owner = { aristocracy_plutocracy = 2 }
    }
    modifier = {
		  factor = 0.9
		  owner = { aristocracy_plutocracy = 5 }
    }
    modifier = {
		  factor = 0.9
		  owner = { NOT = { innovative_narrowminded = 0 } }
    }
    modifier = {
		  factor = 0.9
		  owner = { NOT = { innovative_narrowminded = -3 } }
    }
    modifier = {
      factor = 0.5
      owner = {
        OR = {
          alliance_with = MOR
          alliance_with = ALG
          alliance_with = TUN
          alliance_with = TRP
          alliance_with = MAM
          alliance_with = TUR
        }
      }
    }
    modifier = {
      factor = 0.9
      owner = {
        OR = {
          advisor = jewish_advisor_1
          advisor = jewish_advisor_2
          advisor = jewish_advisor_3
          advisor = jewish_advisor_4
          advisor = jewish_advisor_5
          advisor = jewish_advisor_6
        }
      }
    }
		modifier = {
		  factor = 1.2
		  owner = {
		    dominant_religion = catholic
      }
      KNI = { religion = catholic }
    }
    modifier = {
      factor = 1.2
      owner = {
        any_neighbor_country = {
          religion_group = muslim
        }
      }
    }
    modifier = {
      factor = 1.2
      owner = {
        religion = catholic
        defender_of_faith = yes
      }
      KNI = { religion = catholic }
    }
    modifier = {
      factor = 1.1
      owner = {
			  has_country_modifier = national_defence_plan			
      }
    }
    modifier = {
      factor = 0.5
      owner = {
			  has_country_flag = pirate_pact
			}
    }
		modifier = {
				factor = 1.2
				owner = {
					  war_with = MOR 
				}
		}
		modifier = {
				factor = 1.2
				owner = {
					    war_with = ALG
				}
		}
		modifier = {
				factor = 1.2
				owner = {
					  war_with = TUN
				}
		}
		modifier = {
				factor = 1.2
				owner = {
					  war_with = TRP
				}
		}
		modifier = {
				factor = 1.2
				owner = {
					    war_with = MAM
				}
		}
		modifier = {
				factor = 1.2
				owner = {
					  war_with = TUR
				}
		}
    modifier = {
      factor = 1.3
      has_province_flag = risk1
    } 
    modifier = {
      factor = 1.2
      has_province_flag = risk2
    }
    modifier = {
      factor = 1.1
      has_province_flag = risk3
    }
		modifier = {
		  factor = 0
		  owner = { NOT = { relation = { who = KNI value = 0 } } }
    }
		modifier = {
		  factor = 0.8
      owner = { NOT = { relation = { who = KNI value = 25 } } }
    }
		modifier = {
		  factor = 0.9
      owner = { NOT = { relation = { who = KNI value = 50 } } }
    }
    modifier = {
      factor = 1.2
      owner = { relation = { who = KNI value = 150 } }
    }
    modifier = {
      factor = 1.2
      owner = { relation = { who = KNI value = 175 } }
    }
	}
}

# Knight Commander of St John
KoSJ_advisor_2 = {
	tolerance_heathen = -0.35
	naval_morale = 0.04
	blockade_efficiency = 0.08
	leader_naval_manuever = 0.2
	chance = {
		factor = 1
		modifier = {
			factor = 0
      NOT = { has_province_modifier = stjohn_grandpriory }
      NOT = { has_province_modifier = KoSJ_FORT1 }
  		NOT = { has_province_modifier = KoSJ_FORT2 }
  		NOT = { has_province_modifier = KoSJ_FORT3 }
  		NOT = { has_province_modifier = KoSJ_FORT4 }
  		NOT = { has_province_modifier = KoSJ_FORT5 }
  		NOT = { has_province_modifier = KoSJ_FORT6 }
  		NOT = { has_province_modifier = KoSJ_FORT7 }
  		NOT = { has_province_modifier = KoSJ_FORT8 }
  		NOT = { has_province_modifier = KoSJ_FORT9 }
		}
		modifier = {
		  factor = 0.8 #dont want them flooding Europe so give a lesser chance for AI countries
		  owner = {
		    ai = yes
		    NOT = { tag = KNI }
		  }
    }
    modifier = {
      factor = 1.1
      or = {
        has_province_modifier = KoSJ_FORT1
        has_province_modifier = KoSJ_FORT2
        has_province_modifier = KoSJ_FORT3
      }
    }
    modifier = {
      factor = 1.2
      or = {
        has_province_modifier = KoSJ_FORT4
        has_province_modifier = KoSJ_FORT5
        has_province_modifier = KoSJ_FORT6
      }
    }
    modifier = {
      factor = 1.3
      or = {
        has_province_modifier = KoSJ_FORT7
        has_province_modifier = KoSJ_FORT8
        has_province_modifier = KoSJ_FORT9
      }
    }
		modifier = {
		  factor = 0
		  NOT = { owner = { religion_group = christian } }
    }
    modifier = {
			factor = 0.9
			owner = { quality_quantity = 2 } 
		}
		modifier = {
		  factor = 0.9
		  owner = { aristocracy_plutocracy = 0 }
    }
    modifier = {
		  factor = 0.9
		  owner = { aristocracy_plutocracy = 2 }
    }
    modifier = {
		  factor = 0.9
		  owner = { aristocracy_plutocracy = 5 }
    }
    modifier = {
		  factor = 0.9
		  owner = { NOT = { innovative_narrowminded = 0 } }
    }
    modifier = {
		  factor = 0.9
		  owner = { NOT = { innovative_narrowminded = -3 } }
    }
    modifier = {
      factor = 0.5
      owner = {
        OR = {
          alliance_with = MOR
          alliance_with = ALG
          alliance_with = TUN
          alliance_with = TRP
          alliance_with = MAM
          alliance_with = TUR
        }
      }
    }
    modifier = {
      factor = 0.9
      owner = {
        OR = {
          advisor = jewish_advisor_1
          advisor = jewish_advisor_2
          advisor = jewish_advisor_3
          advisor = jewish_advisor_4
          advisor = jewish_advisor_5
          advisor = jewish_advisor_6
        }
      }
    }
		modifier = {
		  factor = 1.2
		  owner = {
		    dominant_religion = catholic
      }
      KNI = { religion = catholic }
    }
    modifier = {
      factor = 1.2
      owner = {
        any_neighbor_country = {
          religion_group = muslim
        }
      }
    }
    modifier = {
      factor = 1.2
      owner = {
        religion = catholic
        defender_of_faith = yes
      }
      KNI = { religion = catholic }
    }
    modifier = {
      factor = 1.1
      owner = {
			  has_country_modifier = national_defence_plan			
      }
    }
    modifier = {
      factor = 0.5
      owner = {
			  has_country_flag = pirate_pact
			}
    }
		modifier = {
				factor = 1.2
				owner = {
					  war_with = MOR 
				}
		}
		modifier = {
				factor = 1.2
				owner = {
					    war_with = ALG
				}
		}
		modifier = {
				factor = 1.2
				owner = {
					  war_with = TUN
				}
		}
		modifier = {
				factor = 1.2
				owner = {
					  war_with = TRP
				}
		}
		modifier = {
				factor = 1.2
				owner = {
					    war_with = MAM
				}
		}
		modifier = {
				factor = 1.2
				owner = {
					  war_with = TUR
				}
		}
    modifier = {
      factor = 1.3
      has_province_flag = risk1
    } 
    modifier = {
      factor = 1.2
      has_province_flag = risk2
    }
    modifier = {
      factor = 1.1
      has_province_flag = risk3
    }
		modifier = {
		  factor = 0
		  owner = { NOT = { relation = { who = KNI value = 0 } } }
    }
		modifier = {
		  factor = 0.8
      owner = { NOT = { relation = { who = KNI value = 25 } } }
    }
		modifier = {
		  factor = 0.9
      owner = { NOT = { relation = { who = KNI value = 50 } } }
    }
    modifier = {
      factor = 1.2
      owner = { relation = { who = KNI value = 150 } }
    }
    modifier = {
      factor = 1.2
      owner = { relation = { who = KNI value = 175 } }
    }
	}
}

# Knight Chaplain of St John
KoSJ_advisor_3 = {
	tolerance_heathen = -0.35
	diplomatic_skill = 0.5
  prestige_from_naval = 0.01
	prestige_from_land = 0.01
	chance = {
		factor = 1
		modifier = {
			factor = 0
      NOT = { has_province_modifier = stjohn_grandpriory }
      NOT = { has_province_modifier = KoSJ_FORT1 }
  		NOT = { has_province_modifier = KoSJ_FORT2 }
  		NOT = { has_province_modifier = KoSJ_FORT3 }
  		NOT = { has_province_modifier = KoSJ_FORT4 }
  		NOT = { has_province_modifier = KoSJ_FORT5 }
  		NOT = { has_province_modifier = KoSJ_FORT6 }
  		NOT = { has_province_modifier = KoSJ_FORT7 }
  		NOT = { has_province_modifier = KoSJ_FORT8 }
  		NOT = { has_province_modifier = KoSJ_FORT9 }
		}
		modifier = {
		  factor = 0.8 #dont want them flooding Europe so give a lesser chance for AI countries
		  owner = {
		    ai = yes
		    NOT = { tag = KNI }
		  }
    }
    modifier = {
      factor = 1.1
      or = {
        has_province_modifier = KoSJ_FORT1
        has_province_modifier = KoSJ_FORT2
        has_province_modifier = KoSJ_FORT3
      }
    }
    modifier = {
      factor = 1.2
      or = {
        has_province_modifier = KoSJ_FORT4
        has_province_modifier = KoSJ_FORT5
        has_province_modifier = KoSJ_FORT6
      }
    }
    modifier = {
      factor = 1.3
      or = {
        has_province_modifier = KoSJ_FORT7
        has_province_modifier = KoSJ_FORT8
        has_province_modifier = KoSJ_FORT9
      }
    }
		modifier = {
		  factor = 0
		  NOT = { owner = { religion_group = christian } }
    }
    modifier = {
			factor = 0.9
			owner = { quality_quantity = 2 } 
		}
		modifier = {
		  factor = 0.9
		  owner = { aristocracy_plutocracy = 0 }
    }
    modifier = {
		  factor = 0.9
		  owner = { aristocracy_plutocracy = 2 }
    }
    modifier = {
		  factor = 0.9
		  owner = { aristocracy_plutocracy = 5 }
    }
    modifier = {
		  factor = 0.9
		  owner = { NOT = { innovative_narrowminded = 0 } }
    }
    modifier = {
		  factor = 0.9
		  owner = { NOT = { innovative_narrowminded = -3 } }
    }
    modifier = {
      factor = 0.5
      owner = {
        OR = {
          alliance_with = MOR
          alliance_with = ALG
          alliance_with = TUN
          alliance_with = TRP
          alliance_with = MAM
          alliance_with = TUR
        }
      }
    }
    modifier = {
      factor = 0.9
      owner = {
        OR = {
          advisor = jewish_advisor_1
          advisor = jewish_advisor_2
          advisor = jewish_advisor_3
          advisor = jewish_advisor_4
          advisor = jewish_advisor_5
          advisor = jewish_advisor_6
        }
      }
    }
		modifier = {
		  factor = 1.2
		  owner = {
		    dominant_religion = catholic
      }
      KNI = { religion = catholic }
    }
    modifier = {
      factor = 1.2
      owner = {
        any_neighbor_country = {
          religion_group = muslim
        }
      }
    }
    modifier = {
      factor = 1.2
      owner = {
        religion = catholic
        defender_of_faith = yes
      }
      KNI = { religion = catholic }
    }
    modifier = {
      factor = 1.1
      owner = {
			  has_country_modifier = national_defence_plan			
      }
    }
    modifier = {
      factor = 0.5
      owner = {
			  has_country_flag = pirate_pact
			}
    }
		modifier = {
				factor = 1.2
				owner = {
					  war_with = MOR 
				}
		}
		modifier = {
				factor = 1.2
				owner = {
					    war_with = ALG
				}
		}
		modifier = {
				factor = 1.2
				owner = {
					  war_with = TUN
				}
		}
		modifier = {
				factor = 1.2
				owner = {
					  war_with = TRP
				}
		}
		modifier = {
				factor = 1.2
				owner = {
					    war_with = MAM
				}
		}
		modifier = {
				factor = 1.2
				owner = {
					  war_with = TUR
				}
		}
    modifier = {
      factor = 1.3
      has_province_flag = risk1
    } 
    modifier = {
      factor = 1.2
      has_province_flag = risk2
    }
    modifier = {
      factor = 1.1
      has_province_flag = risk3
    }
		modifier = {
		  factor = 0
		  owner = { NOT = { relation = { who = KNI value = 0 } } }
    }
		modifier = {
		  factor = 0.8
      owner = { NOT = { relation = { who = KNI value = 25 } } }
    }
		modifier = {
		  factor = 0.9
      owner = { NOT = { relation = { who = KNI value = 50 } } }
    }
    modifier = {
      factor = 1.2
      owner = { relation = { who = KNI value = 150 } }
    }
    modifier = {
      factor = 1.2
      owner = { relation = { who = KNI value = 175 } }
    }
	}
}
# Knight Bailli of St John
KoSJ_advisor_4 = {
	tolerance_heathen = -0.35
	leader_siege = 0.35
	land_attrition = -0.035
	chance = {
		factor = 1
		modifier = {
			factor = 0
      NOT = { has_province_modifier = stjohn_grandpriory }
      NOT = { has_province_modifier = KoSJ_FORT1 }
  		NOT = { has_province_modifier = KoSJ_FORT2 }
  		NOT = { has_province_modifier = KoSJ_FORT3 }
  		NOT = { has_province_modifier = KoSJ_FORT4 }
  		NOT = { has_province_modifier = KoSJ_FORT5 }
  		NOT = { has_province_modifier = KoSJ_FORT6 }
  		NOT = { has_province_modifier = KoSJ_FORT7 }
  		NOT = { has_province_modifier = KoSJ_FORT8 }
  		NOT = { has_province_modifier = KoSJ_FORT9 }
		}
		modifier = {
		  factor = 0.8 #dont want them flooding Europe so give a lesser chance for AI countries
		  owner = {
		    ai = yes
		    NOT = { tag = KNI }
		  }
    }
    modifier = {
      factor = 1.1
      or = {
        has_province_modifier = KoSJ_FORT1
        has_province_modifier = KoSJ_FORT2
        has_province_modifier = KoSJ_FORT3
      }
    }
    modifier = {
      factor = 1.2
      or = {
        has_province_modifier = KoSJ_FORT4
        has_province_modifier = KoSJ_FORT5
        has_province_modifier = KoSJ_FORT6
      }
    }
    modifier = {
      factor = 1.3
      or = {
        has_province_modifier = KoSJ_FORT7
        has_province_modifier = KoSJ_FORT8
        has_province_modifier = KoSJ_FORT9
      }
    }
		modifier = {
		  factor = 0
		  NOT = { owner = { religion_group = christian } }
    }
    modifier = {
			factor = 0.9
			owner = { quality_quantity = 2 } 
		}
		modifier = {
		  factor = 0.9
		  owner = { aristocracy_plutocracy = 0 }
    }
    modifier = {
		  factor = 0.9
		  owner = { aristocracy_plutocracy = 2 }
    }
    modifier = {
		  factor = 0.9
		  owner = { aristocracy_plutocracy = 5 }
    }
    modifier = {
		  factor = 0.9
		  owner = { NOT = { innovative_narrowminded = 0 } }
    }
    modifier = {
		  factor = 0.9
		  owner = { NOT = { innovative_narrowminded = -3 } }
    }
    modifier = {
      factor = 0.5
      owner = {
        OR = {
          alliance_with = MOR
          alliance_with = ALG
          alliance_with = TUN
          alliance_with = TRP
          alliance_with = MAM
          alliance_with = TUR
        }
      }
    }
    modifier = {
      factor = 0.9
      owner = {
        OR = {
          advisor = jewish_advisor_1
          advisor = jewish_advisor_2
          advisor = jewish_advisor_3
          advisor = jewish_advisor_4
          advisor = jewish_advisor_5
          advisor = jewish_advisor_6
        }
      }
    }
		modifier = {
		  factor = 1.2
		  owner = {
		    dominant_religion = catholic
      }
      KNI = { religion = catholic }
    }
    modifier = {
      factor = 1.2
      owner = {
        any_neighbor_country = {
          religion_group = muslim
        }
      }
    }
    modifier = {
      factor = 1.2
      owner = {
        religion = catholic
        defender_of_faith = yes
      }
      KNI = { religion = catholic }
    }
    modifier = {
      factor = 1.1
      owner = {
			  has_country_modifier = national_defence_plan			
      }
    }
    modifier = {
      factor = 0.5
      owner = {
			  has_country_flag = pirate_pact
			}
    }
		modifier = {
				factor = 1.2
				owner = {
					  war_with = MOR 
				}
		}
		modifier = {
				factor = 1.2
				owner = {
					    war_with = ALG
				}
		}
		modifier = {
				factor = 1.2
				owner = {
					  war_with = TUN
				}
		}
		modifier = {
				factor = 1.2
				owner = {
					  war_with = TRP
				}
		}
		modifier = {
				factor = 1.2
				owner = {
					    war_with = MAM
				}
		}
		modifier = {
				factor = 1.2
				owner = {
					  war_with = TUR
				}
		}
    modifier = {
      factor = 1.3
      has_province_flag = risk1
    } 
    modifier = {
      factor = 1.2
      has_province_flag = risk2
    }
    modifier = {
      factor = 1.1
      has_province_flag = risk3
    }
		modifier = {
		  factor = 0
		  owner = { NOT = { relation = { who = KNI value = 0 } } }
    }
		modifier = {
		  factor = 0.8
      owner = { NOT = { relation = { who = KNI value = 25 } } }
    }
		modifier = {
		  factor = 0.9
      owner = { NOT = { relation = { who = KNI value = 50 } } }
    }
    modifier = {
      factor = 1.2
      owner = { relation = { who = KNI value = 150 } }
    }
    modifier = {
      factor = 1.2
      owner = { relation = { who = KNI value = 175 } }
    }
	}
}

##############
# Dei Gratia #
##############

ascetic_monk = { 
	prestige = 0.006
	production_tech_investment = 2

	chance = {
		factor = 1
		modifier = { 
			has_owner_religion = no
			factor = 0
			}
		modifier = { 
			NOT = { 
				OR = {
					religion = catholic
					religion = orthodox
					religion = oriental
					religion = jain
					religion = hinduism
					religion = buddhism
					religion = shinto
					religion = zoroastrian
					}
				}
			factor = 0
			}
		modifier = { 
			NOT = { owner = { check_variable = { which = "religious_fervor" value = -3 } } }
			factor = 0
			}
		modifier = { 
			NOT = { owner = { check_variable = { which = "religious_fervor" value = 1 } } }
			factor = 0.8
			}
		modifier = { 
			NOT = { owner = { check_variable = { which = "religious_fervor" value = 5 } } }
			factor = 0.8
			}
		modifier = { 
			NOT = { owner = { check_variable = { which = "religious_fervor" value = 9 } } }
			factor = 0.8
			}
		modifier = { 
			owner = { check_variable = { which = "clergy_mood" value = 70 } }
			factor = 1.2
			}
		modifier = { 
			owner = { check_variable = { which = "clergy_mood" value = 90 } }
			factor = 1.2
			}
		modifier = { 
			owner = { NOT = { check_variable = { which = "clergy_mood" value = 30 } } }
			factor = 0.8
			}
		modifier = { 
			owner = { NOT = { check_variable = { which = "clergy_mood" value = 10 } } }
			factor = 0.8
			}
		modifier = { 
			has_building = temple
			factor = 1.4
			}
		modifier = { 
			owner = { advisor = ascetic_monk }
			factor = 0.2
			}
		modifier = { 
			NOT = { citysize = 5000 }
			factor = 1.4
			}
		modifier = { 
			citysize = 25000
			factor = 0.7
			}
		modifier = { 
			OR = { 
				has_province_modifier = augustinian_order
				has_province_modifier = carmelite_order
				has_province_modifier = bridgettine_order
				has_province_modifier = cenobitic_order
				has_province_modifier = matha
				}
			factor = 2
			}
		modifier = { 
			OR = { 
				has_province_modifier = jesuit_activity
				has_province_modifier = jesuit_mission
				}
			factor = 0
			}
		modifier = { 
			OR = { 
				has_province_modifier = dominican_order
				has_province_modifier = franciscan_order
				has_province_modifier = lavras
				}
			factor = 0
			}
		modifier = { 
			owner = { has_country_flag = monasticism_declines }
			factor = 0.2
			}
		}

	}

oblate_friar = { 
	missionary_placement_chance = 0.005
	global_revolt_risk = -0.50

	chance = {
		factor = 1
		modifier = { 
			has_owner_religion = no
			factor = 0
			}
		modifier = { 
			NOT = { 
				OR = {
					religion = catholic
					religion = orthodox
					religion = oriental
					religion = jain
					religion = hinduism
					religion = buddhism
					}
				}
			factor = 0
			}
		modifier = { 
			NOT = { owner = { check_variable = { which = "religious_fervor" value = -3 } } }
			factor = 0
			}
		modifier = { 
			NOT = { owner = { check_variable = { which = "religious_fervor" value = 1 } } }
			factor = 0.8
			}
		modifier = { 
			NOT = { owner = { check_variable = { which = "religious_fervor" value = 5 } } }
			factor = 0.8
			}
		modifier = { 
			NOT = { owner = { check_variable = { which = "religious_fervor" value = 9 } } }
			factor = 0.8
			}
		modifier = { 
			owner = { check_variable = { which = "clergy_mood" value = 70 } }
			factor = 1.2
			}
		modifier = { 
			owner = { check_variable = { which = "clergy_mood" value = 90 } }
			factor = 1.2
			}
		modifier = { 
			owner = { NOT = { check_variable = { which = "clergy_mood" value = 30 } } }
			factor = 0.8
			}
		modifier = { 
			owner = { NOT = { check_variable = { which = "clergy_mood" value = 10 } } }
			factor = 0.8
			}
		modifier = { 
			has_building = temple
			factor = 1.4
			}
		modifier = { 
			owner = { advisor = oblate_friar }
			factor = 0.2
			}
		modifier = { 
			NOT = { citysize = 5000 }
			factor = 0.7
			}
		modifier = { 
			citysize = 25000
			factor = 1.4
			}
		modifier = { 
			OR = { 
				has_province_modifier = augustinian_order
				has_province_modifier = carmelite_order
				has_province_modifier = bridgettine_order
				has_province_modifier = cenobitic_order
				has_province_modifier = matha
				}
			factor = 0
			}
		modifier = { 
			OR = { 
				has_province_modifier = jesuit_activity
				has_province_modifier = jesuit_mission
				}
			factor = 0
			}
		modifier = { 
			OR = { 
				has_province_modifier = dominican_order
				has_province_modifier = franciscan_order
				has_province_modifier = lavras
				}
			factor = 2
			}
		modifier = { 
			owner = { has_country_flag = monasticism_declines }
			factor = 0.2
			}
		}

	}

warrior_monk = { 
	land_morale = 0.05
	leader_shock = 0.1
	prestige_from_land = 0.01

	chance = {
		factor = 1
		modifier = { 
			has_owner_religion = no
			factor = 0
			}
		modifier = { 
			NOT = { religion = shinto }
			factor = 0
			}
		modifier = { 
			NOT = { owner = { check_variable = { which = "religious_fervor" value = -3 } } }
			factor = 0
			}
		modifier = { 
			NOT = { owner = { check_variable = { which = "religious_fervor" value = 1 } } }
			factor = 0.8
			}
		modifier = { 
			NOT = { owner = { check_variable = { which = "religious_fervor" value = 5 } } }
			factor = 0.8
			}
		modifier = { 
			NOT = { owner = { check_variable = { which = "religious_fervor" value = 9 } } }
			factor = 0.8
			}
		modifier = { 
			owner = { check_variable = { which = "clergy_mood" value = 70 } }
			factor = 1.2
			}
		modifier = { 
			owner = { check_variable = { which = "clergy_mood" value = 90 } }
			factor = 1.2
			}
		modifier = { 
			owner = { NOT = { check_variable = { which = "clergy_mood" value = 30 } } }
			factor = 0.8
			}
		modifier = { 
			owner = { NOT = { check_variable = { which = "clergy_mood" value = 10 } } }
			factor = 0.8
			}
		modifier = { 
			has_building = temple
			factor = 1.4
			}
		modifier = { 
			owner = { advisor = warrior_monk }
			factor = 0.2
			}
		modifier = { 
			owner = { NOT = { OR = { has_country_modifier = pure_land_buddhism has_country_modifier = lotus_sutra_buddhism } } }
			factor = 0.5
			}
		modifier = { 
			owner = { has_country_modifier = tibetan_buddhism }
			factor = 0.5
			}
		}

	}

jesuit_confessor = { 
	diplomatic_skill = 0.35
	missionaries = 0.05
	missionary_cost = -0.01
	spy_efficiency = 0.01

	chance = {
		factor = 1
		modifier = { 
			has_owner_religion = no
			factor = 0
			}
		modifier = { 
			NOT = { religion = catholic }
			factor = 0
			}
		modifier = { 
			NOT = { PAP = { has_country_flag = jesuits_founded } }
			factor = 0
			}
		modifier = { 
			NOT = { owner = { has_country_flag = jesuit_influence } }
			factor = 0
			}
		modifier = { 
			NOT = { owner = { check_variable = { which = "religious_fervor" value = -3 } } }
			factor = 0
			}
		modifier = { 
			NOT = { owner = { check_variable = { which = "religious_fervor" value = 1 } } }
			factor = 0.8
			}
		modifier = { 
			NOT = { owner = { check_variable = { which = "religious_fervor" value = 5 } } }
			factor = 0.8
			}
		modifier = { 
			NOT = { owner = { check_variable = { which = "religious_fervor" value = 9 } } }
			factor = 0.8
			}
		modifier = { 
			owner = { check_variable = { which = "clergy_mood" value = 70 } }
			factor = 1.2
			}
		modifier = { 
			owner = { check_variable = { which = "clergy_mood" value = 90 } }
			factor = 1.2
			}
		modifier = { 
			owner = { NOT = { check_variable = { which = "clergy_mood" value = 30 } } }
			factor = 0.8
			}
		modifier = { 
			owner = { NOT = { check_variable = { which = "clergy_mood" value = 10 } } }
			factor = 0.8
			}
		modifier = { 
			has_building = temple
			factor = 1.4
			}
		modifier = { 
			owner = { advisor = jesuit_confessor }
			factor = 0.2
			}
		modifier = { 
			OR = { 
				has_province_modifier = augustinian_order
				has_province_modifier = carmelite_order
				has_province_modifier = bridgettine_order
				has_province_modifier = cenobitic_order
				has_province_modifier = matha
				}
			factor = 0
			}
		modifier = { 
			OR = { 
				has_province_modifier = jesuit_activity
				has_province_modifier = jesuit_mission
				}
			factor = 2
			}
		modifier = { 
			OR = { 
				has_province_modifier = dominican_order
				has_province_modifier = franciscan_order
				has_province_modifier = lavras
				}
			factor = 0
			}
		modifier = { 
			owner = { 
				OR = { 
					has_country_modifier = jesuit_reaction_mild
					has_country_modifier = jesuit_reaction_severe
					}
				}
			factor = 0
			}
		}

	}

jesuit_missionary = { 
	production_tech_investment = 1
	government_tech_investment = 1
	land_tech_investment = 1
	badboy_limit = 0.5

	chance = {
		factor = 1
		modifier = { 
			NOT = { religion = catholic }
			factor = 0
			}
		modifier = { 
			NOT = { PAP = { has_country_flag = jesuits_founded } }
			factor = 0
			}
		modifier = { 
			NOT = { owner = { religion_group = pagan } }
			factor = 0
			}
		modifier = { 
			continent = europe
			factor = 0
			}
		modifier = { 
			NOT = { owner = { check_variable = { which = "religious_fervor" value = -3 } } }
			factor = 0
			}
		modifier = { 
			NOT = { owner = { check_variable = { which = "religious_fervor" value = 1 } } }
			factor = 0.8
			}
		modifier = { 
			NOT = { owner = { check_variable = { which = "religious_fervor" value = 5 } } }
			factor = 0.8
			}
		modifier = { 
			NOT = { owner = { check_variable = { which = "religious_fervor" value = 9 } } }
			factor = 0.8
			}
		modifier = { 
			owner = { check_variable = { which = "clergy_mood" value = 70 } }
			factor = 1.2
			}
		modifier = { 
			owner = { check_variable = { which = "clergy_mood" value = 90 } }
			factor = 1.2
			}
		modifier = { 
			owner = { NOT = { check_variable = { which = "clergy_mood" value = 30 } } }
			factor = 0.8
			}
		modifier = { 
			owner = { NOT = { check_variable = { which = "clergy_mood" value = 10 } } }
			factor = 0.8
			}
		modifier = { 
			has_building = temple
			factor = 1.4
			}
		modifier = { 
			owner = { advisor = jesuit_missionary }
			factor = 0.2
			}
		modifier = { 
			owner = { has_country_modifier = religious_intolerance }
			factor = 0
			}
		modifier = { 
			owner = { has_country_modifier = religious_tolerance }
			factor = 2
			}
		}

	} 

jesuit_ambassador = { 
	land_tech_investment = 2
	diplomatic_skill = 0.35
	global_spy_defence = 0.01

	chance = {
		factor = 1
		modifier = { 
			NOT = { PAP = { has_country_flag = jesuits_founded } }
			factor = 0
			}
		modifier = { 
			NOT = { religion = catholic }
			factor = 0
			}
		modifier = { 
			NOT = { 
				owner = { 
					OR = { 
						religion_group = taoic
						religion_group = dharmic
						religion = oriental
						}
					}
				}
			factor = 0
			}
		modifier = { 
			continent = europe
			factor = 0
			}
		modifier = { 
			NOT = { owner = { check_variable = { which = "religious_fervor" value = -3 } } }
			factor = 0
			}
		modifier = { 
			NOT = { owner = { check_variable = { which = "religious_fervor" value = 1 } } }
			factor = 0.8
			}
		modifier = { 
			NOT = { owner = { check_variable = { which = "religious_fervor" value = 5 } } }
			factor = 0.8
			}
		modifier = { 
			NOT = { owner = { check_variable = { which = "religious_fervor" value = 9 } } }
			factor = 0.8
			}
		modifier = { 
			owner = { check_variable = { which = "clergy_mood" value = 70 } }
			factor = 1.2
			}
		modifier = { 
			owner = { check_variable = { which = "clergy_mood" value = 90 } }
			factor = 1.2
			}
		modifier = { 
			owner = { NOT = { check_variable = { which = "clergy_mood" value = 30 } } }
			factor = 0.8
			}
		modifier = { 
			owner = { NOT = { check_variable = { which = "clergy_mood" value = 10 } } }
			factor = 0.8
			}
		modifier = { 
			has_building = temple
			factor = 1.4
			}
		modifier = { 
			owner = { advisor = jesuit_ambassador }
			factor = 0.2
			}
		modifier = { 
			owner = { has_country_modifier = religious_intolerance }
			factor = 0
			}
		modifier = { 
			owner = { has_country_modifier = religious_tolerance }
			factor = 2
			}
		}

	}

guru = { 
	badboy = -0.01
	tolerance_heathen = 0.35
	tolerance_heretic = 0.35

	chance = {
		factor = 1
		modifier = { 
			has_owner_religion = no
			factor = 0
			}
		modifier = { 
			NOT = { religion = sikh }
			factor = 0
			}
		modifier = { 
			NOT = { owner = { check_variable = { which = "religious_fervor" value = -3 } } }
			factor = 0
			}
		modifier = { 
			NOT = { owner = { check_variable = { which = "religious_fervor" value = 1 } } }
			factor = 0.8
			}
		modifier = { 
			NOT = { owner = { check_variable = { which = "religious_fervor" value = 5 } } }
			factor = 0.8
			}
		modifier = { 
			NOT = { owner = { check_variable = { which = "religious_fervor" value = 9 } } }
			factor = 0.8
			}
		modifier = { 
			owner = { check_variable = { which = "clergy_mood" value = 70 } }
			factor = 1.2
			}
		modifier = { 
			owner = { check_variable = { which = "clergy_mood" value = 90 } }
			factor = 1.2
			}
		modifier = { 
			owner = { NOT = { check_variable = { which = "clergy_mood" value = 30 } } }
			factor = 0.8
			}
		modifier = { 
			owner = { NOT = { check_variable = { which = "clergy_mood" value = 10 } } }
			factor = 0.8
			}
		modifier = { 
			has_building = temple
			factor = 1.4
			}
		modifier = { 
			owner = { advisor = guru }
			factor = 0.2
			}
		modifier = { 
			owner = { has_country_modifier = religious_intolerance }
			factor = 0
			}
		modifier = { 
			owner = { has_country_modifier = religious_tolerance }
			factor = 2
			}
		}

	}

swami = { #hindu saints
	prestige = 0.008
	advisor_cost = -0.05

	chance = {
		factor = 1
		modifier = { 
			has_owner_religion = no
			factor = 0
			}
		modifier = { 
			NOT = { religion = hinduism }
			factor = 0
			}
		modifier = { 
			NOT = { owner = { check_variable = { which = "religious_fervor" value = -3 } } }
			factor = 0
			}
		modifier = { 
			NOT = { owner = { check_variable = { which = "religious_fervor" value = 1 } } }
			factor = 0.8
			}
		modifier = { 
			NOT = { owner = { check_variable = { which = "religious_fervor" value = 5 } } }
			factor = 0.8
			}
		modifier = { 
			NOT = { owner = { check_variable = { which = "religious_fervor" value = 9 } } }
			factor = 0.8
			}
		modifier = { 
			owner = { check_variable = { which = "clergy_mood" value = 70 } }
			factor = 1.2
			}
		modifier = { 
			owner = { check_variable = { which = "clergy_mood" value = 90 } }
			factor = 1.2
			}
		modifier = { 
			owner = { NOT = { check_variable = { which = "clergy_mood" value = 30 } } }
			factor = 0.8
			}
		modifier = { 
			owner = { NOT = { check_variable = { which = "clergy_mood" value = 10 } } }
			factor = 0.8
			}
		modifier = { 
			has_building = temple
			factor = 1.4
			}
		modifier = { 
			owner = { advisor = swami }
			factor = 0.2
			}
		modifier = {
			owner = { NOT = { has_country_modifier = vaishnavism } }
			factor = 0.5
			}
		}

	} 

sufi_dervish = { #mystics, helped convert outsiders, acted as mediators within nations
	missionary_placement_chance = 0.01
	prestige = 0.004
	
	chance = {
		factor = 1
		modifier = { 
			has_owner_religion = no
			factor = 0
			}
		modifier = { 
			NOT = { 
				OR = { 
					religion = sunni
					religion = shiite
					}
				}
			factor = 0
			}
		modifier = { 
			NOT = { owner = { check_variable = { which = "religious_fervor" value = -3 } } }
			factor = 0
			}
		modifier = { 
			NOT = { owner = { check_variable = { which = "religious_fervor" value = 1 } } }
			factor = 0.8
			}
		modifier = { 
			NOT = { owner = { check_variable = { which = "religious_fervor" value = 5 } } }
			factor = 0.8
			}
		modifier = { 
			NOT = { owner = { check_variable = { which = "religious_fervor" value = 9 } } }
			factor = 0.8
			}
		modifier = { 
			owner = { check_variable = { which = "clergy_mood" value = 70 } }
			factor = 1.2
			}
		modifier = { 
			owner = { check_variable = { which = "clergy_mood" value = 90 } }
			factor = 1.2
			}
		modifier = { 
			owner = { NOT = { check_variable = { which = "clergy_mood" value = 30 } } }
			factor = 0.8
			}
		modifier = { 
			owner = { NOT = { check_variable = { which = "clergy_mood" value = 10 } } }
			factor = 0.8
			}
		modifier = { 
			has_building = temple
			factor = 1.4
			}
		modifier = { 
			owner = { advisor = sufi_dervish }
			factor = 0.2
			}
		modifier = { 
			has_province_modifier = sufi_order
			factor = 2
			}
		}

	} 
	# Suhrawardis - in Delhi, Multan, Gujarat, Uch - acted as mediators between political authorities
		# had state patronage, given gifts of land, other favors
	# Chistis - refused government service, endowments, charity and respect for poor were central values
		# helped validate authority of sultan
		# hq in delhi
	# Sufis and Ulema were often used as counterweights to each other

sufi_fakir = { #mystics, helped convert outsiders, acted as mediators within nations
	prestige = 0.004
	tolerance_heathen = 0.35
	foreign_merchant_compete_chance = 0.01
	
	chance = {
		factor = 1
		modifier = { 
			has_owner_religion = yes
			factor = 0
			}
		modifier = { 
			NOT = { 
				OR = { 
					religion = sunni
					religion = shiite
					}
				}
			factor = 0
			}
		modifier = { 
			NOT = { owner = { check_variable = { which = "religious_fervor" value = -3 } } }
			factor = 0
			}
		modifier = { 
			NOT = { owner = { check_variable = { which = "religious_fervor" value = 1 } } }
			factor = 0.8
			}
		modifier = { 
			NOT = { owner = { check_variable = { which = "religious_fervor" value = 5 } } }
			factor = 0.8
			}
		modifier = { 
			NOT = { owner = { check_variable = { which = "religious_fervor" value = 9 } } }
			factor = 0.8
			}
		modifier = { 
			owner = { check_variable = { which = "clergy_mood" value = 70 } }
			factor = 1.2
			}
		modifier = { 
			owner = { check_variable = { which = "clergy_mood" value = 90 } }
			factor = 1.2
			}
		modifier = { 
			owner = { NOT = { check_variable = { which = "clergy_mood" value = 30 } } }
			factor = 0.8
			}
		modifier = { 
			owner = { NOT = { check_variable = { which = "clergy_mood" value = 10 } } }
			factor = 0.8
			}
		modifier = { 
			has_building = temple
			factor = 1.4
			}
		modifier = { 
			owner = { advisor = sufi_fakir }
			factor = 0.2
			}
		modifier = { 
			owner = { has_country_modifier = religious_intolerance }
			factor = 0
			}
		modifier = { 
			owner = { has_country_modifier = religious_tolerance }
			factor = 2
			}
		}

	} 

ulama = { #bureaucratic judges, sages and teachers
	government_tech_investment = 2
	stability_investment = 2
	global_revolt_risk = -0.5

	chance = {
		factor = 1
		modifier = { 
			has_owner_religion = no
			factor = 0
			}
		modifier = { 
			NOT = { religion_group = muslim }
			factor = 0
			}
		modifier = { 
			NOT = { owner = { check_variable = { which = "religious_fervor" value = -3 } } }
			factor = 0
			}
		modifier = { 
			NOT = { owner = { check_variable = { which = "religious_fervor" value = 1 } } }
			factor = 0.8
			}
		modifier = { 
			NOT = { owner = { check_variable = { which = "religious_fervor" value = 5 } } }
			factor = 0.8
			}
		modifier = { 
			NOT = { owner = { check_variable = { which = "religious_fervor" value = 9 } } }
			factor = 0.8
			}
		modifier = { 
			owner = { check_variable = { which = "clergy_mood" value = 70 } }
			factor = 1.2
			}
		modifier = { 
			owner = { check_variable = { which = "clergy_mood" value = 90 } }
			factor = 1.2
			}
		modifier = { 
			owner = { NOT = { check_variable = { which = "clergy_mood" value = 30 } } }
			factor = 0.8
			}
		modifier = { 
			owner = { NOT = { check_variable = { which = "clergy_mood" value = 10 } } }
			factor = 0.8
			}
		modifier = { 
			has_building = university
			factor = 2
			}
		modifier = { 
			owner = { advisor = ulama }
			factor = 0.2
			}
		modifier = { 
			owner = { has_country_modifier = ulema_support }
			factor = 2
			}
		modifier = { 
			has_province_modifier = madrassa
			factor = 2
			}
		}

	} 

alchemist = { #Taoist mystics who believed they could discover the secret of immortality
	prestige = 0.008
	production_tech_investment = 1

	chance = {
		factor = 1
		modifier = { 
			NOT = { check_variable = { which = "taoist" value = 5 } }
			factor = 0
			}
		modifier = { 
			NOT = { religion_group = taoic }
			factor = 0
			}
		modifier = { 
			NOT = { owner = { check_variable = { which = "religious_fervor" value = -3 } } }
			factor = 0
			}
		modifier = { 
			NOT = { owner = { check_variable = { which = "religious_fervor" value = 1 } } }
			factor = 0.8
			}
		modifier = { 
			NOT = { owner = { check_variable = { which = "religious_fervor" value = 5 } } }
			factor = 0.8
			}
		modifier = { 
			NOT = { owner = { check_variable = { which = "religious_fervor" value = 9 } } }
			factor = 0.8
			}
		modifier = { 
			owner = { check_variable = { which = "clergy_mood" value = 70 } }
			factor = 1.2
			}
		modifier = { 
			owner = { check_variable = { which = "clergy_mood" value = 90 } }
			factor = 1.2
			}
		modifier = { 
			owner = { NOT = { check_variable = { which = "clergy_mood" value = 30 } } }
			factor = 0.8
			}
		modifier = { 
			owner = { NOT = { check_variable = { which = "clergy_mood" value = 10 } } }
			factor = 0.8
			}
		modifier = { 
			owner = { advisor = alchemist }
			factor = 0.2
			}
		}

	}


	
########################################################
#
#          WIZ ADVISORS
#
#######################################################
	
	
	
native_chieftain = { #A chieftain of an influential native tribe
	global_colonial_growth = 0.03
	colonist_placement_chance = 0.01
	prestige = -0.001

	chance = {
		factor = 1
		modifier = { 
			NOT = { check_variable = { which = "native_tribe_size" value = 3 } }
			factor = 0.90
			}
		modifier = { 
			NOT = { check_variable = { which = "native_tribe_size" value = 5 } }
			factor = 0.90
			}
		modifier = { 
			NOT = { check_variable = { which = "native_tribe_size" value = 7 } }
			factor = 0.90
			}	
		modifier = { 
			NOT = { check_variable = { which = "native_tribe_size" value = 9 } }
			factor = 0.90
			}
		modifier = { 
			NOT = { check_variable = { which = "native_tribe_relations" value = -2 } }
			factor = 0.25
			}
		modifier = { 
			NOT = { check_variable = { which = "native_tribe_relations" value = 2 } }
			factor = 0.90
			}
		modifier = { 
			NOT = { check_variable = { which = "native_tribe_relations" value = 4 } }
			factor = 0.90
			}
		modifier = { 
			NOT = { check_variable = { which = "native_tribe_relations" value = 6 } }
			factor = 0.90
			}
		modifier = { 
			NOT = { check_variable = { which = "native_tribe_relations" value = 8 } }
			factor = 0.90
			}
		modifier = { 
			owner = { has_country_flag = pacific_integration }
			factor = 1.25
			}
		modifier = { 
			owner = { has_country_flag = extractive_prerrogative }
			factor = 0.90
			}
		modifier = { 
			owner = { has_country_flag = trade_supremacy }
			factor = 1.15
			}
		modifier = { 
			owner = { has_country_flag = military_possession }
			factor = 0.85
			}			
		modifier = { 
			owner = { has_country_flag = merciless_subjugation }
			factor = 0.75
			}
		modifier = { 
			NOT = { check_variable = { which = "native_tribe_size" value = 1 } }
			factor = 0
			}
		modifier = { 
			NOT = { has_province_flag = natives_initialized }
			factor = 0
			}
		modifier = { 
			NOT = { has_province_flag = colony_established }
			factor = 0
			}			
		}	
	}
	
native_scout = { #An experienced native scout
	land_attrition = -0.03
	colonist_cost = -0.02
	prestige = -0.002

	chance = {
		factor = 1
		modifier = { 
			NOT = { check_variable = { which = "native_tribe_size" value = 3 } }
			factor = 0.95
			}
		modifier = { 
			NOT = { check_variable = { which = "native_tribe_size" value = 5 } }
			factor = 0.95
			}
		modifier = { 
			NOT = { check_variable = { which = "native_tribe_size" value = 7 } }
			factor = 0.95
			}	
		modifier = { 
			NOT = { check_variable = { which = "native_tribe_size" value = 9 } }
			factor = 0.95
			}
		modifier = { 
			NOT = { check_variable = { which = "native_tribe_relations" value = -2 } }
			factor = 0.50
			}
		modifier = { 
			NOT = { check_variable = { which = "native_tribe_relations" value = 2 } }
			factor = 0.95
			}
		modifier = { 
			NOT = { check_variable = { which = "native_tribe_relations" value = 4 } }
			factor = 0.95
			}
		modifier = { 
			NOT = { check_variable = { which = "native_tribe_relations" value = 6 } }
			factor = 0.95
			}
		modifier = { 
			NOT = { check_variable = { which = "native_tribe_relations" value = 8 } }
			factor = 0.95
			}
		modifier = { 
			owner = { has_country_flag = pacific_integration }
			factor = 1.10
			}
		modifier = { 
			owner = { has_country_flag = extractive_prerrogative }
			factor = 0.95
			}
		modifier = { 
			owner = { has_country_flag = trade_supremacy }
			factor = 1.05
			}
		modifier = { 
			owner = { has_country_flag = military_possession }
			factor = 1.25
			}			
		modifier = { 
			owner = { has_country_flag = merciless_subjugation }
			factor = 0.90
			}
		modifier = { 
			NOT = { check_variable = { which = "native_tribe_size" value = 1 } }
			factor = 0
			}
		modifier = { 
			NOT = { has_province_flag = natives_initialized }
			factor = 0
			}
		modifier = { 
			NOT = { has_province_flag = colony_established }
			factor = 0
			}			
		}	
	}
	
native_trader = { #A native trader who procures high demand goods like slaves, ivory, etc
	global_tariffs = 0.02
	global_trade_income_modifier = 0.02
	prestige = -0.002

	chance = {
		factor = 1
		modifier = { 
			NOT = { check_variable = { which = "native_tribe_size" value = 3 } }
			factor = 0.95
			}
		modifier = { 
			NOT = { check_variable = { which = "native_tribe_size" value = 5 } }
			factor = 0.95
			}
		modifier = { 
			NOT = { check_variable = { which = "native_tribe_size" value = 7 } }
			factor = 0.95
			}	
		modifier = { 
			NOT = { check_variable = { which = "native_tribe_size" value = 9 } }
			factor = 0.95
			}
		modifier = { 
			NOT = { check_variable = { which = "native_tribe_relations" value = -2 } }
			factor = 0.75
			}
		modifier = { 
			NOT = { check_variable = { which = "native_tribe_relations" value = 2 } }
			factor = 0.95
			}
		modifier = { 
			NOT = { check_variable = { which = "native_tribe_relations" value = 4 } }
			factor = 0.95
			}
		modifier = { 
			NOT = { check_variable = { which = "native_tribe_relations" value = 6 } }
			factor = 0.95
			}
		modifier = { 
			NOT = { check_variable = { which = "native_tribe_relations" value = 8 } }
			factor = 0.95
			}
		modifier = { 
			owner = { has_country_flag = pacific_integration }
			factor = 1.05
			}
		modifier = { 
			owner = { has_country_flag = extractive_prerrogative }
			factor = 1.15
			}
		modifier = { 
			owner = { has_country_flag = trade_supremacy }
			factor = 1.25
			}
		modifier = { 
			owner = { has_country_flag = military_possession }
			factor = 0.75
			}			
		modifier = { 
			owner = { has_country_flag = merciless_subjugation }
			factor = 0.85
			}
		modifier = { 
			NOT = { check_variable = { which = "native_tribe_size" value = 1 } }
			factor = 0
			}
		modifier = { 
			NOT = { has_province_flag = natives_initialized }
			factor = 0
			}
		modifier = { 
			NOT = { has_province_flag = colony_established }
			factor = 0
			}			
		}	
	}