name = "MMP2 Christmas Edition '17 v1.3"
extend = "common"
replace = "decisions"
replace = "events"
extend = "gfx"
replace = "history"
extend = "interface"
extend = "localisation"
extend = "map"
replace = "missions"
