name = "Hundred Years War - The Final Phase"

1475.7.2 = {
	add_attacker = ENG
	add_attacker = BUR
	add_attacker = BRI
	add_defender = FRA
}

# Treaty of Picquigny
1475.8.29 = {
	rem_attacker = ENG
	rem_attacker = BUR
	rem_attacker = BRI
	rem_defender = FRA
}

