name = "Qara Koyunlu campaign in Azerbaijan"

1402.1.1 = {
	add_attacker = QAR
	add_attacker = JAI
	add_defender = KHO
	}
# Battle against Miranshah
1408.4.20 = {
	rem_attacker = QAR
	rem_attacker = JAI
	rem_defender = KHO
}

