# DEI GRATIA (DAVID)
# CONVERTED UP TO AND INCLUDING 04

##################
# Hussite Issues #
##################

#ID 55 Christian + 03 Hussite + xx

################
# Hussite Wars #
################

#00 Lollard Preacher (1403)
#17 Lollard Sympathies (1411)
#01 The Martyrdom of Jan Hus (1415)
#02 The Hussite Movement
#03 The Community of Tabor
#04 The Defenestration of $PROVINCECAPITAL$
#05 Crusade against the Hussites
#06 Crusade denied (ahistorical)
#07 Hussite Raids
#08 The battle of $PROVINCENAME$
#09 Noble Turncoats
#10 Truce with the Hussites
#11 Hussite Victory (ahistorical)
#12 Subjugation of the Hussites (ahistorical)
#13 The Assembly of $PROVINCECAPITAL$
#14 Compact of $PROVINCECAPITAL$ (moderate)
#15 Compact of $PROVINCECAPITAL$ (extremist, ahistorical)
#16 Battle at Lipany

########################
# Later Hussite Events #
########################

#21 Compacta voided

################
# Hussite Wars #
################

province_event = { #Lollard Preacher

id = 550300

trigger = { 
	NOT = { PAP = { has_country_flag = lollardy_banned } }
	NOT = { PAP = { has_country_flag = martyrdom_of_jan_hus } }
	religion = catholic
	OR = { 
		AND = { 
			culture = czech
			NOT = { check_variable = { which = "hussite" value = 2 } }
			}
		AND = { 
			PAP = { has_country_flag = ignore_lollards }
			culture = czech
			NOT = { check_variable = { which = "hussite" value = 4 } }
			}
		AND = { 
			PAP = { has_country_flag = lollards_ignored }
			culture = czech
			NOT = { check_variable = { which = "hussite" value = 6 } }
			}
		AND = { 
			PAP = { has_country_flag = ignore_lollards }
			any_neighbor_province = { culture = czech check_variable = { which = "hussite" value = 2 } }
			NOT = { check_variable = { which = "hussite" value = 2 } }
			}
		AND = { 
			PAP = { has_country_flag = lollards_ignored }
			any_neighbor_province = { culture = czech check_variable = { which = "hussite" value = 2 } }
			NOT = { check_variable = { which = "hussite" value = 4 } }
			}
		AND = { 
			PAP = { has_country_flag = lollards_ignored }
			any_neighbor_province = { check_variable = { which = "hussite" value = 4 } }
			NOT = { check_variable = { which = "hussite" value = 2 } }
			}
		}
	NOT = { has_province_flag = lollard_preacher }
	NOT = { has_province_modifier = effective_bishop }
	NOT = { is_religion_enabled = protestant }
	}

mean_time_to_happen = { #Began around 1403 historically and began spreading through Bohemia

	months = 72

	modifier = { 
		NOT = { culture = czech }
		factor = 5
		}
	modifier = { 
		has_province_modifier = absentee_bishop
		factor = 0.5
		}
	modifier = { 
		has_province_modifier = indulgence_peddler
		factor = 0.5
		}
	modifier = { 
		has_building = university
		factor = 0.5
		}
	modifier = { 
		owner = { check_variable = { which = "religious_fervor" value = 5 } }
		factor = 1.4
		}
	modifier = { 
		owner = { check_variable = { which = "religious_fervor" value = 9 } }
		factor = 1.4
		}
	modifier = { 
		owner = { hussite = 0 }
		factor = 0.7
		}
	modifier = { 
		owner = { NOT = { check_variable = { which = "religious_fervor" value = 1 } } }
		factor = 0.7
		}
	modifier = { 
		owner = { NOT = { check_variable = { which = "religious_fervor" value = -3 } } }
		factor = 0.7
		}
	} 

title = "EVTNAME550300"
desc = "EVTDESC550300"

immediate = { 
	change_variable = { which = "hussite" value = 2 }
	change_variable = { which = "province_religion" value = -2 }
	PAP = { change_variable = { which = "lollard_preaching" value = 1 } }
	}

option = { 
	name = "EVTOPTA550300" #Burn his manuscripts
	ai_chance = { 
		factor = 50
		modifier = { 
			owner = { check_variable = { which = "religious_fervor" value = 5 } }
			factor = 1.4
			}
		modifier = { 
			owner = { check_variable = { which = "religious_fervor" value = 7 } }
			factor = 1.4
			}
		modifier = { 
			owner = { check_variable = { which = "religious_fervor" value = 9 } }
			factor = 1.4
			}
		modifier = { 
			owner = { check_variable = { which = "religious_fervor" value = 11 } }
			factor = 1.4
			}
		modifier = { 
			owner = { NOT = { check_variable = { which = "religious_fervor" value = 3 } } }
			factor = 0.7
			}
		modifier = { 
			owner = { NOT = { check_variable = { which = "religious_fervor" value = 1 } } }
			factor = 0.7
			}
		modifier = { 
			owner = { NOT = { check_variable = { which = "religious_fervor" value = -1 } } }
			factor = 0.7
			}
		modifier = { 
			owner = { NOT = { check_variable = { which = "religious_fervor" value = -3 } } }
			factor = 0.7
			}
		}
	owner = { 
		remove_advisor = theologian
		random_owned = { 
			limit = { owner = { NOT = { missionaries = 1 } } }
			owner = { diplomats = -1 }
			}
		random_owned = { 
			limit = { owner = { missionaries = 1 } } 
			owner = { missionaries = -1 }
			}
		any_owned = { 
			limit = { 
				owner = { check_variable = { which = "religious_fervor" value = 9 } }
				check_variable = { which = "hussite" value = 2 }
				}
			heretic_rebels = 1 revolt_risk = 4
			}
		any_owned = { 
			limit = { 
				owner = { check_variable = { which = "religious_fervor" value = 5 } }
				owner = { NOT = { check_variable = { which = "religious_fervor" value = 9 } } }
				check_variable = { which = "hussite" value = 2 }
				}
			heretic_rebels = 0 revolt_risk = 3
			}
		any_owned = { 
			limit = { 
				owner = { check_variable = { which = "religious_fervor" value = 1 } }
				owner = { NOT = { check_variable = { which = "religious_fervor" value = 5 } } }
				check_variable = { which = "hussite" value = 2 }
				}
			heretic_rebels = 0 revolt_risk = 2
			}
		any_owned = { 
			limit = { 
				owner = { NOT = { check_variable = { which = "religious_fervor" value = 1 } } }
				OR = { has_province_flag = lollard_preacher check_variable = { which = "hussite" value = 2 } }
				check_variable = { which = "hussite" value = 2 }
				}
			revolt_risk = 1
			}
		PAP = { 
			relation = { who = THIS value = 10 }
			set_country_flag = calls_for_council
			}
		random_owned = { 
			limit = { owner = { missionaries = 1 } }
			owner = { missionaries = -1 }
			THIS = { 
				change_variable = { which = "hussite" value = -1 }
				change_variable = { which = "province_religion" value = 1 }
				}
			}
		}
	}
option = { 
	name = "EVTOPTB550300" #Let him be
	ai_chance = { 
		factor = 50 
		modifier = { 
			owner = { check_variable = { which = "religious_fervor" value = 5 } }
			factor = 1.4
			}
		modifier = { 
			owner = { check_variable = { which = "religious_fervor" value = 7 } }
			factor = 1.4
			}
		modifier = { 
			owner = { check_variable = { which = "religious_fervor" value = 9 } }
			factor = 1.4
			}
		modifier = { 
			owner = { check_variable = { which = "religious_fervor" value = 11 } }
			factor = 1.4
			}
		modifier = { 
			owner = { NOT = { check_variable = { which = "religious_fervor" value = 3 } } }
			factor = 0.7
			}
		modifier = { 
			owner = { NOT = { check_variable = { which = "religious_fervor" value = 1 } } }
			factor = 0.7
			}
		modifier = { 
			owner = { NOT = { check_variable = { which = "religious_fervor" value = -1 } } }
			factor = 0.7
			}
		modifier = { 
			owner = { NOT = { check_variable = { which = "religious_fervor" value = -3 } } }
			factor = 0.7
			}
		modifier = { 
			owner = { NOT = { hussite = -1 } }
			factor = 0.7
			}
		modifier = { 
			owner = { NOT = { hussite = -2 } }
			factor = 0.7
			}
		modifier = { 
			owner = { hussite = 0 }
			factor = 1.4
			}
		modifier = { 
			owner = { hussite = 1 }
			factor = 1.4
			}
		}
	change_variable = { which = "hussite" value = 2 }
	change_variable = { which = "province_religion" value = -2 }
	random_neighbor_province = { 
		change_variable = { which = "hussite" value = 1 }
		change_variable = { which = "province_religion" value = -1 }
		}
	owner = { 
		random_owned = { 
			limit = { owner = { NOT = { advisor = theologian } } }
			owner = { random = { chance = 50 create_advisor = theologian } }
			}
		random_owned = { 
			limit = { 
				owner = { check_variable = { which = "religious_fervor" value = 9 } }
				}
			THIS = { add_province_modifier = { name = "religious_scandal_province" duration = 1460 } }
			}
		random_owned = { 
			limit = { 
				owner = { check_variable = { which = "religious_fervor" value = 5 } }
				owner = { NOT = { check_variable = { which = "religious_fervor" value = 9 } } }
				}
			THIS = { add_province_modifier = { name = "religious_scandal_province" duration = 1095 } }
			}
		random_owned = { 
			limit = { 
				owner = { check_variable = { which = "religious_fervor" value = 1 } }
				owner = { NOT = { check_variable = { which = "religious_fervor" value = 5 } } }
				}
			THIS = { add_province_modifier = { name = "religious_scandal_province" duration = 730 } }
			}
		random_owned = { 
			limit = { 
				owner = { NOT = { check_variable = { which = "religious_fervor" value = 1 } } }
				}
			THIS = { add_province_modifier = { name = "religious_scandal_province" duration = 365 } }
			}
		PAP = { 
			relation = { who = THIS value = -5 }
			}
		}
	}
}

country_event = { #Lollard Sympathies

id = 550317

is_triggered_only = yes

title = "EVTNAME550317"
desc = "EVTDESC550317"

option = { 
	name = "EVTOPTA550317" #Let the mob run its course
	ai_chance = { 
		factor = 50 
		modifier = { 
			war = yes
			factor = 0.7
			}
		modifier = { 
			war_exhaustion = 4
			factor = 0.7
			}
		modifier = { 
			war_exhaustion = 8
			factor = 0.7
			}
		modifier = { 
			war_exhaustion = 12
			factor = 0.7
			}
		modifier = { 
			NOT = { manpower_percentage = 0.50 }
			factor = 0.7
			}
		modifier = { 
			NOT = { manpower_percentage = 0.25 }
			factor = 0.7
			}
		}
	government_tech = -100
	stability = -1
	any_owned = { 
		limit = { check_variable = { which = "hussite" value = 2 } }
		heretic_rebels = 1
		revolt_risk = 5
		change_variable = { which = "hussite" value = 1 }
		change_variable = { which = "province_religion" value = -1 }
		}
	}
option = { 
	name = "EVTOPTB550317" #Give our protection to the heretics
	ai_chance = { 
		factor = 50 
		modifier = { 
			NOT = { hussite = -1 }
			factor = 0.7
			}
		modifier = { 
			NOT = { hussite = -2 }
			factor = 0.7
			}
		modifier = { 
			hussite = 0
			factor = 1.4
			}
		modifier = { 
			hussite = 1
			factor = 1.4
			}
		modifier = { 
			check_variable = { which = "religious_fervor" value = 5 }
			factor = 0.7
			}
		modifier = { 
			check_variable = { which = "religious_fervor" value = 9 }
			factor = 0.7
			}
		modifier = { 
			NOT = { check_variable = { which = "religious_fervor" value = 1 } }
			factor = 2
			}
		modifier = { 
			NOT = { check_variable = { which = "religious_fervor" value = -3 } }
			factor = 2
			}
		}
	relation = { who = PAP value = -25 }
	set_country_flag = protected_hussites
	any_owned = { 
		limit = { check_variable = { which = "hussite" value = 2 } }
		change_variable = { which = "hussite" value = 2 }
		change_variable = { which = "province_religion" value = -2 }
		}
	}

}

province_event = { #The Martyrdom of Jan Hus

id = 550301

trigger = { 
	PAP = { has_country_flag = lollardy_banned }
	NOT = { PAP = { has_country_flag = martyrdom_of_jan_hus } }
	religion = catholic
	owner = { religion = catholic }
	NOT = { is_religion_enabled = hussite }
	check_variable = { which = "hussite" value = 2 }
	}

mean_time_to_happen = { months = 36 } #July 1415 historically

title = "EVTNAME550301"
desc = "EVTDESC550301"

option = { 
	name = "EVTOPTA550301"
	owner = { enable_religion = hussite }
	add_province_modifier = { name = "hussite_tensions" duration = 9125 }
	owner = { 
		random_owned = { 
			limit = { owner = { has_country_flag = protected_hussites } }
			owner = { stability = -1 }
			}
		any_owned = { 
			limit = { check_variable = { which = "hussite" value = 2 } }
			change_variable = { which = "hussite" value = 2 }
			change_variable = { which = "province_religion" value = -2 }
			}
		relation = { who = PAP value = -10 }
		random_owned = { 
			limit = { owner = { has_country_flag = protected_hussites is_emperor = yes } }
			owner = { prestige = -0.025 }
			}
		random_owned = { 
			limit = { owner = { NOT = { is_emperor = yes } } }
			owner = { emperor = { relation = { who = THIS value = -25 } } }
			}
		}
	}
}

province_event = { #The Hussite Movement

id = 550302

trigger = { 
	PAP = { has_country_flag = lollardy_banned }
	religion = catholic
	NOT = { owner = { religion = hussite } }
	NOT = { owner = { has_country_flag = hussite_compacta } }
	NOT = { religion_years = { hussite = 40 } }
	OR = { 
		has_province_modifier = hussite_tensions
		check_variable = { which = "hussite" value = 2 }
		}
	}

mean_time_to_happen = { 

	months = 240

	modifier = { 
		has_province_modifier = religious_nationalism
		factor = 2
		}
	modifier = { 
		culture = czech
		factor = 0.5
		}
	modifier = { 
		check_variable = { which = "hussite" value = 4 }
		factor = 0.9
		}
	modifier = { 
		check_variable = { which = "hussite" value = 6 }
		factor = 0.9
		}
	modifier = { 
		check_variable = { which = "hussite" value = 8 }
		factor = 0.9
		}
	modifier = { 
		has_province_flag = tabor
		factor = 0.5
		}
	modifier = { 
		has_province_flag = hussite_missionary
		factor = 0.5
		}
	modifier = { 
		owner = { has_country_flag = hussite_compacta }
		factor = 1.5
		}
	}

title = "EVTNAME550302"
desc = "EVTDESC550302"

option = {
	name = "EVTOPTA550302" #Persecute the movement
	ai_chance = {
		factor = 30
		modifier = { 
			owner = { has_country_flag = hussite_compacta }
			factor = 0.5
			}
		modifier = { 
			owner = { has_country_flag = refused_reformation }
			factor = 4
			}
		modifier = { 
			owner = { has_country_flag = excommunicated }
			factor = 0.25
			}
		modifier = { 
			exists = AVI
			factor = 0.5
			}
		modifier = { 
			owner = { has_country_flag = support_antipope }
			factor = 0.65
			}
		modifier = { 
			owner = { has_country_flag = enemy_of_pope }
			factor = 0.8
			}
		modifier = { 
			owner = { has_country_flag = hated_enemy_of_pope }
			factor = 0.8
			}
		modifier = {
			owner = { has_country_flag = curia_controller }
			factor = 2
			}
		modifier = {
			owner = { is_papal_controller = yes }
			factor = 1.25
			}
		modifier = { 
			owner = { has_country_flag = call_synod }
			factor = 0.9
			}
		modifier = { 
			PAP = { has_country_flag = reformer_pope }
			factor = 1.4
			}
		modifier = { 
			PAP = { has_country_flag = corrupt_pope }
			factor = 0.65
			}
		modifier = { 
			PAP = { has_country_flag = papal_conciliarism }
			factor = 2
			}
		modifier = { 
			owner = { has_country_flag = dead_hand }
			factor = 0.65
			}
		modifier = { 
			owner = { has_country_flag = absenteeism }
			factor = 0.65
			}
		modifier = { 
			owner = { has_country_flag = simony }
			factor = 0.65
			}
		modifier = { 
			owner = { has_country_flag = indulgences_condemned }
			factor = 0.65
			}
		modifier = { 
			owner = { has_country_flag = papal_interference }
			factor = 0.65
			}
		modifier = { 
			owner = { has_country_flag = dispensation_denied }
			factor = 0.5
			}
		modifier = { 
			owner = { has_country_flag = royal_scandal }
			factor = 0.65
			}
		modifier = { 
			owner = { has_country_flag = conciliarism_suppressed }
			factor = 1.1
			}
		modifier = {
			owner = { has_country_flag = humanism }
			factor = 0.7
			}
		modifier = {
			owner = { has_country_flag = renaissance }
			factor = 1.4
			}
		}
	owner = { 
		change_variable = { which = "clergy_mood" value = 2 }
		random_owned = { 
			limit = { owner = { has_country_modifier = hussite_wars } }
			THIS = { hussite_rebels = 1 }
			}
		any_owned = { 
			limit = { 
				check_variable = { which = "hussite" value = 2 }
				NOT = { check_variable = { which = "hussite" value = 4 } }
				}
			revolt_risk = 2
			}
		any_owned = { 
			limit = { 
				check_variable = { which = "hussite" value = 4 }
				NOT = { check_variable = { which = "hussite" value = 6 } }
				}
			revolt_risk = 4
			}
		any_owned = { 
			limit = { 
				check_variable = { which = "hussite" value = 6 }
				NOT = { check_variable = { which = "hussite" value = 8 } }
				}
			revolt_risk = 6
			}
		any_owned = { 
			limit = { 
				check_variable = { which = "hussite" value = 8 }
				NOT = { check_variable = { which = "hussite" value = 10 } }
				}
			revolt_risk = 8
			}
		any_owned = { 
			limit = { 
				check_variable = { which = "hussite" value = 10 }
				}
			revolt_risk = 10
			}
		}
	add_province_modifier = { name = "religious_nationalism" duration = 3650 }
	}
option = {
	name = "EVTOPTB550302" #Condemn the movement
	ai_chance = { 
		factor = 70
		modifier = {
			owner = { has_country_flag = humanism }
			factor = 1.4
			}
		modifier = {
			owner = { has_country_flag = renaissance }
			factor = 0.7
			}
		}
	owner = {
		change_variable = { which = "clergy_mood" value = 1 }
		random_owned = { 
			limit = { owner = { has_country_modifier = hussite_wars } }
			THIS = { revolt_risk = 1 }
			}
		random_owned = { 
			THIS = { 
				change_variable = { which = "hussite" value = 2 }
				change_variable = { which = "province_religion" value = -2 }
				}
			}
		}
	}
}

province_event = { #The Community of Tabor

id = 550303

trigger = { 
	check_variable = { which = "hussite" value = 2 }
	any_neighbor_province = { check_variable = { which = "hussite" value = 2 } }
	NOT = { religion = hussite }
	NOT = { PAP = { has_country_flag = taborites } }
	}

mean_time_to_happen = { 

	months = 12

	}

title = "EVTNAME550303"
desc = "EVTDESC550303"

option = { 
	name = "EVTOPTA550303"
	change_variable = { which = "hussite" value = 2 }
	change_variable = { which = "province_religion" value = -2 }
	owner = {
		random_owned = { 
			limit = { owner = { has_country_modifier = hussite_wars } }
			THIS = { hussite_rebels = 3 }
			}
		}
	revolt_risk = 5
	set_province_flag = tabor
	citysize = 2000
	PAP = { set_country_flag = taborites }
	}
}

country_event = { #The Defenestration of $CAPITAL_CITY$

id = 550304

is_triggered_only = yes

title = "EVTNAME550304"
desc = "EVTDESC550304"

immediate = { 
	set_variable = { which = "hussite_strength" value = 0 }
	any_owned = { 
		limit = { check_variable = { which = "hussite" value = 2 } }
		owner = { change_variable = { which = "hussite_strength" value = 0.5 } }
		}
	any_owned = { 
		limit = { check_variable = { which = "hussite" value = 4 } }
		owner = { change_variable = { which = "hussite_strength" value = 0.5 } }
		}
	any_owned = { 
		limit = { check_variable = { which = "hussite" value = 6 } }
		owner = { change_variable = { which = "hussite_strength" value = 0.5 } }
		}
	any_owned = { 
		limit = { check_variable = { which = "hussite" value = 8 } }
		owner = { change_variable = { which = "hussite_strength" value = 0.5 } }
		}
	any_owned = { 
		limit = { check_variable = { which = "hussite" value = 10 } }
		owner = { change_variable = { which = "hussite_strength" value = 0.5 } }
		}
	any_owned = { 
		limit = { check_variable = { which = "hussite" value = 12 } }
		owner = { change_variable = { which = "hussite_strength" value = 0.5 } }
		}
	}

option = {
	name = "EVTOPTA550304" #Launch a crusade against the Hussites
	ai_chance = { 
		factor = 70 
		modifier = { 
			war = yes
			factor = 0.7
			}
		modifier = { 
			war_exhaustion = 4
			factor = 0.7
			}
		modifier = { 
			war_exhaustion = 8
			factor = 0.7
			}
		modifier = { 
			war_exhaustion = 12
			factor = 0.7
			}
		modifier = { 
			check_variable = { which = "hussite_strength" value = 10 }
			factor = 0.7
			}
		modifier = { 
			NOT = { check_variable = { which = "hussite_strength" value = 4 } }
			factor = 1.4
			}
		}
	change_variable = { which = "aristocrat_mood" value = 10 }
	change_variable = { which = "clergy_mood" value = 20 }
	random_owned = { 
		limit = { 
			owner = { NOT = { check_variable = { which = hussite_strength value = 2 } } } 
			}
		owner = { add_country_modifier = { name = "hussite_wars" duration = 730 } }
		}
	random_owned = { 
		limit = { 
			owner = { check_variable = { which = hussite_strength value = 2 } } 
			owner = { NOT = { check_variable = { which = hussite_strength value = 4 } } }
			}
		owner = { add_country_modifier = { name = "hussite_wars" duration = 1825 } stability = -1 }
		}
	random_owned = { 
		limit = { 
			owner = { check_variable = { which = hussite_strength value = 4 } } 
			owner = { NOT = { check_variable = { which = hussite_strength value = 6 } } }
			}
		owner = { add_country_modifier = { name = "hussite_wars" duration = 1825 } stability = -1 }
		}
	random_owned = { 
		limit = { owner = { check_variable = { which = hussite_strength value = 6 } } }
		owner = { add_country_modifier = { name = "hussite_wars" duration = 2920 } stability = -2 }
		}
	set_country_flag = hussite_crusade
	clr_country_flag = crusades_over
	clr_country_flag = crusade_denied
	any_owned = { 
		limit = { 
			check_variable = { which = "hussite" value = 2 }
			}
		hussite_rebels = 1
		revolt_risk = 10
		}
	random_owned = { 
		limit = { owner = { missionaries = 1 } }
		owner = { missionaries = -1 }
		}
	random_owned = { 
		limit = { owner = { NOT = { missionaries = 1 } } }
		owner = { diplomats = -1 }
		}
	PAP = { 
		set_country_flag = hussite_crusade_asked 
		relation = { who = THIS value = 25 }
		}
	}
option = { 
	name = "EVTOPTB550304" #Negotiate with the rebels
	ai_chance = { 
		factor = 30 
		}
	change_variable = { which = "aristocrat_mood" value = -10 }
	change_variable = { which = "clergy_mood" value = -20 }
	any_owned = { 
		limit = { 
			check_variable = { which = "hussite" value = 2 }
			}
		change_variable = { which = "hussite" value = 2 }
		change_variable = { which = "province_religion" value = -2 }
		}
	set_country_flag = hussite_negotiation
	add_country_modifier = { name = "rebel_negotiation" duration = 1000 }
	stability = -3
	prestige = -0.10
	random_owned = { 
		limit = { owner = { diplomats = 1 } }
		owner = { diplomats = -1 }
		}
	random_owned = { 
		limit = { owner = { NOT = { diplomats = 1 } } }
		owner = { missionaries = -1 }
		}
	PAP = { relation = { who = THIS value = -100 } }
	capital_scope = { religion = hussite }
	set_country_flag = excommunication_decree
	set_country_flag = excommunication_hussites
	}

}

country_event = { #Crusade against the Hussites

id = 550305

trigger = { 
	PAP = { has_country_flag = hussite_crusade_called }
	any_known_country = { 
		has_country_flag = hussite_crusade 
		has_country_modifier = hussite_wars
		NOT = { has_country_flag = crusade_denied }
		NOT = { war_with = THIS }
		}
	religion = catholic
	NOT = { at_war_with_religious_enemy = yes }
	NOT = { war_exhaustion = 8 }
	NOT = { has_country_flag = crusader }
	NOT = { has_country_flag = crusades_over }
	NOT = { has_country_flag = crusade_refused }
	NOT = { has_country_flag = excommunicated }
	NOT = { overlord = { religion_group = muslim } }
	NOT = { overlord = { religion = hussite } }
	}

mean_time_to_happen = { 

	months = 48

	modifier = { 
		num_of_cities = 5
		factor = 0.5
		}
	modifier = { 
		NOT = { stability = 0 }
		factor = 2
		}
	modifier = { 
		has_country_flag = crusade_supporter
		factor = 2
		}
	modifier = { 
		idea = deus_vult
		factor = 0.5
		}
	modifier = { 
		idea = divine_supremacy
		factor = 0.7
		}
	modifier = { 
		idea = ecumenism
		factor = 2
		}
	modifier = { 
		defender_of_faith = yes
		factor = 0.5
		}
	modifier = {
		has_country_flag = humanism
		factor = 1.4
		}
	modifier = { 
		war = yes
		factor = 1.4
		}
	modifier = { 
		war_exhaustion = 2
		factor = 1.4
		}
	modifier = { 
		war_exhaustion = 4
		factor = 1.4
		}
	modifier = { 
		war_exhaustion = 6
		factor = 1.4
		}
	modifier = { 
		any_neighbor_country = { has_country_flag = hussite_crusade }
		factor = 0.35
		}
	modifier = { 
		any_owned_province = { has_province_modifier = hussite_tensions }
		factor = 0.7
		}
	modifier = { 
		any_owned_province = { has_province_modifier = hussite_raids }
		factor = 0.7
		}
	}

title = "EVTNAME550305"
desc = "EVTDESC550305"

option = { 
	name = "EVTOPTA551027" #Let them fend for themselves
	ai_chance = { 
		factor = 30
		modifier = { 
			any_known_country = { 
				has_country_flag = hussite_crusade
				junior_union_with = THIS
				}
			factor = 0.5
			}
		modifier = { 
			any_known_country = { 
				has_country_flag = hussite_crusade
				senior_union_with = THIS
				}
			factor = 0.5
			}
		modifier = { 
			any_known_country = { 
				has_country_flag = hussite_crusade
				vassal_of = THIS
				}
			factor = 0.5
			}
		modifier = { 
			any_known_country = { 
				has_country_flag = hussite_crusade
				overlord_of = THIS
				}
			factor = 0.5
			}
		modifier = {
			idea = deus_vult
			factor = 0.5
			}
		modifier = {
			defender_of_faith = yes
			factor = 0.5
			}
		modifier = { 
			war = yes
			factor = 2
			}
		modifier = { 
			any_known_country = { 
				has_country_flag = hussite_crusade
				relation = { who = THIS value = 100 }
				}
			factor = 0.7
			}
		modifier = { 
			any_known_country = { 
				has_country_flag = hussite_crusade
				marriage_with = THIS
				}
			factor = 0.7
			}
		modifier = { 
			any_known_country = { 
				has_country_flag = hussite_crusade
				alliance_with = THIS
				}
			factor = 0.7
			}
		modifier = { 
			any_neighbor_country = { has_country_flag = hussite_crusade }
			factor = 0.35
			}
		modifier = { 
			any_owned_province = { has_province_modifier = hussite_tensions }
			factor = 0.7
			}
		modifier = { 
			any_owned_province = { has_province_modifier = hussite_raids }
			factor = 0.7
			}
		}
	change_variable = { which = "clergy_mood" value = -5 }
	set_country_flag = crusade_refused
	any_country = { 
		limit = { has_country_flag = hussite_crusade }
		relation = { who = THIS value = -25 }
		}
	}
option = { 
	name = "EVTOPTB551027" #Pay a tithe to support the crusade
	ai_chance = { 
		factor = 30
		modifier = {
			NOT = { treasury = 1 }
			factor = 0
			}
		modifier = {
			NOT = { treasury = 4 }
			factor = 0.5
			}
		modifier = {
			NOT = { treasury = 16 }
			factor = 0.5
			}
		modifier = {
			NOT = { treasury = 64 }
			factor = 0.5
			}
		modifier = { 
			capital_scope = { hre = yes }
			any_known_country = { 
				has_country_flag = hussite_crusade
				capital_scope = { hre = yes }
				}
			factor = 2
			}
		}
	set_country_flag = crusader
	set_country_flag = crusade_supporter
	set_country_flag = hussite_crusader
	change_variable = { which = "clergy_mood" value = 5 }
	random_owned = { 
		limit = { 
			NOT = { owner = { monthly_income = 1 } }
			}
		owner = { treasury = -0.5 }
		owner = { 
			random_country = { 
				limit = { has_country_flag = hussite_crusade }
				relation = { who = THIS value = 25 }
				change_variable = { which = crusade_funding value = 0.5 }
				}
			}
		}
	random_owned = { 
		limit = { 
			owner = { monthly_income = 1 }
			NOT = { owner = { monthly_income = 2 } }
			}
		owner = { treasury = -1 }
		owner = { 
			random_country = { 
				limit = { has_country_flag = hussite_crusade }
				relation = { who = THIS value = 25 }
				change_variable = { which = crusade_funding value = 1 }
				}
			}
		}
	random_owned = { 
		limit = { 
			owner = { monthly_income = 2 }
			NOT = { owner = { monthly_income = 4 } }
			}
		owner = { treasury = -2 }
		owner = { 
			random_country = { 
				limit = { has_country_flag = hussite_crusade }
				relation = { who = THIS value = 25 }
				change_variable = { which = crusade_funding value = 2 }
				}
			}
		}
	random_owned = { 
		limit = { 
			owner = { monthly_income = 4 }
			NOT = { owner = { monthly_income = 8 } }
			}
		owner = { treasury = -4 }
		owner = { 
			random_country = { 
				limit = { has_country_flag = hussite_crusade }
				relation = { who = THIS value = 25 }
				change_variable = { which = crusade_funding value = 4 }
				}
			}
		}
	random_owned = { 
		limit = { 
			owner = { monthly_income = 8 }
			NOT = { owner = { monthly_income = 16 } }
			}
		owner = { treasury = -8 }
		owner = { 
			random_country = { 
				limit = { has_country_flag = hussite_crusade }
				change_variable = { which = crusade_funding value = 8 }
				}
			}
		}
	random_owned = { 
		limit = { 
			owner = { monthly_income = 16 }
			NOT = { owner = { monthly_income = 32 } }
			}
		owner = { treasury = -16 }
		owner = { 
			random_country = { 
				limit = { has_country_flag = hussite_crusade }
				relation = { who = THIS value = 25 }
				change_variable = { which = crusade_funding value = 16 }
				}
			}
		}
	random_owned = { 
		limit = { 
			owner = { monthly_income = 32 }
			NOT = { owner = { monthly_income = 64 } }
			}
		owner = { treasury = -32 }
		owner = { 
			random_country = { 
				limit = { has_country_flag = hussite_crusade }
				relation = { who = THIS value = 25 }
				change_variable = { which = crusade_funding value = 32 } 
				}
			}
		}
	random_owned = { 
		limit = { 
			owner = { monthly_income = 64 }
			}
		owner = { treasury = -64 }
		owner = { 
			random_country = { 
				limit = { has_country_flag = hussite_crusade }
				relation = { who = THIS value = 25 }
				change_variable = { which = crusade_funding value = 64 }
				}
			}
		}
	}
option = { 
	name = "EVTOPTC550305" #Send troops to fight the Hussites
	ai_chance = { 
		factor = 30
		modifier = { 
			NOT = { manpower_percentage = 0.75 }
			factor = 0.5
			}
		modifier = { 
			NOT = { manpower_percentage = 0.5 }
			factor = 0.5
			}
		modifier = { 
			NOT = { manpower_percentage = 0.25 }
			factor = 0.5
			}
		modifier = { 
			NOT = { manpower_percentage = 0.1 }
			factor = 0
			}
		modifier = { 
			capital_scope = { hre = yes }
			any_known_country = { 
				has_country_flag = hussite_crusade
				capital_scope = { hre = yes }
				}
			factor = 2
			}
		modifier = { 
			any_neighbor_country = { has_country_flag = hussite_crusade }
			factor = 2
			}
		}
	set_country_flag = crusade_supporter
	set_country_flag = hussite_crusader
	change_variable = { which = "clergy_mood" value = 5 }
	random_owned = { 
		limit = { 
			NOT = { owner = { max_manpower = 1 } }
			}
		owner = { manpower = -0.10 }
		owner = { 
			random_country = { 
				limit = { has_country_flag = hussite_crusade }
				relation = { who = THIS value = 25 }
				change_variable = { which = crusade_manpower value = 0.5 }
				}
			}
		}
	random_owned = { 
		limit = { 
			owner = { max_manpower = 1 }
			NOT = { owner = { max_manpower = 2 } }
			}
		owner = { manpower = -0.25 }
		owner = { 
			random_country = { 
				limit = { has_country_flag = hussite_crusade }
				relation = { who = THIS value = 25 }
				change_variable = { which = crusade_manpower value = 1 }
				}
			}
		}
	random_owned = { 
		limit = { 
			owner = { max_manpower = 2 }
			NOT = { owner = { max_manpower = 4 } }
			}
		owner = { manpower = -0.5 }
		owner = { 
			random_country = { 
				limit = { has_country_flag = hussite_crusade }
				relation = { who = THIS value = 25 }
				change_variable = { which = crusade_manpower value = 2 }
				}
			}
		}
	random_owned = { 
		limit = { 
			owner = { max_manpower = 4 }
			NOT = { owner = { max_manpower = 8 } }
			}
		owner = { manpower = -1 }
		owner = { 
			random_country = { 
				limit = { has_country_flag = hussite_crusade }
				relation = { who = THIS value = 25 }
				change_variable = { which = crusade_manpower value = 4 }
				}
			}
		}
	random_owned = { 
		limit = { 
			owner = { max_manpower = 8 }
			NOT = { owner = { max_manpower = 16 } }
			}
		owner = { manpower = -2 }
		owner = { 
			random_country = { 
				limit = { has_country_flag = hussite_crusade }
				change_variable = { which = crusade_manpower value = 8 }
				}
			}
		}
	random_owned = { 
		limit = { 
			owner = { max_manpower = 16 }
			NOT = { owner = { max_manpower = 32 } }
			}
		owner = { manpower = -4 }
		owner = { 
			random_country = { 
				limit = { has_country_flag = hussite_crusade }
				relation = { who = THIS value = 25 }
				change_variable = { which = crusade_manpower value = 16 }
				}
			}
		}
	random_owned = { 
		limit = { 
			owner = { max_manpower = 32 }
			NOT = { owner = { max_manpower = 64 } }
			}
		owner = { manpower = -8 }
		owner = { 
			random_country = { 
				limit = { has_country_flag = hussite_crusade }
				relation = { who = THIS value = 25 }
				change_variable = { which = crusade_manpower value = 32 }
				}
			}
		}
	random_owned = { 
		limit = { 
			owner = { max_manpower = 64 }
			}
		owner = { manpower = -16 }
		owner = { 
			random_country = { 
				limit = { has_country_flag = hussite_crusade }
				relation = { who = THIS value = 25 }
				change_variable = { which = crusade_manpower value = 64 }
				}
			}
		}
	set_country_flag = crusader
	}
option = { 
	name = "EVTOPTC551618" #Same #The age of crusades is long over
	ai_chance = { 
		factor = 5 
		modifier = { 
			any_owned_province = { has_province_modifier = hussite_tensions }
			factor = 0.7
			}
		modifier = { 
			any_owned_province = { has_province_modifier = hussite_raids }
			factor = 0.7
			}
		modifier = { 
			tag = PAP
			factor = 0
			}
		}
	random_owned = { 
		limit = { 
			OR = { 
				owner = { tag = PAP }
				owner = { is_papal_controller = yes }
				owner = { has_country_flag = curia_controller }
				}
			}
		owner = { prestige = -0.25 }
		}
	random_owned = { 
		limit = { 
			NOT = { 
				OR = { 
					owner = { tag = PAP }
					owner = { is_papal_controller = yes }
					owner = { has_country_flag = curia_controller }
					}
				}
			}
		owner = { prestige = -0.025 }
		}
	set_country_flag = crusades_over
	any_country = { 
		limit = { has_country_flag = hussite_crusade }
		relation = { who = THIS value = -25 }
		}
	}

}

country_event = { #Crusade denied

id = 55306

is_triggered_only = yes

title = "EVTNAME550306"
desc = "EVTDESC550306"

option = { 
	name = "EVTOPTA550306"
	relation = { who = PAP value = -50 }
	}
option = { 
	name = "EVTOPTB550306"
	any_owned = {                                                  
		limit = {                                                 
			check_variable = { which = "hussite" value = 2 }
			}          
		revolt_risk = -3                                           
		change_variable = { which = "hussite" value = 2 }
		change_variable = { which = "province_religion" value = -2 }
		}                                                         
	set_country_flag = hussite_negotiation
	add_country_modifier = { name = "rebel_negotiation" duration = 1000 }
	stability = -3
	prestige = -0.10
	random_owned = { 
		limit = { owner = { diplomats = 1 } }
		owner = { diplomats = -1 }
		}
	random_owned = { 
		limit = { owner = { NOT = { diplomats = 1 } } }
		owner = { missionaries = -1 }
		}
	PAP = { relation = { who = THIS value = -100 } }
	capital_scope = { religion = hussite }
	}
}

province_event = { 

id = 550307 #Hussite Raids

trigger = { 
	OR = { 
		has_province_modifier = hussite_tensions
		any_neighbor_province = { has_province_modifier = hussite_tensions }
		any_neighbor_province = { has_province_modifier = hussite_raids }
		}
	OR = { 
		owner = { has_country_flag = hussite_crusade }
		any_neighbor_province = { owner = { has_country_flag = hussite_crusade } } 
		any_neighbor_province = { has_province_modifier = hussite_raids }
		}
	NOT = { has_province_modifier = hussite_raids }
	NOT = { owner = { has_country_flag = crusade_refused } }
	religion = catholic
	}

mean_time_to_happen = { 

	months = 120

	modifier = { 
		owner = { has_country_flag = hussite_crusade }
		factor = 0.7
		}
	modifier = { 
		any_neighbor_province = { religion = hussite }
		factor = 0.7
		}
	modifier = { 
		owner = { has_country_flag = crusades_over }
		factor = 2
		}
	modifier = { 
		culture = czech
		factor = 0.7
		}
	modifier = { 
		owner = { NOT = { OR = { has_country_flag = hussite_crusader has_country_flag = hussite_crusade } } }
		factor = 3
		}
	}

title = "EVTNAME550307"
desc = "EVTDESC550307"

option = { 
	name = "EVTOPTA550307"
	add_province_modifier = { name = "hussite_raids" duration = 1825 }
	hussite_rebels = 0
	}

}

province_event = { #Battle of $PROVINCENAME$

id = 550308

trigger = { 
	owner = { 
		has_country_modifier = hussite_wars 
		check_variable = { which = hussite_strength value = 2 }
		}
	check_variable = { which = "hussite" value = 2 }
	has_siege = yes
	}

mean_time_to_happen = { 

	months = 12
	
	modifier = { 
		units_in_province = 1
		factor = 2
		}
	modifier = { 
		units_in_province = 2
		factor = 2
		}
	modifier = { 
		controller = { tag = REB }
		factor = 0.5
		}
	modifier = { 
		has_siege = yes
		factor = 0.5
		}
	}

title = "EVTNAME550308"
desc = "EVTDESC550308"

immediate = { 
	owner = { 
		change_variable = { which = hussite_strength value = -1 }
		random_owned = { 
			limit = { owner = { ai = yes } }
			THIS = { hussite_rebels = 1 }
			}
		random_owned = { 
			limit = { owner = { NOT = { ai = yes } } }
			THIS = { hussite_rebels = 2 }
			}
		}
	}

option = { 
	name = "EVTOPTA550308"
	owner = { 
		add_country_modifier = { name = "decreased_morale" duration = 180 }
		change_variable = { which = "aristocrat_mood" value = -5 }
		}
	}
option = { 
	name = "EVTOPTB550308"
	owner = { add_country_modifier = { name = "bad_discipline" duration = 180 } }
	}

}

province_event = { #Noble turncoats

id = 550309

trigger = { 
	owner = { 
		has_country_modifier = hussite_wars 
		NOT = { check_variable = { which = hussite_strength value = 3 } }
		NOT = { has_country_flag = hussite_turncoats }
		}
	check_variable = { which = "hussite" value = 2 }
	units_in_province = 1
	}

mean_time_to_happen = { months = 12 }

title = "EVTNAME550309"
desc = "EVTDESC550309"

option = { 
	name = "EVTOPTA550309"
	ai_chance = { factor = 60 }
	owner = { 
		change_variable = { which = "aristocrat_mood" value = 20 }
		change_variable = { which = "clergy_mood" value = -10 }
		set_country_flag = hussite_turncoats 
		change_variable = { which = hussite_strength value = -1 }
		relation = { who = PAP value = -25 }
		prestige = -0.01
		cavalry = THIS
		infantry = THIS
		manpower = 2
		}
	}
option = { 
	name = "EVTOPTB550309"
	ai_chance = { factor = 30 }
	owner = { 
		change_variable = { which = "aristocrat_mood" value = 10 }
		change_variable = { which = "clergy_mood" value = -5 }
		set_country_flag = hussite_turncoats 
		prestige = 0.01
		manpower = 0.5
		relation = { who = PAP value = 25 }
		random_owned = { 
			limit = { THIS = { NOT = { has_building = temple } } }
			THIS = { add_building = temple }
			}
		}
	}
option = { 
	name = "EVTOPTC550309"
	ai_chance = { factor = 10 }
	owner = { 
		change_variable = { which = "aristocrat_mood" value = -10 }
		change_variable = { which = "clergy_mood" value = 5 }
		change_variable = { which = hussite_strength value = 1 }
		set_country_flag = hussite_turncoats 
		prestige = 0.02
		relation = { who = PAP value = 50 }
		}
	}

}

country_event = { #Truce with the Hussites

id = 550310

trigger = { 
	has_country_flag = true_faith
	has_country_flag = hussite_crusade
	NOT = { check_variable = { which = hussite_strength value = 1 } }
	NOT = { religion = hussite }
	NOT = { has_country_flag = hussite_negotiations_end }
	}

mean_time_to_happen = { 

	months = 1

	}

title = "EVTNAME550310"
desc = "EVTDESC550310"

option = { 
	name = "EVTOPTA550310" #It is time to negotiate with them
	set_variable = { which = hussite_strength value = 0 }
	random_owned = { 
		limit = { owner = { has_country_modifier = hussite_wars } }
		owner = { remove_country_modifier = hussite_wars }
		}
	set_country_flag = hussite_negotiation
	clr_country_flag = hussite_crusade
	add_country_modifier = { name = "rebel_negotiation" duration = 1000 }
	}
option = { 
	name = "EVTOPTB550310" #Press for a total victory
	change_variable = { which = hussite_strength value = 1 }
	set_country_flag = hussite_negotiations_end
	random_owned = { 
		limit = { owner = { has_country_modifier = rebel_negotiation } }
		owner = { remove_country_modifier = rebel_negotiation }
		}
	}

}

country_event = { #Hussite Victory

id = 550311

trigger = { 
	religion = hussite
	has_country_flag = hussite_crusade
	}

mean_time_to_happen = { 

	months = 1

	}

title = "EVTNAME550311"
desc = "EVTDESC550311"

immediate = { 
	random_owned = { 
		limit = { owner = { has_country_modifier = hussite_wars } }
		owner = { remove_country_modifier = hussite_wars }
		}
	set_variable = { which = hussite_strength value = 0 }
	clr_country_flag = hussite_crusade
	}

option = { 
	name = "EVTOPTA550311" #Ultraquists
	serfdom_freesubjects = 2
	mercantilism_freetrade = 1
	aristocracy_plutocracy = 1
	innovative_narrowminded = -1
	centralization_decentralization = 1
	set_country_flag = ultraquists
	kill_ruler = THIS
	prestige = -0.25
	}
option = { 
	name = "EVTOPTA550311" #Taborites
	set_country_flag = taborites
	serfdom_freesubjects = 3
	aristocracy_plutocracy = 2
	innovative_narrowminded = 1
	offensive_defensive = -1
	quality_quantity = 1
	centralization_decentralization = 1
	random_owned = { 
		limit = { 
			has_global_flag = magna_mundi
			owner = { has_country_flag = state } 
			}
		owner = { government = theocratic_government-lowest }
		}
	random_owned = { 
		limit = { 
			has_global_flag = magna_mundi
			owner = { has_country_flag = principality } 
			}
		owner = { government = theocratic_government-lower }
		}
	random_owned = { 
		limit = { 
			has_global_flag = magna_mundi
			owner = { has_country_flag = empire } 
			}
		owner = { government = theocratic_government-upper }
		}
	random_owned = { 
		limit = { 
			OR = { 
				AND = { 
					NOT = { has_global_flag = magna_mundi }
					NOT = { has_global_flag = meiou_map }
					}
				owner = { has_country_flag = kingdom }
				} 
			}
		owner = { government = theocratic_government }
		}
	random_owned = { 
		limit = { has_global_flag = meiou_map }
		owner = { government = theocracy_2 }
		}
	kill_ruler = THIS
	prestige = -0.25
	}

}

country_event = { #Subjugation of the Hussites

id = 550312

trigger = { 
	has_country_flag = hussite_crusade
	has_country_flag = hussite_negotiations_end
	NOT = { has_country_modifier = hussite_wars }
	NOT = { check_variable = { which = hussite_strength value = 1 } }
	NOT = { religion = hussite }
	NOT = { any_owned_province = { religion = hussite } }
	}

mean_time_to_happen = { 

	months = 1

	}

title = "EVTNAME550312"
desc = "EVTDESC550312"

option = { 
	name = "EVTOPTA550312"
	clr_country_flag = hussite_crusade
	clr_country_flag = hussite_negotiations_end
	set_country_flag = hussite_subjugation
	prestige = 0.05
	relation = { who = PAP value = 100 }
	war_exhaustion = -1
	missionaries = 1
	add_country_modifier = { name = "morale_boost" duration = 1825 }
	any_owned = { 
		limit = { has_province_flag = tabor }
		clr_province_flag = tabor
		}
	any_owned = { 
		limit = { check_variable = { which = "hussite" value = 8 } }
		change_variable = { which = "hussite" value = -2 }
		change_variable = { which = "converts" value = 2 }
		}
	any_owned = { 
		limit = { check_variable = { which = "hussite" value = 2 } }
		change_variable = { which = "hussite" value = -2 }
		change_variable = { which = "converts" value = 2 }
		}
	}
}

province_event = { #Assembly of $PROVINCECAPITAL$

id = 550313

trigger = { 
	owner = { 
		has_country_flag = hussite_negotiation 
		NOT = { has_country_flag = ultraquists }
		NOT = { has_country_flag = taborites }
		}
	check_variable = { which = "hussite" value = 2 }
	}

mean_time_to_happen = { 

	months = 6
	
	modifier = { 
		check_variable = { which = "hussite" value = 4 }
		factor = 0.7
		}
	modifier = { 
		check_variable = { which = "hussite" value = 6 }
		factor = 0.7
		}
	modifier = { 
		check_variable = { which = "hussite" value = 8 }
		factor = 0.7
		}
	modifier = { 
		check_variable = { which = "hussite" value = 10 }
		factor = 0.7
		}
	}

title = "EVTNAME550313"
desc = "EVTDESC550313"

option = { 
	name = "EVTOPTA550313" #Exploit the differences between the two factions
	ai_chance = { factor = 60 }
	set_province_flag = compacta
	owner = { 
		set_country_flag = ultraquists
		diplomats = -1
		centralization_decentralization = 1
		}
	}
option = { 
	name = "EVTOPTB550313"
	ai_chance = { factor = 30 } #Negotiate only as long as both agree
	set_province_flag = compacta
	owner = { 
		set_country_flag = taborites
		prestige = -0.01
		diplomats = -2
		centralization_decentralization = 1
		serfdom_freesubjects = 1
		}
	}
option = { 
	name = "EVTOPTC550313" #Refuse all compromise with heresy!
	ai_chance = { factor = 10 }
	owner = { 
		prestige = 0.01
		stability = -1 
		change_variable = { which = hussite_strength value = 1 }
		clr_country_flag = hussite_negotiation
		set_country_flag = hussite_crusade
		set_country_flag = hussite_negotiations_end
		}
	}

}

province_event = { #Compacta of $PROVINCECAPITAL$

id = 550314

trigger = { 
	owner = { 
		has_country_flag = ultraquists 
		has_country_flag = hussite_negotiation 
		}
	OR = { 
		has_province_flag = compacta
		AND = { 
			owner = { NOT = { any_owned_province = { has_province_flag = compacta } } }
			check_variable = { which = "hussite" value = 2 }
			}
		}
	}

mean_time_to_happen = { 

	months = 6

	}

title = "EVTNAME550314"
desc = "EVTDESC550314"

option = { 
	name = "EVTOPTA550314" #Sign the compacta
	ai_chance = { factor = 90 }
	PAP = { set_country_flag = hussite_compact }
	owner = { 
		set_country_flag = hussite_compacta
		clr_country_flag = hussite_negotiation
		random_owned = { 
			limit = { owner = { stability = 3 } }
			owner = { prestige = 0.09 }
			}
		random_owned = { 
			limit = { owner = { stability = 2 NOT = { stability = 3 } } }
			owner = { prestige = 0.04 stability = 1 }
			}
		random_owned = { 
			limit = { owner = { NOT = { stability = 2 } } }
			owner = { stability = 2 prestige = -0.01 }
			}
		serfdom_freesubjects = 1
		mercantilism_freetrade = 1
		innovative_narrowminded = -1
		any_owned = { 
			limit = { 
				check_variable = { which = "hussite" value = 2 }
				revolt_risk = 1
				}
			revolt_risk = -3
			}
		any_owned = { 
			limit = { has_province_modifier = hussite_raids }
			remove_province_modifier = hussite_raids
			}
		random_owned = { 
			limit = { owner = { regency = yes } }
			owner = { define_ruler = { DIP = 6 } }
			}
		}
	}
option = { 
	name = "EVTOPTB550314" #It is not worth these concessions
	ai_chance = { factor = 10 }
	owner = { 
		change_variable = { which = hussite_strength value = 1 }
		centralization_decentralization = -1
		clr_country_flag = ultraquists
		clr_country_flag = hussite_negotiation
		set_country_flag = hussite_crusade
		set_country_flag = hussite_negotiations_end
		any_owned = { 
			limit = { 
				check_variable = { which = "hussite" value = 2 } 
				NOT = { check_variable = { which = "hussite" value = 4 } }
				}
			add_province_modifier = { name = "hussite_tensions" duration = 365 }
			}
		any_owned = { 
			limit = { 
				check_variable = { which = "hussite" value = 4 } 
				NOT = { check_variable = { which = "hussite" value = 6 } }
				}
			add_province_modifier = { name = "hussite_tensions" duration = 730 }
			}
		any_owned = { 
			limit = { 
				check_variable = { which = "hussite" value = 6 } 
				NOT = { check_variable = { which = "hussite" value = 8 } }
				}
			add_province_modifier = { name = "hussite_tensions" duration = 1460 }
			}
		any_owned = { 
			limit = { check_variable = { which = "hussite" value = 8 } }
			add_province_modifier = { name = "hussite_tensions" duration = 3650 }
			}
		}
	}

}

province_event = { #Compacta of $PROVINCECAPITAL$

id = 550315

trigger = { 
	owner = { has_country_flag = taborites has_country_flag = hussite_negotiation }
	OR = { 
		has_province_flag = compacta
		AND = { 
			owner = { NOT = { any_owned_province = { has_province_flag = compacta } } }
			check_variable = { which = "hussite" value = 2 }
			}
		}
	}

mean_time_to_happen = { 

	months = 18

	}

title = "EVTNAME550314"
desc = "EVTDESC550315"

option = { 
	name = "EVTOPTA550314" #Sign the compacta
	ai_chance = { factor = 25 }
	PAP = { set_country_flag = hussite_compact }
	owner = { 
		relation = { who = PAP value = -50 }
		set_country_flag = hussite_compacta
		clr_country_flag = hussite_negotiation
		religion = hussite
		force_converted = yes
		prestige = -0.05
		serfdom_freesubjects = 1
		aristocracy_plutocracy = 1
		innovative_narrowminded = 1
		offensive_defensive = -1
		quality_quantity = 1
		any_owned = { 
			limit = { 
				check_variable = { which = "hussite" value = 2 }
				revolt_risk = 1
				}
			revolt_risk = -3
			}
		any_owned = { 
			limit = { has_province_modifier = hussite_raids }
			remove_province_modifier = hussite_raids
			}
		random_owned = { 
			limit = { owner = { regency = yes } }
			owner = { define_ruler = { DIP = 6 } }
			}
		}
	}
option = { 
	name = "EVTOPTB550314" #It is not worth these concessions
	ai_chance = { factor = 75 }
	owner = { 
		change_variable = { which = hussite_strength value = 1 }
		serfdom_freesubjects = -1
		centralization_decentralization = -1
		clr_country_flag = taborites
		clr_country_flag = hussite_negotiation
		set_country_flag = hussite_crusade
		set_country_flag = hussite_negotiations_end
		any_owned = { 
			limit = { 
				check_variable = { which = "hussite" value = 2 } 
				NOT = { check_variable = { which = "hussite" value = 4 } }
				}
			add_province_modifier = { name = "hussite_tensions" duration = 365 }
			}
		any_owned = { 
			limit = { 
				check_variable = { which = "hussite" value = 4 } 
				NOT = { check_variable = { which = "hussite" value = 6 } }
				}
			add_province_modifier = { name = "hussite_tensions" duration = 730 }
			}
		any_owned = { 
			limit = { 
				check_variable = { which = "hussite" value = 6 } 
				NOT = { check_variable = { which = "hussite" value = 8 } }
				}
			add_province_modifier = { name = "hussite_tensions" duration = 1460 }
			}
		any_owned = { 
			limit = { check_variable = { which = "hussite" value = 8 } }
			add_province_modifier = { name = "hussite_tensions" duration = 3650 }
			}
		}
	}

}

province_event = { #Battle at Lipany

id = 550316

trigger = { 
	owner = { 
		has_country_flag = hussite_crusade
		has_country_flag = hussite_negotiations_end
		NOT = { check_variable = { which = hussite_strength value = 2 } }
		NOT = { has_country_flag = battle_of_lipany }
		}
	check_variable = { which = "hussite" value = 2 }
	}

mean_time_to_happen = { months = 1 }

title = "EVTNAME550316"
desc = "EVTDESC550316"

immediate = { owner = { set_country_flag = battle_of_lipany } }

option = { 
	name = "EVTOPTA550316"
	hussite_rebels = 1
	owner = { 
		random_owned = { 
			limit = { owner = { stability = 3 } }
			owner = { prestige = 0.05 }
			}
		random_owned = { 
			limit = { owner = { NOT = { stability = 3 } } }
			owner = { stability = 1 }
			}
		manpower = 1
		set_variable = { which = hussite_strength value = 0 }
		random_owned = { 
			limit = { owner = { has_country_modifier = hussite_wars } }
			owner = { remove_country_modifier = hussite_wars }
			}
		}
	}

}

########################
# Later Hussite Events #
########################

country_event = { #Compacta voided

id = 550321

trigger = { 
	PAP = { has_country_flag = compacta_voided }
	religion = catholic
	any_owned_province = { religion = hussite }
	NOT = { has_country_flag = compacta_voided }
	NOT = { has_country_flag = compacta_keep }
	NOT = { war = yes }
	}

mean_time_to_happen = { 

	months = 60 

	modifier = { 
		has_country_flag = hussite_compacta
		factor = 0.5
		}

	}

title = "EVTNAME550321"
desc = "EVTDESC550321"

option = { 
	name = "EVTOPTA550321" #Uphold religious freedom for Hussites
	ai_chance = { 
		factor = 40
		modifier = { 
			idea = ecumenism
			factor = 2
			}
		modifier = { 
			idea = deus_vult
			factor = 0.5
			}
		modifier = { 
			num_of_religion = { religion = hussite value = 0.2 }
			factor = 1.2
			}
		modifier = { 
			num_of_religion = { religion = hussite value = 0.3 }
			factor = 1.2
			}
		modifier = { 
			num_of_religion = { religion = hussite value = 0.4 }
			factor = 1.2
			}
		modifier = { 
			NOT = { num_of_religion = { religion = hussite value = 0.1 } }
			factor = 0
			}
		}
	set_country_flag = compacta_keep
	set_country_flag = excommunication_decree
	set_country_flag = excommunication_hussites
	relation = { who = PAP value = -100 }
	random_owned = { 
		limit = { owner = { has_country_modifier = religious_intolerance } }
		owner = { remove_country_modifier = religious_intolerance }
		}
	add_country_modifier = { name = "religious_tolerance" duration = 1825 }
	}
option = { 
	name = "EVTOPTB550321" #Abolish the Compacta
	ai_chance = { 
		factor = 60 
		modifier = { 
			dominant_religion = hussite
			factor = 0
			}
		}
	set_country_flag = compacta_voided
	random_owned = { 
		limit = { owner = { has_country_modifier = religious_tolerance } }
		owner = { remove_country_modifier = religious_tolerance }
		}
	add_country_modifier = { name = "religious_intolerance" duration = 1825 }
	any_owned = { 
		limit = { 
			check_variable = { which = "hussite" value = 2 }
			}
		hussite_rebels = 1
		}
	random_owned = { 
		limit = { owner = { has_country_flag = hussite_compacta } }
		owner = { 
			stability = -1 
			prestige = -0.02 
			clr_country_flag = hussite_compacta 
			serfdom_freesubjects = -1 
			}
		}
	relation = { who = PAP value = 50 }
	}

}

##############
# Old Events #
##############


