# DEI GRATIA (DAVID)

###############################
# Events for the Papal States #
###############################

#EVENT ID Range: 55 Christianity + 1 Catholic + 6 Papacy + xx

#00 - Papal States
#01 - Pope in Exile
#02 - Jubilee Year
#03 - Charitable order founded
#04 CONSOLIDATED
#05 - Papal Relations
#06 - Papal Excess
#07 - Missionary work
#08 CONSOLIDATED
#09 - Religious art
#10 - Church building program
#11 - Call for Crusade
#12 - Papal Finances
#13 - The corruption of the Pope
#14 - The redemption of the Pope
#15 - A chance for reconciliation
#16 - The Sack of Rome
#17 - The Holy See
#18 - The Captivity
#19 - Church and State
#20 - Family ties severed
#21 - The Judgement of the Emperor
#22 - The pope is captured
#23 - The antipope is captured
#24 - Cardinals accept the Antipope
#25 - The Pope's Bastards (Siena)
#26 - The Pope's Bastards (Tuscany)
#27 - The Pope's Bastards (Modena)
#28 - The Pope's Bastards (Mantua)
#29 - Concordat with Rome
#30 - Concordat with Rome (reaction)
#31 - The Restoration
#32 - End of the Captivity
#33 - The sack of $PROVINCENAME$
#34 - The Captivity
#35 - The Donation of $MONARCH$
#36 - Conceding Defeat
#37 - The Papal States
#38 - Talks break down
#39 - The Donation of $COUNTRY$
#40 - A Princely Donation
#41 - Trial of Excommunication
#42 - Crusade for Rome

##############
# The Papacy #
##############

country_event = {

id = 551600
	
trigger = {
	NOT = { exists = PAP }
	NOT = { exists = ITA }
	NOT = { has_country_flag = no_support }
	NOT = { has_country_flag = Roman_crusade }
	NOT = { government = papal_government }
	owns = 118 # Rome
	religion = catholic
	}
	
mean_time_to_happen = {

	months = 12
		
	modifier = { 
		PAP = { check_variable = { which = "papal_authority" value = 300 } }
		factor = 0.7
		}
	modifier = { 
		PAP = { check_variable = { which = "papal_authority" value = 400 } }
		factor = 0.7
		}
	modifier = { 
		PAP = { check_variable = { which = "papal_authority" value = 500 } }
		factor = 0.7
		}
	modifier = { 
		check_variable = { which = "religious_fervor" value = 5 }
		factor = 0.7
		}
	modifier = { 
		check_variable = { which = "religious_fervor" value = 9 }
		factor = 0.7
		}
	modifier = { 
		NOT = { check_variable = { which = "religious_fervor" value = 1 } }
		factor = 1.4
		}
	}
	
title = "EVTNAME1081"
desc = "EVTDESC1081"
	
option = {
	name = "EVTOPTA1081"			# We will never support such a state
	ai_chance = { 
		factor = 50
		modifier = { 
			NOT = { check_variable = { which = "religious_fervor" value = 1 } }
			factor = 2
			}
		modifier = { 
			check_variable = { which = "religious_fervor" value = 3 }
			factor = 0.7
			}
		modifier = { 
			check_variable = { which = "religious_fervor" value = 5 }
			factor = 0.7
			}
		modifier = { 
			check_variable = { which = "religious_fervor" value = 7 }
			factor = 0.7
			}
		modifier = { 
			check_variable = { which = "religious_fervor" value = 9 }
			factor = 0.7
			}
		}
	any_country = {
		limit = {
			NOT = { capital_scope = { owned_by = THIS } }
			religion = catholic
			num_of_cities = 1
			OR = {
				defender_of_faith = yes
				has_country_flag = Roman_crusade
				has_country_flag = curia_controller
				tag = PAP
				num_of_cities = 10
				neighbour = THIS
				}
			}
			relation = { who = THIS value = -25 }
		}
	prestige = -0.025
	badboy = 2
	stability = -1
	set_country_flag = no_support
	set_country_flag = excommunication_decree
	set_country_flag = excommunication_secular_Rome
	}
option = {
	name = "EVTOPTB1081"			# Rome is rightfully theirs
	ai_chance = { 
		factor = 50 
		modifier = { 
			PAP = { check_variable = { which = "papal_authority" value = 300 } }
			factor = 1.4
			}
		modifier = { 
			PAP = { check_variable = { which = "papal_authority" value = 400 } }
			factor = 1.4
			}
		modifier = { 
			PAP = { check_variable = { which = "papal_authority" value = 500 } }
			factor = 1.4
			}
		}
	118 = { secede_province = PAP }
	prestige = 0.025
	treasury = 10
	badboy = -2
	clr_country_flag = dispensation_denied
	set_country_flag = dispensation_granted
	any_country = {
		limit = { has_country_flag = Roman_crusade }
		clr_country_flag = Roman_crusade
		relation = { who = THIS value = 25 }
		remove_core = 118
		add_ai_strategy = { 
			conquer_prov = {
				id = 118
				value = -50
				}
			}
		}
	any_country = {
		limit = {
			NOT = { capital_scope = { owned_by = THIS } }
			religion = catholic
			OR = {
				has_country_flag = curia_controller
				tag = PAP
				}		
			}
		relation = { who = THIS value = 200 }
		}
	any_country = {
		limit = {
			NOT = { capital_scope = { owned_by = THIS } }
			religion = catholic
			num_of_cities = 1
			NOT = { tag = PAP }
			NOT = { has_country_flag = curia_controller }
			OR = {
				defender_of_faith = yes
				has_country_flag = Roman_crusade
				num_of_cities = 10
				}
			}
		relation = { who = THIS value = 25 }
		}
	}
}

province_event = { #The Pope in Exile

id = 551601

trigger = { 
	NOT = { exists = PAP }
	NOT = { 118 = { owner = { has_country_flag = concordat } } }
	owner = { 
		religion = catholic
		num_of_cities = 5
		NOT = { has_country_flag = landless_pope }
		NOT = { has_country_flag = support_antipope }
		NOT = { has_country_flag = Roman_crusade }
		check_variable = { which = "religious_fervor" value = -3 }
		}
	NOT = { cot = yes }
	NOT = { base_tax = 7 }
	NOT = { trade_goods = gold }
	OR = { 
		AND = { NOT = { has_global_flag = magna_mundi } NOT = { has_global_flag = meiou_map } }
		NOT = { trade_goods = silver }
		}
	NOT = { has_building = refinery }
	NOT = { has_building = wharf }
	NOT = { has_building = university }
	NOT = { has_building = textile }
	NOT = { has_building = fine_arts_academy }
	NOT = { has_building = weapons }
	NOT = { citysize = 25000 }
	religion = catholic
	continent = europe
	is_colony = no
	NOT = { is_capital = yes }
	NOT = { owner = { tag = AVI } }
	OR = {
		NOT = { owner = { owns = 118 } }
		owner = { has_country_flag = no_support }
		}
	}

mean_time_to_happen = { 

	months = 1000

	modifier = { 
		owner = { NOT = { check_variable = { which = "religious_fervor" value = 1 } } }
		factor = 1.4
		}
	modifier = { 
		owner = { check_variable = { which = "religious_fervor" value = 5 } }
		factor = 0.7
		}
	modifier = { 
		owner = { check_variable = { which = "religious_fervor" value = 9 } }
		factor = 0.7
		}
	modifier = {
		owner = { badboy = 0.1 } #See it as a way to improve reputation
		factor = 0.8
		}
	modifier = {
		owner = { badboy = 0.25 }
		factor = 0.8
		}
	modifier = {
		owner = { badboy = 0.5 }
		factor = 0.8
		}
	modifier = { 
		owner = { is_papal_controller = yes }
		factor = 0.5
		}
	modifier = { 
		owner = { is_emperor = yes } 
		factor = 0.5
		}
	modifier = { 
		owner = { government = theocracy }
		factor = 0.5
		}
	modifier = { 
		any_neighbor_province = { NOT = { religion = catholic } } 
		factor = 2.0
		}
	modifier = { 
		owner = { any_neighbor_country = { NOT = { religion = catholic } } }
		factor = 2.0
		}
	}

title = "EVTNAME551601"
desc = "EVTDESC551601"

option = {
	name = "EVTOPTB551601" #Shelter the papal court for a while
	ai_chance = { 
		factor = 45 
		modifier = {
			owner = { war = yes }
			factor = 1.4
			}
		modifier = {
			owner = { has_country_flag = curia_controller }
			factor = 0.65
			}
		modifier = {
			owner = { is_papal_controller = yes }
			factor = 0.8
			}
		}
	any_country = {
		limit = {
			capital_scope = { owner = { religion = catholic } }
			num_of_cities = 1
			NOT = { capital_scope = { owned_by = THIS } }
			OR = {
				defender_of_faith = yes
				government = theocracy 
				num_of_cities = 10
				}
			}
		relation = { who = THIS value = 10 }
		}
	owner = { 
		treasury = -5 
		prestige = 0.01
		relation = { who = PAP value = 10 }
		}
	}
option = { 
	name = "EVTOPTC551601" #We have nothing to spare
	ai_chance = { 
		factor = 20 
		modifier = { 
			owner = { war_exhaustion = 4 }
			factor = 1.4
			}
		modifier = { 
			owner = { war_exhaustion = 8 }
			factor = 1.4
			}
		modifier = { 
			owner = { war_exhaustion = 8 }
			factor = 1.4
			}
		modifier = {
			owner = { number_of_loans = 1 }
			factor = 1.4
			}
		modifier = {
			owner = { number_of_loans = 2 }
			factor = 1.4
			}
		modifier = {
			owner = { NOT = { treasury = 5 } }
			factor = 1.4
			}
		modifier = {
			owner = { treasury = 100 }
			factor = 0.65
			}
		modifier = {
			owner = { treasury = 500 }
			factor = 0.65
			}
		modifier = {
			owner = { treasury = 1000 }
			factor = 0.65
			}
		modifier = {
			owner = { has_country_flag = curia_controller }
			factor = 0.7
			}
		modifier = { 
			owner = { check_variable = { which = "religious_fervor" value = 5 } }
			factor = 0.7
			}
		modifier = { 
			owner = { check_variable = { which = "religious_fervor" value = 9 } }
			factor = 0.7
			}
		}
	any_country = {
		limit = {
			capital_scope = { owner = { religion = catholic } }
			num_of_cities = 1
			NOT = { capital_scope = { owned_by = THIS } }
			OR = {
				defender_of_faith = yes
				government = theocracy 
				num_of_cities = 10
				}
			}
		relation = { who = THIS value = -10 }
		}
	owner = { 
		prestige = -0.01
		relation = { who = PAP value = -25 }
		add_country_modifier = { 
			name = "religious_scandal_country"
			duration = 365
			}
		}
	}
option = { 
	name = "EVTOPTE551601" #Promise to regain Rome for the pope
	ai_chance = { 
		factor = 20 
		modifier = { 
			owner = { check_variable = { which = "religious_fervor" value = 5 } }
			factor = 1.4
			}
		modifier = { 
			owner = { check_variable = { which = "religious_fervor" value = 9 } }
			factor = 1.4
			}
		modifier = {
			118 = { owner = { NOT = { religion_group = christian } } }
			factor = 2
			}
		modifier = {
			OR = {
				owner = { 118 = { is_core = THIS } }
				AND = { 
					owner = { is_emperor = yes }
					118 = { is_core = RLD }
					}
				}
			factor = 0.2
			}
		modifier = {
			owner = { war = yes }
			factor = 0.8
			}
		modifier = {
			owner = { war_exhaustion = 4 }
			factor = 0.8
			}
		modifier = { 
			owner = { war_exhaustion = 8 }
			factor = 0.8
			}
		modifier = { 
			owner = { war_exhaustion = 12 }
			factor = 0.8
			}
		modifier = {
			owner = { defender_of_faith = yes }
			factor = 1.4
			}
		modifier = {
			owner = { NOT = { num_of_cities = 10 } }
			factor = 0.65
			}
		}
	any_country = {
		limit = {
			capital_scope = { owner = { religion = catholic } }
			num_of_cities = 1
			NOT = { capital_scope = { owned_by = THIS } }
			OR = {
				defender_of_faith = yes
				has_country_flag = Roman_crusade
				}
			}
		relation = { who = THIS value = 10 }
		}
	owner = { 
		set_country_flag = Roman_crusade
		set_country_flag = crusade_for_rome
		add_core = 118 #Roma
		add_ai_strategy = { 
			conquer_prov = {
				id = 118
				value = 50
				}
			}
		badboy = -0.5
		prestige = +0.01
		relation = { who = PAP value = 25 }
		clr_country_flag = enemy_of_pope
		}
	}
option = {
	name = "EVTOPTA551601" #Create a new holy see
	ai_chance = { 
		factor = 10 
		modifier = {
			owner = { NOT = { num_of_cities = 10 } }
			factor = 0.65
			}
		modifier = {
			owner = { num_of_cities = 20 }
			factor = 1.4
			}
		modifier = {
			owner = { num_of_cities = 40 }
			factor = 1.4
			}
		modifier = {
			owner = { has_country_flag = curia_controller }
			factor = 1.4
			}
		modifier = { 
			factor = 0.8
			owner = { idea = ecumenism }
			}
		modifier = {
			OR = {
				owner = { has_country_flag = excommunicated }
				owner = { has_country_flag = excommunication_decree }
				owner = { has_country_flag = dispensation_denied }
				owner = { has_country_flag = royal_scandal }
				}
			factor = 2
			}
		}
	set_province_flag = curia_location
	any_country = {
		limit = {
			capital_scope = { owner = { religion = catholic } }
			num_of_cities = 1
			NOT = { capital_scope = { owned_by = THIS } }
			OR = {
				defender_of_faith = yes
				num_of_cities = 10
				}
			}
		relation = { who = THIS value = 50 }
		}
	any_country = {
		limit = {
			NOT = { capital_scope = { owned_by = THIS } }
			has_country_flag = curia_controller
			}
		relation = { who = THIS value = -50 }
		clr_country_flag = curia_controller
		}
	PAP = {
		country_event = 551634
		relation = { who = THIS value = 200 }
		}
	owner = { 
		random_owned = { 
			limit = { owner = { check_variable = { which = "religious_fervor" value = 1 } } }
			owner = { 
				set_country_flag = Roman_crusade
				set_country_flag = crusade_for_rome
				add_core = 118
				add_ai_strategy = { 
					conquer_prov = {
						id = 118
						value = 50
						}
					}
				}
			random_country = { 
				limit = { owns = 118 }
				country_event = 551642 #Crusade for Rome
				}
			}
		}
	owner = {
		set_country_flag = curia_controller
		clr_country_flag = enemy_of_pope
		clr_country_flag = hated_enemy_of_pope
		clr_country_flag = dispensation_denied
		set_country_flag = dispensation_granted
		badboy = -3
		random_owned = { 
			limit = { owner = { stability = 3 } }
			owner = { prestige = 0.10 }
			}
		random_owned = { 
			limit = { owner = { NOT = { stability = 3 } } }
			owner = { stability = 1 prestige = 0.05 }
			}
		}
	}
option = { 
	name = "EVTOPTD551601" #A landless pope is in our best interests
	ai_chance = { factor = 5 }
	any_country = {
		limit = {
			capital_scope = { owner = { religion = catholic } }
			num_of_cities = 1
			NOT = { capital_scope = { owned_by = THIS } }
			OR = {
				defender_of_faith = yes
				has_country_flag = Roman_crusade
				}
			}
		relation = { who = THIS value = -50 }
		}
	owner = { 
		set_country_flag = landless_pope
		set_country_flag = hated_enemy_of_pope #Until death of current pope
		prestige = -0.03
		add_country_modifier = { 
			name = "religious_scandal_country"
			duration = 3650
			}
		relation = { who = PAP value = -50 }
		}
	}

}

country_event = { #Jubilee Year

id = 551602

trigger = {
	government = papal_government
	OR = { 
		AND = { year = 1300 NOT = { year = 1301 } } 
		AND = { year = 1325 NOT = { year = 1326 } } 
		AND = { year = 1350 NOT = { year = 1351 } } 
		AND = { year = 1375 NOT = { year = 1376 } } 
		AND = { year = 1400 NOT = { year = 1401 } } 
		AND = { year = 1425 NOT = { year = 1426 } } 
		AND = { year = 1450 NOT = { year = 1451 } } 
		AND = { year = 1475 NOT = { year = 1476 } } 
		AND = { year = 1500 NOT = { year = 1501 } } 
		AND = { year = 1525 NOT = { year = 1526 } } 
		AND = { year = 1550 NOT = { year = 1551 } } 
		AND = { year = 1575 NOT = { year = 1576 } } 
		AND = { year = 1600 NOT = { year = 1601 } } 
		AND = { year = 1625 NOT = { year = 1626 } }
		AND = { year = 1650 NOT = { year = 1651 } } 
		AND = { year = 1675 NOT = { year = 1676 } } 
		AND = { year = 1700 NOT = { year = 1701 } } 
		AND = { year = 1725 NOT = { year = 1726 } }
		AND = { year = 1750 NOT = { year = 1751 } } 
		AND = { year = 1775 NOT = { year = 1776 } } 
		AND = { year = 1800 NOT = { year = 1801 } } 
		AND = { year = 1825 NOT = { year = 1826 } }
		AND = { year = 1850 NOT = { year = 1851 } } 
		AND = { year = 1875 NOT = { year = 1876 } } 
		}
	NOT = { has_country_modifier = jubilee_year }
	NOT = { exists = AVI }
	PAP = { 
		stability = -1 #Jubilees were not held in some years due to political disturbances
		controls = 118 #Roma
		NOT = { badboy = 1 } #Not meant to be abused for world conquest (yet Alexander VI did!)
		OR = {
			has_country_flag = secular_pope
			has_country_flag = reformer_pope
			has_country_flag = corrupt_pope
			}
		}
	}

mean_time_to_happen = { months = 3 }

title = "EVTNAME551602"
desc = "EVTDESC551602"

option = {
	name = "EVTOPTA551602" #Call a jubilee
	any_country = {
		limit = { 
			religion = catholic 
			num_of_cities = 1
			NOT = { capital_scope = { owned_by = THIS } }
			}
		relation = { who = THIS value = 25 }
		}
	add_country_modifier = { 
		name = "jubilee_year"
		duration = 365
		}
	random_owned = { 
		limit = { owner = { stability = 3 NOT = { badboy = 0.25 } } }
		owner = { prestige = 0.05 }
		}
	random_owned = { 
		limit = { owner = { NOT = { stability = 3 NOT = { badboy = 0.25 } } } }
		owner = { stability = 1 }
		}

	random_owned = {
		limit = {
			owner = { 
				NOT = { badboy = 0.05 } #5% of limit
				}
			}
		owner = { 
			treasury = 50
			prestige = +0.03
			}
		}
	random_owned = {
		limit = {
			owner = { 
				badboy = 0.05
				NOT = { badboy = 0.25 }
				}
			}
		owner = { 
			treasury = 40
			prestige = +0.02
			}
		}
	random_owned = {
		limit = {
			owner = { 
				badboy = 0.25
				NOT = { badboy = 0.75 }
				}
			}
		owner = { 
			treasury = 30
			prestige = +0.01
			}
		}
	random_owned = {
		limit = { owner = { badboy = 0.75 } }
		owner = { treasury = 25 }
		}
	set_country_flag = jubilee_year
	any_country = {
		limit = { 
			PAP = { has_country_flag = jubilee_year }
			religion = catholic
			NOT = { capital_scope = { owned_by = THIS } }
			num_of_cities = 1
			}
		relation = { who = THIS value = 25 }
		}
	clr_country_flag = jubilee_year
	}
}

country_event = { #Charitable order founded (pious pope)

id = 551603

trigger = { 
	government = papal_government
	OR = { 
		has_country_flag = reformer_pope
		has_country_flag = secular_pope
		has_country_flag = corrupt_pope
		}
	}

mean_time_to_happen = { 

	months = 120

	}

title = "EVTNAME551603"
desc = "EVTDESC551603"

option = { 
	name = "EVTOPTA551603" #Give them our blessing
	ai_chance = { factor = 34 }
	random_country = {
		limit = { 
			religion = catholic
			num_of_cities = 1
			NOT = { capital_scope = { owned_by = THIS } }
			}
		relation = { who = THIS value = 25 }
		}
	PAP = { set_country_flag = charitable_order }
	any_country = {
		limit = { 
			PAP = { has_country_flag = charitable_order }
			religion = catholic 
			num_of_cities = 1
			NOT = { capital_scope = { owned_by = THIS } }
			}
		relation = { who = THIS value = 5 }
		}
	prestige = +0.01
	random_owned = {
		limit = { PAP = { has_country_flag = charitable_order } }
		PAP = { clr_country_flag = charitable_order }
		}
	}
option = { 
	name = "EVTOPTB551603" #Give them our full support
	ai_chance = { 
		factor = 50 
		modifier = {
			has_country_flag = reformer_pope
			factor = 1.4
			}
		modifier = {
			has_country_flag = corrupt_pope
			factor = 0.25
			}
		}
	random_country = {
		limit = { 
			religion = catholic
			num_of_cities = 1
			NOT = { capital_scope = { owned_by = THIS } }
			}
		relation = { who = THIS value = 50 }
		}
	PAP = { set_country_flag = charitable_order }
	any_country = {
		limit = { 
			PAP = { has_country_flag = charitable_order }
			religion = catholic 
			num_of_cities = 1
			NOT = { capital_scope = { owned_by = THIS } }
			}
		relation = { who = THIS value = 10 }
		}
	prestige = +0.02
	badboy = -0.5
	treasury = -10
	random_owned = {
		limit = { PAP = { has_country_flag = charitable_order } }
		PAP = { clr_country_flag = charitable_order }
		}
	}
option = { 
	name = "EVTOPTC551603" #Demand a fee from them
	ai_chance = { 
		factor = 33
		modifier = {
			has_country_flag = reformer_pope
			factor = 0.25
			}
		modifier = {
			has_country_flag = corrupt_pope
			factor = 1.4
			}
		}
	treasury = 5
	}
}

country_event = { #Papal Relations

id = 551605

trigger = {
	tag = PAP
	NOT = { exists = AVI }
	NOT = { aristocracy_plutocracy = 1 }
	OR = { 
		has_country_flag = corrupt_pope
		has_country_flag = secular_pope
		has_country_flag = reformer_pope
		}
	}

mean_time_to_happen = {

	months = 120

	modifier = { 
		PAP = { has_country_flag = corrupt_pope }
		factor = 0.5
		}
	modifier = { 
		PAP = { has_country_flag = reformer_pope }
		factor = 1.5
		}
	modifier = { 
		PAP = { has_country_flag = nepotism_abolished }
		factor = 5
		}
	}

title = "EVTNAME551605"
desc = "EVTDESC551605"

option = {
	name = "EVTOPTA551605" #Shower them with riches
	ai_chance = { 
		factor = 75 
		modifier = {
			number_of_loans = 1
			factor = 0.8
			}
		modifier = {
			number_of_loans = 2
			factor = 0.8
			}
		modifier = {
			NOT = { treasury = 5 }
			factor = 0.8
			}
		modifier = {
			NOT = { treasury = 10 }
			factor = 0.8
			}
		modifier = {
			NOT = { treasury = 20 }
			factor = 0.8
			}
		modifier = {
			NOT = { treasury = 50 }
			factor = 0.8
			}
		}
	random_owned = {
		limit = {
			owner = { 
				NOT = { num_of_cities = 3 }
				}
			}
		owner = { treasury = -5 }
		}
	random_owned = {
		limit = {
			owner = { 
				num_of_cities = 3
					NOT = { num_of_cities = 5 }
				}
				}
		owner = { treasury = -10 }
		}
	random_owned = {
		limit = {
			owner = { 
				num_of_cities = 5
				}
			}
		owner = { treasury = -20 }
		}
	}
option = { 
	name = "EVTOPTB551605" #Throw them a few bones
	ai_chance = { 
		factor = 25 
		modifier = {
			treasury = 100
			factor = 0.8
			}
		modifier = {
			treasury = 250
			factor = 0.8
			}
		modifier = {
			treasury = 1000
			factor = 0.8
			}
		}
	random_owned = {
		limit = {
			owner = { 
				NOT = { num_of_cities = 3 }
				}
			}
	owner = { 
		treasury = -1 
		prestige = -0.01
		}
	}
	random_owned = {
		limit = {
			owner = { 
				num_of_cities = 3
				NOT = { num_of_cities = 5 }
				}
			}
	owner = { 
		treasury = -2
		prestige = -0.01
		}
	}
	random_owned = {
		limit = {
			owner = { 
				num_of_cities = 5
				}
			}
		owner = { 
			treasury = -4
			prestige = -0.01
			}
		}
	}
}

country_event = { #Papal Excess

id = 551606 

trigger = { 
	tag = PAP
	war = no
	PAP = { check_variable = { which = "papal_authority" value = 250 } }
	NOT = { ADM = 7 }
	OR = { 
		has_country_flag = corrupt_pope
		has_country_flag = secular_pope
		}
	}

mean_time_to_happen = { 

	months = 120

	modifier = { 
		PAP = { has_country_flag = corrupt_pope }
		factor = 0.5
		}
	modifier = { 
		NOT = { ADM = 5 }
		factor = 0.5
		}
	modifier = { 
		NOT = { ADM = 4 }
		factor = 0.5
		}
	}

title = "EVTNAME551606"
desc = "EVTDESC551606"

option = { 
	name = "EVTOPTA551606" #Circuses and banquets
	ai_chance = { factor = 70 }
	random_owned = {
		limit = {
			owner = { 
				NOT = { num_of_cities = 3 }
				}
			}
		owner = { 
			treasury = -5
			prestige = +0.01
			}
		}
	random_owned = {
		limit = {
			owner = { 
				num_of_cities = 3
				NOT = { num_of_cities = 5 }
				}
			}
		owner = { 
			treasury = -10
			prestige = +0.01
			}
		}
	random_owned = {
		limit = {
			owner = { 
				num_of_cities = 5
				}
			}
		owner = { 
			treasury = -20
			prestige = +0.01
			}
		}
	}
option = {
	name = "EVTOPTB551606" #Shower my friends with gifts
	ai_chance = { factor = 30 }
	random_owned = {
		limit = {
			owner = { 
				NOT = { num_of_cities = 3 }
				}
			}
		owner = { 
			treasury = -5
			prestige = +0.01
			aristocracy_plutocracy = -1
			}
		}
	random_owned = {
		limit = {
			owner = { 
				num_of_cities = 3
				NOT = { num_of_cities = 5 }
				}
			}
		owner = { 
			treasury = -10
			prestige = +0.01
			aristocracy_plutocracy = -1
			}
		}
	random_owned = {
		limit = {
			owner = { 
				num_of_cities = 5
				}
			}
		owner = { 
			treasury = -20
			prestige = +0.01
			aristocracy_plutocracy = -1
			}
		}
	}
}

country_event = { #Missionary work (pious popes)

id = 551607

trigger = {
	government = papal_government
	war = no
	OR = { 
		has_country_flag = reformer_pope
		has_country_flag = secular_pope
		has_country_flag = corrupt_pope
		}
	}

mean_time_to_happen = { 

	months = 120

	}

title = "EVTNAME551607"
desc = "EVTDESC551607"

option = { 
	name = "EVTOPTA551607" #We support their good works
	ai_chance = { 
		factor = 50 
		modifier = {
			has_country_flag = corrupt_pope
			factor = 0.5
			}
		modifier = {
			has_country_flag = reformer_pope
			factor = 2
			}
		}
	prestige = +0.01
	treasury = -10
	any_country = { 
		limit = { 
			has_country_flag = catholic_periphery 
			OR = { religion = catholic religion = orthodox }
			}
		relation = { who = THIS value = 2 }
		treasury = +1
		}
	}
option = { 
	name = "EVTOPTB551607" #Call for a tithe from Christendom
	ai_chance = { 
		factor = 50
		modifier = {
			has_country_flag = corrupt_pope
			factor = 2
			}
		modifier = {
			has_country_flag = reformer_pope
			factor = 0.5
			}
		}
	treasury = -5
	set_country_flag = missionary_tithe
	any_country = { 
		limit = { 
			has_country_flag = catholic_periphery 
			OR = { religion = catholic religion = orthodox }
			}
		relation = { who = THIS value = 5 }
		treasury = +2
		}
	}
}

country_event = { #Religious art

id = 551609

trigger = { 
	government = papal_government
	treasury = 10 
	war = no
	NOT = { serfdom_freesubjects = 0 }
	}

mean_time_to_happen = { 

	months = 120

	modifier = { 
		idea = patron_of_art 
		factor = 0.5
		}
	}

title = "EVTNAME551609"
desc = "EVTDESC551609"

option = {
	name = "EVTOPTA551609" #Commission a new work of art
	ai_chance = { factor = 90 }
	treasury = -10 
	prestige = +0.01
	}
option = { 
	name = "EVTOPTB551609" #Cut down on needless expenses
	ai_chance = { factor = 10 }
	stability = -1
	}
}

country_event = { #Church-building program

id = 551610

trigger = { 
	government = papal_government
	treasury = 50
	war = no
	}

mean_time_to_happen = { 

	months = 60 

	modifier = { 
		PAP = { has_country_flag = corrupt_pope }
		factor = 2
		}
	modifier = { 
		idea = church_attendance_duty
		factor = 0.9
		}
	}

title = "EVTNAME551610"
desc = "EVTDESC551610"

option = { 
	name = "EVTOPTA551610" #Build a great cathedral
	ai_chance = { factor = 50 }
	treasury = -25
	prestige = +0.02
	capital_scope = { add_building = temple }
	}
option = { 
	name = "EVTOPTB551610" #Renovate old churches
	ai_chance = { factor = 50 }
	treasury = -10
	}
}

country_event = { #Call for Crusade

id = 551611

trigger = { 
	government = papal_government
	has_country_flag = crusader
	war = no
	}

mean_time_to_happen = { 

	months = 24

	modifier = { 
		idea = deus_vult
		factor = 0.5
		}
	}

title = "EVTNAME551611"
desc = "EVTDESC551611"

option = {
	name = "EVTOPTA551611" #Lead by example
	ai_chance = { factor = 50 }
	treasury = -10 
	prestige = +0.01
	any_country = { 
		limit = { 
			idea = deus_vult 
			religion = catholic 
			} 
		relation = { who = THIS value = 50 } 
		}
	any_country = { 
		limit = { has_country_flag = crusade_sponsor } 
		relation = { who = THIS value = 25 } 
		}
	any_country = { 
		limit = { has_country_flag = crusade_target } 
		casus_belli = THIS 
		relation = { who = THIS value = -100 } 
		}
	clr_country_flag = crusader
	}
option = { 
	name = "EVTOPTB551611" #Ask a prince to lead it
	ai_chance = { factor = 50 }
	clr_country_flag = crusader
	}
}

country_event = { #Papal Finances

id = 551612

trigger = { 
	tag = PAP
	PAP = { check_variable = { which = "papal_authority" value = 300 } }
	NOT = { 
		has_country_flag = indulgences_banned
		has_country_flag = indulgences
		has_country_flag = indulgences_permitted
		}
	OR = { 
		has_country_flag = secular_pope
		has_country_flag = corrupt_pope
		has_country_flag = reformer_pope
		}
	OR = { 
		NOT = { treasury = 100 }
		AND = { war = yes NOT = { treasury = 200 } }
		number_of_loans = 1
		}
	}

mean_time_to_happen = { 

	months = 200 

	modifier = { 
		number_of_loans = 1
		factor = 0.5
		}
	
	}

title = "EVTNAME551612"
desc = "EVTDESC551612"

option = {
	name = "EVTOPTA551612" #Grant indulgences in exchange for alms
	ai_chance = { factor = 50 }
	treasury = 50
	prestige = -0.01
	set_country_flag = indulgences
	}
option = { 
	name = "EVTOPTB551612" #Ask worshippers to donate
	ai_chance = { factor = 50 }
	treasury = 5
	prestige = -0.01
	}
}

country_event = { #The corruption of Pope $MONARCH$

id = 551613

trigger = { 
	tag = PAP
	NOT = { has_country_flag = potential_schism }
	NOT = { regency = yes }
	OR = { 
		badboy = 1 #100% of reputation limit
		AND = { badboy = 0.10 num_of_cities = 6 NOT = { check_variable = { which = conciliarism value = 0 } } }
		AND = { badboy = 0.10 num_of_cities = 7 NOT = { check_variable = { which = conciliarism value = 1 } } }
		AND = { badboy = 0.10 num_of_cities = 8 NOT = { check_variable = { which = conciliarism value = 2 } } }
		AND = { badboy = 0.10 num_of_cities = 9 check_variable = { which = conciliarism value = 2 } }
		AND = { badboy = 0.20 num_of_cities = 5 NOT = { check_variable = { which = conciliarism value = 0 } } }
		AND = { badboy = 0.20 num_of_cities = 6 NOT = { check_variable = { which = conciliarism value = 1 } } }
		AND = { badboy = 0.20 num_of_cities = 7 NOT = { check_variable = { which = conciliarism value = 2 } } }
		AND = { badboy = 0.20 num_of_cities = 8 check_variable = { which = conciliarism value = 2 } }
		AND = { badboy = 0.40 num_of_cities = 4 NOT = { check_variable = { which = conciliarism value = 0 } } }
		AND = { badboy = 0.40 num_of_cities = 5 NOT = { check_variable = { which = conciliarism value = 1 } } }
		AND = { badboy = 0.40 num_of_cities = 6 NOT = { check_variable = { which = conciliarism value = 2 } } }
		AND = { badboy = 0.40 num_of_cities = 7 check_variable = { which = conciliarism value = 2 } }
		AND = { badboy = 0.60 num_of_cities = 3 NOT = { check_variable = { which = conciliarism value = 0 } } }
		AND = { badboy = 0.60 num_of_cities = 4 NOT = { check_variable = { which = conciliarism value = 1 } } }
		AND = { badboy = 0.60 num_of_cities = 5 NOT = { check_variable = { which = conciliarism value = 2 } } }
		AND = { badboy = 0.60 num_of_cities = 6 check_variable = { which = conciliarism value = 2 } }
		AND = { badboy = 0.80 num_of_cities = 2 NOT = { check_variable = { which = conciliarism value = 0 } } }
		AND = { badboy = 0.80 num_of_cities = 3 NOT = { check_variable = { which = conciliarism value = 1 } } }
		AND = { badboy = 0.80 num_of_cities = 4 NOT = { check_variable = { which = conciliarism value = 2 } } }
		AND = { badboy = 0.80 num_of_cities = 5 check_variable = { which = conciliarism value = 2 } }
		}
	}

mean_time_to_happen = { months = 6 } 

title = "EVTNAME551613"
desc = "EVTDESC551613"

option = { 
	name = "EVTOPTB551613"
	ai_chance = { 
		factor = 67 
		modifier = {
			has_country_flag = corrupt_pope
			factor = 0.65
			}
		modifier = {
			has_country_flag = reformer_pope
			factor = 1.4
			}
		}
	set_country_flag = potential_schism
	set_country_flag = awaiting_judgement
	emperor = { relation = { who = THIS value = 50 } }
	prestige = -0.05
	badboy = -1
	}
option = {
	name = "EVTOPTA551613" #Have we erred?
	ai_chance = { 
		factor = 33 
		modifier = {
			NOT = { badboy = 0.01 }
			factor = 1.4
			}
		}
	prestige = -0.05
	set_country_flag = potential_schism
	}
}

country_event = { #The redemption of Pope $MONARCH$

id = 551614

trigger = { 
	tag = PAP
	has_country_flag = potential_schism
	NOT = { regency = yes }
	NOT = {
		OR = { 
			badboy = 1 #100% of reputation limit
			AND = { badboy = 0.10 num_of_cities = 6 NOT = { check_variable = { which = conciliarism value = 0 } } }
			AND = { badboy = 0.10 num_of_cities = 7 NOT = { check_variable = { which = conciliarism value = 1 } } }
			AND = { badboy = 0.10 num_of_cities = 8 NOT = { check_variable = { which = conciliarism value = 2 } } }
			AND = { badboy = 0.10 num_of_cities = 9 check_variable = { which = conciliarism value = 2 } }
			AND = { badboy = 0.20 num_of_cities = 5 NOT = { check_variable = { which = conciliarism value = 0 } } }
			AND = { badboy = 0.20 num_of_cities = 6 NOT = { check_variable = { which = conciliarism value = 1 } } }
			AND = { badboy = 0.20 num_of_cities = 7 NOT = { check_variable = { which = conciliarism value = 2 } } }
			AND = { badboy = 0.20 num_of_cities = 8 check_variable = { which = conciliarism value = 2 } }
			AND = { badboy = 0.40 num_of_cities = 4 NOT = { check_variable = { which = conciliarism value = 0 } } }
			AND = { badboy = 0.40 num_of_cities = 5 NOT = { check_variable = { which = conciliarism value = 1 } } }
			AND = { badboy = 0.40 num_of_cities = 6 NOT = { check_variable = { which = conciliarism value = 2 } } }
			AND = { badboy = 0.40 num_of_cities = 7 check_variable = { which = conciliarism value = 2 } }
			AND = { badboy = 0.60 num_of_cities = 3 NOT = { check_variable = { which = conciliarism value = 0 } } }
			AND = { badboy = 0.60 num_of_cities = 4 NOT = { check_variable = { which = conciliarism value = 1 } } }
			AND = { badboy = 0.60 num_of_cities = 5 NOT = { check_variable = { which = conciliarism value = 2 } } }
			AND = { badboy = 0.60 num_of_cities = 6 check_variable = { which = conciliarism value = 2 } }
			AND = { badboy = 0.80 num_of_cities = 2 NOT = { check_variable = { which = conciliarism value = 0 } } }
			AND = { badboy = 0.80 num_of_cities = 3 NOT = { check_variable = { which = conciliarism value = 1 } } }
			AND = { badboy = 0.80 num_of_cities = 4 NOT = { check_variable = { which = conciliarism value = 2 } } }
			AND = { badboy = 0.80 num_of_cities = 5 check_variable = { which = conciliarism value = 2 } }
			}
		}
	}

title = "EVTNAME551614"
desc = "EVTDESC551614"

mean_time_to_happen = { months = 12 }

option = {
	name = "EVTOPTA551614" #The danger of schism has passed...for now.
	any_country = {
		limit = { 
			religion = catholic 
			num_of_cities = 1
			NOT = { capital_scope = { owned_by = THIS } }
			}
		relation = { who = THIS value = 10 }
		}
	prestige = +0.01
	clr_country_flag = potential_schism
	clr_country_flag = awaiting_judgement
	}
}

country_event = { #A Chance for Reconciliation

id = 551615

trigger = { 
	OR = { 
		tag = AVI #Antipope
		AND = { 
			tag = PAP
			AVI = { NOT = { ai = yes } }
			}
		}
	has_country_flag = union_council
	PAP = { has_country_flag = church_council }
	OR = { 
		NOT = { PAP = { has_country_flag = potential_schism } }
		PAP = { has_country_flag = catholic_reformation }
		}
	OR = { 
		PAP = { has_country_flag = regular_councils_promised }
		PAP = { has_country_flag = regular_councils_supposedly_promised }
		PAP = { has_country_flag = secular_veto_conceded }
		}
	}

mean_time_to_happen = { 

	months = 4

	}

title = "EVTNAME551615"
desc = "EVTDESC551615"

option = { 
	name = "EVTOPTA551615" #It is time to heal this rift
	ai_chance = { 
		factor = 5
		modifier = { 
			NOT = { has_country_flag = western_schism }
			has_country_flag = simony
			factor = 0.7
			}
		modifier = { 
			NOT = { has_country_flag = western_schism }
			has_country_flag = absenteeism
			factor = 0.7
			}
		modifier = { 
			NOT = { has_country_flag = western_schism }
			has_country_flag = indulgences_condemned
			factor = 0.7
			}
		modifier = { 
			NOT = { year = 1410 }
			NOT = { has_country_flag = first_refusal }
			factor = 0
			}
		modifier = { 
			factor = 1.2 #There is more pressure to make concessions the longer a schism lasts
			year = 1410
			has_country_flag = western_schism
			}
		modifier = { 
			factor = 1.2
			year = 1415
			has_country_flag = western_schism
			}
		modifier = { 
			factor = 1.2
			year = 1420
			has_country_flag = western_schism
			}
		modifier = { 
			factor = 1.2
			year = 1425
			has_country_flag = western_schism
			}
		modifier = { 
			factor = 1.2
			year = 1430
			has_country_flag = western_schism
			}
		modifier = { 
			factor = 1.2
			year = 1435
			has_country_flag = western_schism
			}
		modifier = { 
			factor = 1.2
			year = 1440
			has_country_flag = western_schism
			}
		} 
	clr_country_flag = union_council
	clr_country_flag = western_schism
	#xxxx Unfinished Business
	PAP = { 
		clr_country_flag = church_schism
		set_country_flag = schism_aftermath
		}
	random_owned = { 
		limit = { owner = { tag = AVI } }
		owner = { 
			remove_core = 118 #Roma
			capital_scope = { 
				remove_core = THIS
				PAP = { remove_core = THIS }
				}
			PAP = { inherit = THIS }
			}
		}
	random_owned = { 
		limit = { owner = { tag = PAP } }
		owner = { AVI = { inherit = THIS } }
		}
	random_owned = {
		limit = { PAP = { has_country_flag = schism_aftermath } }
		any_country = { 
			limit = { 
				NOT = { ai = yes }
				NOT = { capital_scope = { owned_by = THIS } }
				num_of_cities = 1
				OR = { 
					AND = { 
						religion = catholic
						OR = { 
							has_country_flag = religious_news_major
							has_country_flag = Roman_Catholic
							has_country_flag = support_antipope
							}
						}
					AND = { 
						religion_group = christian
						any_known_country = { religion = catholic }
						has_country_flag = religious_news_trivial
						}
					AND = { 
						any_neighbor_country = { religion = catholic }
						has_country_flag = religious_news_all
						}
					}
				}
			country_event = 551104
			}
		}		
	any_country = {
		limit = { has_country_flag = Roman_Catholic }
		clr_country_flag = Roman_Catholic
		}
	any_country = {
		limit = { has_country_flag = support_antipope }
		clr_country_flag = support_antipope
		}
	any_country = {
		limit = { has_country_flag = vote_for_anti_pope }
		clr_country_flag = vote_for_anti_pope
		}
	any_country = {
		limit = { has_country_flag = vote_for_Roman_pope }
		clr_country_flag = vote_for_Roman_pope
		}
	any_country = { 
		limit = { has_country_flag = synod_refused }
		clr_country_flag = synod_refused
		}
	any_country = { 
		limit = { has_country_flag = call_synod }
		clr_country_flag = call_synod
		}
	any_country = { 
		limit = { has_country_flag = vote_for_anti_pope }
		clr_country_flag = vote_for_anti_pope
		}
	any_country = { 
		limit = { has_country_flag = vote_for_Roman_pope }
		clr_country_flag = vote_for_Roman_pope
		}
	any_country = { 
		limit = { has_country_flag = synod_vote_against }
		clr_country_flag = synod_vote_against
		}
	PAP = { clr_country_flag = schism_aftermath }
	}
option = { 
	name = "EVTOPTB551615" #I am the rightful pope!
	ai_chance = { 
		factor = 95
		# Reforming the church
		modifier = { 
			has_country_flag = annate_abolished
			factor = 0.7
			}
		modifier = { 
			has_country_flag = seminaries
			factor = 0.7
			}
		modifier = { 
			has_country_flag = nepotism_abolished
			factor = 0.7
			}
		modifier = { 
			has_country_flag = simony_abolished
			factor = 0.7
			}
		modifier = { 
			has_country_flag = indulgences_banned
			factor = 0.7
			}
		# Showing church leadership
		modifier = { 
			PAP = { has_country_flag = lollardy_banned }
			factor = 0.7
			}
		# The issues of the Western Schism
		modifier = { 
			PAP = { has_country_flag = regular_councils_promised }
			factor = 0.2
			}
		modifier = { 
			PAP = { has_country_flag = regular_councils_supposedly_promised }
			factor = 0.33
			}
		modifier = { 
			PAP = { has_country_flag = secular_veto_conceded }
			factor = 0.33
			}
		}
	clr_country_flag = union_council
	set_country_flag = first_refusal
	random_owned = { 
		limit = { owner = { NOT = { ai = yes } tag = AVI } }
		owner = { PAP = { set_country_flag = union_council } }
		}
	prestige = -0.02
	}
}

country_event = { #The Sack of Rome

id = 551616

trigger = {
	tag = PAP
	is_religion_enabled = protestant
	NOT = { has_country_flag = sack_of_rome }
	owns = 118
	NOT = { controls = 118 }
	}

mean_time_to_happen = { months = 240 }

title = "EVTNAME551616"
desc = "EVTDESC551616"

option = { 
	name = "EVTOPTA551616" #Rebuild the city even grander than before
	ai_chance = { factor = 50 }
	prestige = -0.05
	118 = {
		remove_building = workshop
		remove_building = temple
		add_building = fine_arts_academy
		}
	add_country_modifier = { 
		name = "reduced_taxes"
		duration = 1825
		}
	treasury = -200
	set_country_flag = sack_of_rome
	AVI = { set_country_flag = sack_of_rome }
	any_country = { 
		limit = { controls = 118 }
		badboy = +1
		}
	any_neighbor_country = { #Artists and thinkers fled to Venice
		limit = { religion = catholic culture_group = latin }
		relation = { who = THIS value = 25 }
		government_tech = +1000
		trade_tech = +200
		production_tech = +200
		}
	}
option = { 
	name = "EVTOPTB551616" #Repair the damage as best we can
	ai_chance = { factor = 40 }
	prestige = -0.10
	118 = { 
		remove_building = workshop
		remove_building = temple
		}
	add_country_modifier = { 
		name = "reduced_taxes"
		duration = 365
		}
	treasury = -50
	set_country_flag = sack_of_rome
	AVI = { set_country_flag = sack_of_rome }
	any_country = { 
		limit = { controls = 118 }
		badboy = +1
		}
	any_neighbor_country = { #Artists and thinkers fled to Venice
		limit = { religion = catholic culture_group = latin }
		relation = { who = THIS value = 25 }
		government_tech = +500
		trade_tech = +100
		production_tech = +100
		}
	}
option = { 
	name = "EVTOPTC551616" #Accept our fate as a second-class city
	ai_chance = { factor = 10 }
	prestige = -0.20
	118 = { 
		remove_building = workshop
		remove_building = temple
		base_tax = -1 
		}
	set_country_flag = sack_of_rome
	AVI = { set_country_flag = sack_of_rome }
	any_country = { 
		limit = { controls = 118 }
		badboy = +1
		}
	any_neighbor_country = { #Artists and thinkers fled to Venice
		limit = { religion = catholic culture_group = latin }
		relation = { who = THIS value = 25 }
		government_tech = +250
		trade_tech = +50
		production_tech = +50
		}
	}
}

country_event = { #The Holy See

id = 551617

trigger = { 
	has_country_flag = Roman_crusade
	owns = 118
	religion = catholic
	NOT = { tag = PAP }
	NOT = { tag = AVI }
	}

mean_time_to_happen = { months = 3 }

title = "EVTNAME551617"
desc = "EVTDESC551617"

option = { 
	name = "EVTOPTA551617" #Restore the papal state to the pope
	ai_chance = { factor = 90 }
	any_country = {
		limit = { has_country_flag = Roman_crusade }
		clr_country_flag = Roman_crusade
		relation = { who = THIS value = 25 }
		remove_core = 118
		add_ai_strategy = { 
			conquer_prov = {
				id = 118
				value = -50
				}
			}
		}
	any_country = {
		limit = {
			NOT = { capital_scope = { owned_by = THIS } }
			religion = catholic
			OR = {
				defender_of_faith = yes
				has_country_flag = Roman_crusade
				}
			num_of_cities = 1
			}
		relation = { who = THIS value = 50 }
		}
	prestige = +0.05
	badboy = -2
	clr_country_flag = dispensation_denied
	set_country_flag = dispensation_granted
	random_owned = { 
		limit = { owner = { has_country_flag = Roman_crusade } }
		owner = { 
			clr_country_flag = Roman_crusade
			remove_core = 118
			add_ai_strategy = { 
				conquer_prov = {
					id = 118
					value = -50
					}
				}
			}
		}
	clr_country_flag = hated_enemy_of_pope
	clr_country_flag = enemy_of_pope
	remove_core = 118
	118 = { secede_province = PAP }
	PAP = { 
		capital_scope = { remove_core = THIS }
		PAP = { capital = 118 }
		relation = { who = THIS value = 200 }
		}
	}
option = { 
	name = "EVTOPTB551617" #Break our promises
	ai_chance = { factor = 10 }
	badboy = 1
	random_owned = { 
		limit = { owner = { has_country_flag = Roman_crusade } }
		owner = { 
			clr_country_flag = Roman_crusade
			remove_core = 118
			add_ai_strategy = { 
				conquer_prov = {
					id = 118
					value = -50
					}
				}
			}
		}
	set_country_flag = excommunication_decree
	set_country_flag = excommunication_broken_promises
	}
}

country_event = { #The Captivity

id = 551618

trigger = { 
	118 = { NOT = { owned_by = PAP } }
	NOT = { 118 = { owner = { has_country_flag = concordat } } }
	OR = {
		AND = {
			owns = 118
			has_country_flag = no_support
			}
		NOT = { has_country_flag = no_support } #Vanilla Papal States event choice to not return Roma
		}
	exists = PAP
	war = no
	stability = 0
	religion = catholic
	OR = { 
		num_of_cities = 5
		controls = 118
		}
	NOT = { has_country_flag = introduce_reformation }
	NOT = { has_country_flag = Roman_crusade }
	NOT = { has_country_flag = landless_pope }
	NOT = { has_country_flag = crusades_over }
	NOT = { has_country_flag = support_antipope }
	NOT = { tag = PAP }
	NOT = { tag = AVI }
	} 

mean_time_to_happen = { 

	months = 240

	modifier = { 
		idea = deus_vult
		factor = 0.5
		}
	modifier = { 
		idea = divine_supremacy
		factor = 0.75
		}
	modifier = {
		defender_of_faith = yes
		factor = 0.5
		}
	modifier = {
		118 = { owner = { NOT = { religion = catholic } } }
		factor = 0.5
		}
	modifier = {
		118 = { owner = { NOT = { religion_group = christian } } }
		factor = 0.5
		}
	}

title = "EVTNAME551618"
desc = "EVTDESC551618"

option = { 
	name = "EVTOPTA551618" #Now is not the time
	ai_chance = { 
		factor = 60 
		modifier = {
			NOT = { stability = 0 }
			factor = 1.4
			}
		modifier = {
			has_country_flag = civil_war
			factor = 5
			}
		modifier = {
			has_country_flag = total_war
			factor = 10
			}
		}
	prestige = -0.01
	relation = { who = PAP value = -25 }
	}
option = { 
	name = "EVTOPTE551601" #Same #Promise to regain Rome for the pope
	ai_chance = { 
		factor = 30 
		modifier = {
			118 = { owner = { NOT = { religion_group = christian } } }
			factor = 4
			}
		modifier = {
			war = yes
			factor = 0.65
			}
		modifier = {
			war_exhaustion = 4
			factor = 0.65
			}
		modifier = {
			war_exhaustion = 8
			factor = 0.65
			}
		modifier = {
			war_exhaustion = 12
			factor = 0.65
			}
		modifier = {
			NOT = { manpower = 1 }
			factor = 0.8
			}
		modifier = {
			defender_of_faith = yes
			factor = 2
			}
		modifier = {
			has_country_flag = curia_controller
			factor = 1.4
			}
		}
	any_country = {
		limit = {
			NOT = { capital_scope = { owned_by = THIS } }
			religion = catholic
			OR = {
				defender_of_faith = yes
				has_country_flag = Roman_crusade
				}
			num_of_cities = 1
			}
		relation = { who = THIS value = 25 }
		}
	random_owned = { 
		limit = { owner = { check_variable = { which = "religious_fervor" value = 1 } } }
		owner = {
			set_country_flag = Roman_crusade
			set_country_flag = crusade_for_rome
			add_core = 118
			add_ai_strategy = { 
				conquer_prov = {
					id = 118
					value = 50
					}
				}
			}
		random_country = { 
			limit = { owns = 118 }
			country_event = 551642 #crusade for Rome
			}
		}
	badboy = -0.5
	relation = { who = PAP value = 25 }
	clr_country_flag = enemy_of_pope
	prestige = 0.01
	}
option = { 
	name = "EVTOPTC551618" #The age of crusades is long over
	ai_chance = { 
		factor = 10 
		modifier = {
			idea = bill_of_rights
			factor = 1.1
			}
		modifier = {
			idea = humanist_tolerance
			factor = 1.1
			}
		modifier = {
			has_country_flag = jesuit_expulsion
			factor = 2
			}
		modifier = {
			has_country_flag = jesuits_rejected
			factor = 1.4
			}
		}
	any_country = {
		limit = {
			NOT = { capital_scope = { owned_by = THIS } }
			religion = catholic
			OR = {
				defender_of_faith = yes
				has_country_flag = Roman_crusade
				}
			num_of_cities = 1
			}
		relation = { who = THIS value = -25 }
		}
	prestige = -0.03
	set_country_flag = crusades_over
	relation = { who = PAP value = -100 }
	}
}

country_event = { #Church and State

id = 551619

trigger = { 
	is_emperor = yes
	PAP = { has_country_flag = awaiting_judgement }
	OR = { 
		has_country_flag = potential_schism
		has_country_flag = church_schism
		}
	}

mean_time_to_happen = { months = 12 }
title = "EVTNAME551619"
desc = "EVTDESC551619"

option = { 
	name = "EVTOPTA551619"
	ai_chance = { 
		factor = 50
		modifier = {
			OR = {
				PAP = { has_country_flag = potential_schism }
				PAP = { has_country_flag = church_schism }
				}
			factor = 2
			}
		modifier = {
			NOT = { PAP = { has_country_flag = potential_schism } }
			NOT = { PAP = { has_country_flag = church_schism } }
			factor = 0.25
			}
		modifier = {
			PAP = { badboy = 1.00 }
			factor = 1.25
			}
		modifier = {
			PAP = { badboy = 0.50 }
			factor = 1.25
			}
		modifier = {
			PAP = { num_of_cities = 6 }
			factor = 1.25
			}
		modifier = {
			has_country_flag = enemy_of_pope
			factor = 2
			}
		modifier = {
			has_country_flag = hated_enemy_of_pope
			factor = 2
			}
		}
	prestige = +0.01
	relation = { who = PAP value = -50 }
	PAP = { set_country_flag = emperor_condemns }
	PAP = { clr_country_flag = awaiting_judgement }
	}
option = { 
	name = "EVTOPTB551619"
	ai_chance = { 
		factor = 50
		modifier = {
			OR = {
				PAP = { has_country_flag = potential_schism }
				PAP = { has_country_flag = church_schism }
				}
			factor = 0.5
			}
		modifier = {
			NOT = { PAP = { has_country_flag = potential_schism } }
			NOT = { PAP = { has_country_flag = church_schism } }
			factor = 2
			}
		modifier = {
			has_country_flag = curia_controller
			factor = 2
			}
		}
	relation = { who = PAP value = 50 }
	PAP = { clr_country_flag = awaiting_judgement }
	PAP = { 
		prestige = +0.02
		badboy = -1
		}
	}
}

country_event = { #Family ties severed

id = 551620

is_triggered_only = yes

title = "EVTNAME551620"
desc = "EVTDESC551620"

option = {
	name = "EVTOPTA551620"
	clr_country_flag = papal_bastard
	prestige = -0.01
	stability = -1
	relation = { who = PAP value = -200 }
	any_owned = { 
		limit = { 
			NOT = { is_capital = yes }
			NOT = { exists = AVI }
			}
		secede_province = AVI
		AVI = { set_country_flag = family_ties }
		}
	random_owned = {
		limit = { owner = { NOT = { num_of_cities = 2 } } }
		owner = { inherit = THIS }
		}
	random_owned = {
		limit = { AVI = { has_country_flag = family_ties } }
		AVI = { clr_country_flag = family_ties }
		owner = { inherit = AVI }
		}
	}

}

country_event = { #The Judgement of the Emperor

id = 551621

trigger = { 
	tag = PAP
	has_country_flag = emperor_condemns
	}

mean_time_to_happen = { months = 6 }

title = "EVTNAME551621"
desc = "EVTDESC551621"

option = { 
	name = "EVTOPTA551621"
	ai_chance = { 
		factor = 50 
		modifier = {
			has_country_flag = reformer_pope
			factor = 1.4
			}
		modifier = {
			has_country_flag = corrupt_pope
			factor = 0.9
			}
		}
	set_country_flag = papal_goodwill
	any_country = {
		limit = { 
			PAP = { has_country_flag = papal_goodwill }
			religion = catholic 
			num_of_cities = 1
			NOT = { capital_scope = { owned_by = THIS } }
			}
		relation = { who = THIS value = 25 }
		}
	prestige = -0.05
	clr_country_flag = papal_goodwill
	clr_country_flag = emperor_condemns
	emperor = { relation = { who = THIS value = 50 } }
	random_owned = { 
		limit = { owner = { owns = 101 tag = PAP } } #Liguria
		owner = { badboy = -3 }
		101 = { secede_province = GEN }
		}
	random_owned = { 
		limit = { owner = { owns = 102 tag = PAP } } #Nice
		owner = { badboy = -2 }
		102 = { secede_province = SAV }
		}
	random_owned = { 
		limit = { owner = { owns = 103 tag = PAP } } #Piedmont
		owner = { badboy = -2 }
		103 = { secede_province = SAV }
		}
	random_owned = { 
		limit = { owner = { owns = 104 tag = PAP } } #Lombardia
		owner = { badboy = -2 }
		104 = { secede_province = MLO }
		}
	random_owned = { 
		limit = { owner = { owns = 105 tag = PAP } } #Parma
		owner = { badboy = -2 }
		105 = { secede_province = MLO }
		}
	random_owned = { 
		limit = { owner = { owns = 106 tag = PAP } } #Modena
		owner = { badboy = -2 }
		106 = { secede_province = MOD }
		}
	random_owned = { 
		limit = { owner = { owns = 107 tag = PAP } } #Brescia
		owner = { badboy = -2 }
		107 = { secede_province = VEN }
		}
	random_owned = { 
		limit = { owner = { owns = 108 tag = PAP } } #Verona
		owner = { badboy = -2 }
		108 = { secede_province = VEN }
		}
	random_owned = { 
		limit = { owner = { owns = 109 tag = PAP } } #Mantua
		owner = { badboy = -2 }
		109 = { secede_province = MAN }
		}
	random_owned = { 
		limit = { owner = { owns = 111 tag = PAP } } #Friuli
		owner = { badboy = -2 }
		111 = { secede_province = VEN }
		}
	random_owned = { 
		limit = { owner = { owns = 112 tag = PAP } } #Venezia
		owner = { badboy = -3 }
		112 = { secede_province = VEN }
		}
	random_owned = { 
		limit = { owner = { owns = 113 tag = PAP } } #Ferrara
		owner = { badboy = -2 }
		113 = { secede_province = MOD }
		}
	random_owned = { 
		limit = { owner = { owns = 115 tag = PAP } } #Pisa
		owner = { badboy = -2 }
		115 = { secede_province = TUS }
		}
	random_owned = { 
		limit = { owner = { owns = 116 tag = PAP } } #Firenze
		owner = { badboy = -2 }
		116 = { secede_province = TUS }
		}
	random_owned = { 
		limit = { owner = { owns = 117 tag = PAP } } #Siena
		owner = { badboy = -2 }
		117 = { secede_province = SIE }
		}
	random_owned = { 
		limit = { owner = { owns = 120 tag = PAP } } #Abruzzi
		owner = { badboy = -2 }
		120 = { secede_province = SIC }
		}
	random_owned = { 
		limit = { owner = { owns = 121 tag = PAP } } #Napoli
		owner = { badboy = -2 }
		121 = { secede_province = SIC }
		}
	random_owned = { 
		limit = { owner = { owns = 122 tag = PAP } } #Apulia
		owner = { badboy = -2 }
		122 = { secede_province = SIC }
		}
	random_owned = { 
		limit = { owner = { owns = 123 tag = PAP } } #Calabria
		owner = { badboy = -2 }
		123 = { secede_province = SIC }
		}
	random_owned = { 
		limit = { owner = { owns = 165 tag = PAP } } #Bern
		owner = { badboy = -2 }
		165 = { secede_province = SWI }
		}
	random_owned = { 
		limit = { owner = { owns = 166 tag = PAP } } #Schwyz
		owner = { badboy = -2 }
		166 = { secede_province = SWI }
		}
	random_owned = { 
		limit = { owner = { owns = 201 tag = PAP } } #Provence
		owner = { badboy = -2 }
		201 = { secede_province = PRO }
		}
	}
option = { 
	name = "EVTOPTB551621"
	ai_chance = { 
		factor = 50
		modifier = {
			has_country_flag = reformer_pope
			factor = 0.65
			}
		modifier = {
			has_country_flag = corrupt_pope
			factor = 1.1
			}
		}
	emperor = { relation = { who = THIS value = -50 } }
	badboy = +1
	stability = -1
	clr_country_flag = emperor_condemns
	}
}

country_event = { #The Pope is captured

id = 551622

trigger = { 
	tag = PAP
	exists = AVI
	NOT = { num_of_cities = 3 }
	NOT = { capital_scope = { has_province_modifier = religious_nationalism } }
	capital_scope = { 
		NOT = { has_province_modifier = religious_nationalism }
		controller = { has_country_flag = support_antipope }
		}
	}

mean_time_to_happen = { months = 1 }

title = "EVTNAME551622" #The Pope is captured
desc = "EVTDESC551622"

option = { 
	name = "EVTOPTA551622" #Recant and support the antipope
	ai_chance = { factor = 50 }
	capital_scope = { remove_core = THIS }
	AVI = { inherit = PAP }
	118 = { 
		controller = { 
			clr_country_flag = dispensation_denied
			set_country_flag = dispensation_granted
			prestige = 0.05
			badboy = -1
			} 
		 }
	}
option = {
	name = "EVTOPTB551622" #Become a martyr for the cause
	ai_chance = { factor = 50 }
	set_country_flag = pope_executed
	capital_scope = { 
		add_province_modifier = { 
			name = "religious_nationalism"
			duration = 365
			}
		controller = { badboy = +1 } 
		}
	}
}

country_event = { #The Antipope is captured

id = 551623

trigger = { 
	tag = AVI
	exists = PAP
	NOT = { num_of_cities = 3 }
	NOT = { capital_scope = { has_province_modifier = religious_nationalism } }
	capital_scope = { 
		NOT = { has_province_modifier = religious_nationalism }
		controller = { has_country_flag = Roman_Catholic }
		}
	}

mean_time_to_happen = { months = 1 }

title = "EVTNAME551623" #The antipope is captured
desc = "EVTDESC551622" #Same

option = { 
	name = "EVTOPTA551623" #Recognize the legitimacy of the pope
	ai_chance = { factor = 50 }
	capital_scope = { 
		remove_core = THIS 
		controller = { 
			clr_country_flag = dispensation_denied
			set_country_flag = dispensation_granted
			badboy = -1
			}
		}
	PAP = { inherit = AVI }
	}
option = {
	name = "EVTOPTB551622" #Same #Become a martyr for the cause
	ai_chance = { factor = 50 }
	capital_scope = { 
		add_province_modifier = { 
			name = "religious_nationalism"
			duration = 365
			}
		controller = { badboy = +1 } 
		}
	}
}

country_event = { #Cardinals accept the Antipope

id = 551624

trigger = { 
	tag = AVI
	OR = { 
		AND = { 
			NOT = { exists = PAP }
			NOT = { badboy = 0.75 }
			}
		AND = { 
			has_country_flag = curia_controller
			PAP = { ai = yes }
			}
		}
	}

mean_time_to_happen = { 

	months = 6 

	modifier = {
		has_country_flag = curia_controller
		factor = 0.5
		}
	}

title = "EVTNAME551624" #Cardinals accept the Antipope
desc = "EVTDESC551624"

immediate = { 
	random_owned = { 
		limit = { owner = { exists = PAP } }
		owner = { inherit = PAP } 
		}
	}

option = {
	name = "EVTOPTA551624" #Step down and heal the schism
	ai_chance = { factor = 60 }
	random_owned = { 
		limit = { owner = { stability = 3 } }
		owner = { prestige = 0.10 }
		}
	random_owned = { 
		limit = { owner = { stability = 2 NOT = { stability = 3 } } }
		owner = { prestige = 0.05 stability = 1 }
		}
	random_owned = { 
		limit = { owner = { NOT = { stability = 2 } } }
		owner = { stability = 2 }
		}
	capital_scope = { remove_core = THIS }
	AVI = { remove_core = 118 }
	change_tag = PAP
	capital_scope = { add_core = THIS }
	PAP = { 
		add_core = 118
		capital = 118
		set_country_flag = church_council
		set_country_flag = schism_aftermath
		centralization_decentralization = 1
		}
	any_country = { 
		limit = { has_country_flag = support_antipope }
		prestige = +0.03
		relation = { who = THIS value = 100 }
		}
	any_country = { 
		limit = { has_country_flag = Roman_Catholic }
		prestige = -0.03
		relation = { who = THIS value = 50 }
		}
	any_country = {
		limit = { has_country_flag = excommunicated NOT = { has_country_flag = dispensation_denied } }
		clr_country_flag = excommunicated
		clr_country_flag = unfair_excommunication
		relation = { who = THIS value = 50 }
		}
	any_country = {
		limit = { has_country_flag = excommunication_decree NOT = { has_country_flag = dispensation_denied } }
		clr_country_flag = excommunication_decree
		relation = { who = THIS value = 50 }
		}
	any_country = {
		limit = { has_country_flag = dispensation_denied }
		clr_country_flag = dispensation_denied
		relation = { who = THIS value = 50 }
		}
	random_owned = {
		limit = { PAP = { has_country_flag = schism_aftermath } }
		any_country = {
			limit = { has_country_flag = Roman_Catholic }
			clr_country_flag = Roman_Catholic
			}
		any_country = {
			limit = { has_country_flag = support_antipope }
			clr_country_flag = support_antipope
			}
		any_country = {
			limit = { has_country_flag = vote_for_anti_pope }
			clr_country_flag = vote_for_anti_pope
			}
		any_country = {
			limit = { has_country_flag = vote_for_Roman_pope }
			clr_country_flag = vote_for_Roman_pope
			}
		any_country = { 
			limit = { has_country_flag = synod_refused }
			clr_country_flag = synod_refused
			}
		any_country = { 
			limit = { has_country_flag = call_synod }
			clr_country_flag = call_synod
			}
		any_country = { 
			limit = { has_country_flag = vote_for_anti_pope }
			clr_country_flag = vote_for_anti_pope
			}
		any_country = { 
			limit = { has_country_flag = vote_for_Roman_pope }
			clr_country_flag = vote_for_Roman_pope
			}
		any_country = { 
			limit = { has_country_flag = synod_vote_against }
			clr_country_flag = synod_vote_against
			}
		any_country = {
			limit = { has_country_flag = enemy_of_pope }
			clr_country_flag = enemy_of_pope
			}
		any_country = {
			limit = { has_country_flag = hated_enemy_of_pope }
			clr_country_flag = hated_enemy_of_pope
			}
		PAP = { clr_country_flag = schism_aftermath }
		}
	}
option = {
	name = "EVTOPTB551624" #Purge the church of dissent
	ai_chance = { factor = 40 }
	random_owned = { 
		limit = { owner = { stability = 3 } }
		owner = { prestige = 0.15 }
		}
	random_owned = { 
		limit = { owner = { stability = 2 NOT = { stability = 3 } } }
		owner = { prestige = 0.10 stability = 1 }
		}
	random_owned = { 
		limit = { owner = { stability = 1 NOT = { stability = 2 } } }
		owner = { prestige = 0.05 stability = 2 }
		}
	random_owned = { 
		limit = { owner = { NOT = { stability = 1 } } }
		owner = { stability = 3 }
		}
	capital_scope = { remove_core = THIS }
	AVI = { remove_core = 118 }
	change_tag = PAP
	capital_scope = { add_core = THIS }
	PAP = { add_core = 118 }
	capital = 118
	set_country_flag = secular_pope
	centralization_decentralization = -2
	innovative_narrowminded = 1
	any_country = { 
		limit = { has_country_flag = support_antipope }
		prestige = +0.03
		relation = { who = THIS value = 100 }
		}
	any_country = { 
		limit = { has_country_flag = Roman_Catholic }
		prestige = -0.06
		relation = { who = THIS value = -50 }
		}
	any_country = {
		limit = { has_country_flag = excommunicated NOT = { has_country_flag = dispensation_denied } }
		clr_country_flag = excommunicated
		clr_country_flag = unfair_excommunication
		relation = { who = THIS value = 50 }
		}
	any_country = {
		limit = { has_country_flag = excommunication_decree NOT = { has_country_flag = dispensation_denied } }
		clr_country_flag = excommunication_decree
		relation = { who = THIS value = 50 }
		}
	any_country = {
		limit = { has_country_flag = dispensation_denied }
		clr_country_flag = dispensation_denied
		relation = { who = THIS value = 50 }
		}
	any_country = {
		clr_country_flag = Roman_Catholic
		clr_country_flag = support_antipope
		clr_country_flag = vote_for_anti_pope
		clr_country_flag = vote_for_Roman_pope
		clr_country_flag = enemy_of_pope
		clr_country_flag = hated_enemy_of_pope
		}
	}
}

country_event = { #The Pope's Bastards (Siena)

id = 551625

trigger = { 
	tag = PAP
	117 = { #Siena
		owned_by = PAP
		NOT = { is_core = PAP }
		}
	NOT = { exists = SIE }
	OR = { 
		has_country_flag = secular_pope
		has_country_flag = corrupt_pope
		has_country_flag = reformer_pope
		}
	}

mean_time_to_happen = { 

	months = 240

	modifier = { 
		has_country_flag = corrupt_pope
		factor = 0.5
		}
	modifier = {
		has_country_flag = nepotism_abolished
		factor = 2
		}
	modifier = {
		has_country_flag = reformer_pope
		factor = 2
		}
	modifier = {
		num_of_cities = 6
		factor = 0.7
		}
	}

title = "EVTNAME551625" #The Pope's Bastards
desc = "EVTDESC551625" 

option = { 
	name = "EVTOPTA551625" #Install a son as prince in a conquest
	ai_chance = { 
		factor = 50 
		modifier = {
			num_of_cities = 5
			factor = 1.1
			}
		modifier = {
			num_of_cities = 6
			factor = 1.1
			}
		modifier = {
			num_of_cities = 7
			factor = 1.1
			}
		modifier = {
			num_of_cities = 8
			factor = 1.1
			}
		modifier = {
			badboy = 0.25
			factor = 1.1
			}
		modifier = {
			badboy = 0.5
			factor = 1.1
			}
		modifier = {
			badboy = 0.75
			factor = 1.1
			}
		modifier = {
			badboy = 1.0
			factor = 1.1
			}
		}
	release_vassal = SIE
	SIE = { 
		relation = { who = THIS value = 400 }
		set_country_flag = papal_bastard
		}
	prestige = 0.01
	badboy = -3
	}
option = { 
	name = "EVTOPTB551625" #Grant him a small fief
	ai_chance = { 
		factor = 50 
		modifier = {
			NOT = { num_of_cities = 4 }
			factor = 1.4
			}
		modifier = {
			treasury = 100
			factor = 1.1
			}
		}
	treasury = -10
	prestige = -0.01
	}
}

country_event = { #The Pope's Bastards (Tuscany)

id = 551626

trigger = { 
	tag = PAP
	116 = { #Firenze
		owned_by = PAP
		NOT = { is_core = PAP }
		}
	NOT = { exists = TUS }
	OR = { 
		has_country_flag = secular_pope
		has_country_flag = corrupt_pope
		has_country_flag = reformer_pope
		}
	}

mean_time_to_happen = { 

	months = 240

	modifier = { 
		has_country_flag = corrupt_pope
		factor = 0.5
		}
	modifier = {
		has_country_flag = nepotism_abolished
		factor = 2
		}
	modifier = {
		has_country_flag = reformer_pope
		factor = 2
		}
	modifier = {
		num_of_cities = 6
		factor = 0.7
		}
	}

title = "EVTNAME551625" #Same #The Pope's Bastards
desc = "EVTDESC551625" #Same

option = { 
	name = "EVTOPTA551625" #Same #Install a son as prince in a conquest
	ai_chance = { 
		factor = 50 
		modifier = {
			num_of_cities = 5
			factor = 1.1
			}
		modifier = {
			num_of_cities = 6
			factor = 1.1
			}
		modifier = {
			num_of_cities = 7
			factor = 1.1
			}
		modifier = {
			num_of_cities = 8
			factor = 1.1
			}
		modifier = {
			badboy = 0.25
			factor = 1.1
			}
		modifier = {
			badboy = 0.5
			factor = 1.1
			}
		modifier = {
			badboy = 0.75
			factor = 1.1
			}
		modifier = {
			badboy = 1.0
			factor = 1.1
			}
		}
	release_vassal = TUS
	TUS = { 
		relation = { who = THIS value = 400 }
		set_country_flag = papal_bastard
		}
	prestige = 0.01
	badboy = -3
	}
option = { 
	name = "EVTOPTB551625" #Same #Grant him a small fief
	ai_chance = { 
		factor = 50 
		modifier = {
			NOT = { num_of_cities = 4 }
			factor = 1.4
			}
		modifier = {
			treasury = 100
			factor = 1.1
			}
		}
	treasury = -10
	prestige = -0.01
	}
}

country_event = { #The Pope's Bastards (Modena)

id = 551627

trigger = { 
	tag = PAP
	106 = { #Modena
		owned_by = PAP
		NOT = { is_core = PAP }
		}
	NOT = { exists = MOD }
	OR = { 
		has_country_flag = secular_pope
		has_country_flag = corrupt_pope
		has_country_flag = reformer_pope
		}
	}

mean_time_to_happen = { 

	months = 240

	modifier = { 
		has_country_flag = corrupt_pope
		factor = 0.5
		}
	modifier = {
		has_country_flag = nepotism_abolished
		factor = 2
		}
	modifier = {
		has_country_flag = reformer_pope
		factor = 2
		}
	modifier = {
		num_of_cities = 6
		factor = 0.7
		}
	}

title = "EVTNAME551625" #Same #The Pope's Bastards
desc = "EVTDESC551625" #Same

option = { 
	name = "EVTOPTA551625" #Same #Install a son as prince in a conquest
	ai_chance = { 
		factor = 50 
		modifier = {
			num_of_cities = 5
			factor = 1.1
			}
		modifier = {
			num_of_cities = 6
			factor = 1.1
			}
		modifier = {
			num_of_cities = 7
			factor = 1.1
			}
		modifier = {
			num_of_cities = 8
			factor = 1.1
			}
		modifier = {
			badboy = 0.25
			factor = 1.1
			}
		modifier = {
			badboy = 0.5
			factor = 1.1
			}
		modifier = {
			badboy = 0.75
			factor = 1.1
			}
		modifier = {
			badboy = 1.0
			factor = 1.1
			}
		}
	release_vassal = MOD
	MOD = { 
		relation = { who = THIS value = 400 }
		set_country_flag = papal_bastard
		}
	prestige = 0.01
	badboy = -3
	}
option = { 
	name = "EVTOPTB551625" #Same #Grant him a small fief
	ai_chance = { 
		factor = 50 
		modifier = {
			NOT = { num_of_cities = 4 }
			factor = 1.4
			}
		modifier = {
			treasury = 100
			factor = 1.1
			}
		}
	treasury = -10
	prestige = -0.01
	}
}

country_event = { #The Pope's Bastards (Mantua)

id = 551628

trigger = { 
	tag = PAP
	109 = { #Mantua
		owned_by = PAP
		NOT = { is_core = PAP }
		}
	NOT = { exists = MAN }
	OR = { 
		has_country_flag = secular_pope
		has_country_flag = corrupt_pope
		has_country_flag = reformer_pope
		}
	}

mean_time_to_happen = { 

	months = 240

	modifier = { 
		has_country_flag = corrupt_pope
		factor = 0.5
		}
	modifier = {
		has_country_flag = reformer_pope
		factor = 2
		}
	modifier = {
		has_country_flag = nepotism_abolished
		factor = 2
		}
	modifier = {
		num_of_cities = 6
		factor = 0.7
		}
	}

title = "EVTNAME551625" #Same #The Pope's Bastards
desc = "EVTDESC551625" #Same

option = { 
	name = "EVTOPTA551625" #Same #Install a son as prince in a conquest
	ai_chance = { 
		factor = 50 
		modifier = {
			num_of_cities = 5
			factor = 1.1
			}
		modifier = {
			num_of_cities = 6
			factor = 1.1
			}
		modifier = {
			num_of_cities = 7
			factor = 1.1
			}
		modifier = {
			num_of_cities = 8
			factor = 1.1
			}
		modifier = {
			badboy = 0.25
			factor = 1.1
			}
		modifier = {
			badboy = 0.5
			factor = 1.1
			}
		modifier = {
			badboy = 0.75
			factor = 1.1
			}
		modifier = {
			badboy = 1.0
			factor = 1.1
			}
		}
	release_vassal = MAN
	MAN = { 
		relation = { who = THIS value = 400 }
		set_country_flag = papal_bastard
		}
	badboy = -3
	}
option = { 
	name = "EVTOPTB551625" #Same #Grant him a small fief
	ai_chance = { 
		factor = 50 
		modifier = {
			NOT = { num_of_cities = 4 }
			factor = 1.4
			}
		modifier = {
			treasury = 100
			factor = 1.1
			}
		}
	treasury = -10
	prestige = -0.01
	}
}

country_event = { #Concordat with Rome

id = 551629

is_triggered_only = yes #By event (Independence of the Vatican)

mean_time_to_happen = { 

	months = 12

	modifier = { 
		NOT = { PAP = { check_variable = { which = "papal_authority" value = 300 } } }
		factor = 0.5
		}
	modifier = { 
		118 = { owner = { religion = catholic } }
		factor = 0.5
		}
	modifier = { 
		118 = { owner = { religion = catholic idea = divine_supremacy } }
		factor = 0.5
		}
	}

title = "EVTNAME551629"
desc = "EVTDESC551629"

option = { 
	name = "EVTOPTA551629" #Sign away the Vatican to the pope
	ai_chance = { factor = 75 }
	prestige = -0.05
	118 = { base_tax = -1 }
	set_country_flag = concordat
	clr_country_flag = dispensation_denied
	set_country_flag = dispensation_granted
	random_country = {
		limit = { NOT = { exists = PAP } }
		PAP = { 
			set_country_flag = concordat 
			remove_core = 118
			}
		}
	random_country = {
		limit = { exists = PAP }
		PAP = { set_country_flag = concordat }
		}
	any_country = {
		limit = { religion = catholic idea = divine_supremacy }
		relation = { who = THIS value = -50 }
		}
	}
option = { 
	name = "EVTOPTB551629" #No compromise with the papists
	ai_chance = { 
		factor = 25 
		modifier = {
			PAP = { check_variable = { which = "papal_authority" value = 300 } }
			factor = 2
			}
		modifier = {
			PAP = { check_variable = { which = "papal_authority" value = 350 } }
			factor = 2
			}
		}
	set_country_flag = hated_enemy_of_pope
	any_country = {
		limit = { has_country_flag = curia_controller }
		relation = { who = THIS value = -50 }
		casus_belli = THIS
		}
	}
}

country_event = { #Concordat with Rome (reaction)

id = 551630

trigger = { 
	PAP = { has_country_flag = concordat }
	is_core = 118
	NOT = { owns = 118 }
	religion = catholic
	118 = { owner = { has_country_flag = concordat } }
	}

mean_time_to_happen = { 

	months = 240

	modifier = { 
		idea = divine_supremacy
		factor = 1.5
		}
	modifier = { 
		idea = deus_vult
		factor = 2
		}
	modifier = { 
		idea = humanist_tolerance
		factor = 0.5
		}
	modifier = { 
		has_country_flag = hated_enemy_of_pope
		factor = 0.75
		}
	modifier = { 
		has_country_flag = enemy_of_pope
		factor = 0.75
		}
	}

title = "EVTNAME551629" #Same
desc = "EVTDESC551630"

option = { 
	name = "EVTOPTA551630"
	ai_chance = { factor = 75 }
	118 = { owner = { relation = { who = THIS value = 50 } } }
	prestige = -0.01
	random_owned = { 
		limit = { owner = { has_country_flag = Roman_crusade } }
		owner = { 
			clr_country_flag = Roman_crusade
			remove_core = 118
			add_ai_strategy = { 
				conquer_prov = {
					id = 118
					value = -50
					}
				}
			}
		}
	}
option = { 
	name = "EVTOPTB551630"
	ai_chance = { factor = 25 }
	118 = { owner = { relation = { who = THIS value = -50 } } }
	}
}

country_event = {

id = 551631

trigger = {
	tag = PAP
	OR = {
		NOT = { government = papal_government }
		NOT = { religion = catholic }
		}
	NOT = { has_country_flag = secular_government }
	}

mean_time_to_happen = { months = 1 }

title = "EVTNAME551631"
desc = "EVTDESC551631"

option = {
	name = "EVTOPTA551631"
	ai_chance = { factor = 95 }
	government = papal_government
	religion = catholic
	any_country = {
		limit = { capital_scope = { is_core = THIS } }
		prestige = +0.01
		}
	any_country = {
		limit = { has_country_flag = Roman_crusade }
		clr_country_flag = Roman_crusade
		relation = { who = THIS value = 25 }
		remove_core = 118
		add_ai_strategy = { 
			conquer_prov = {
				id = 118
				value = -50
				}
			}
		}
	}
option = {
	name = "EVTOPTB551631"
	ai_chance = { factor = 5 }
	set_country_flag = secular_government
	random_owned = { 
		limit = { 
			NOT = { has_global_flag = meiou_map }
			owner = { government = papal_government } 
			}
		owner = { government = absolute_monarchy }
		}
	random_owned = { 
		limit = { 
			has_global_flag = meiou_map
			owner = { government = papal_government } 
			}
		owner = { government = absolute_monarchy_2 }
		}
	any_country = {
		limit = { tag = ITA NOT = { num_of_cities = 1 } }
		any_country = { 
			limit = { capital_scope = { owned_by = THIS } num_of_cities = 1 } 
			change_tag = ITA
			}
		}
	any_country = {
		limit = { has_country_flag = Roman_crusade }
		clr_country_flag = Roman_crusade
		relation = { who = THIS value = 25 }
		remove_core = 118
		add_ai_strategy = { 
			conquer_prov = {
				id = 118
				value = -50
				}
			}
		}
	}

}

country_event = { #End of the Captivity

id = 551632

trigger = {
	religion = catholic
	has_country_flag = Roman_crusade
	PAP = { owns = 118 }
	}

mean_time_to_happen = { months = 1 }

title = "EVTNAME551632"
desc = "EVTDESC551632"

option = {
	name = "EVTOPTA551632"
	PAP = { capital = 118 }
	clr_country_flag = Roman_crusade
	remove_core = 118
	add_ai_strategy = { 
		conquer_prov = {
			id = 118
			value = -50
			}
		}
	any_country = {
		limit = { has_country_flag = Roman_crusade religion = catholic }
		relation = { who = PAP value = 5 }
		clr_country_flag = Roman_crusade
		remove_core = 118
		add_ai_strategy = { 
			conquer_prov = {
				id = 118
				value = -50
				}
			}
		}
	any_country = {
		limit = { has_country_flag = Roman_crusade NOT = { religion = catholic } }
		clr_country_flag = Roman_crusade
		remove_core = 118
		add_ai_strategy = { 
			conquer_prov = {
				id = 118
				value = -50
				}
			}
		}
	}

}

province_event = { #The sack of $PROVINCENAME$

id = 551633

trigger = { 
	owner = { tag = PAP }
	PAP = { check_variable = { which = "papal_authority" value = 400 } }
	NOT = { PAP = { badboy = 0.75 } }
	controller = { 
		religion = catholic
		NOT = { tag = PAP }
		NOT = { is_papal_controller = yes }
		NOT = { has_country_flag = excommunicated }
		NOT = { has_country_flag = excommunication_decree }
		NOT = { has_country_flag = just_war }
		}
	PAP = { 
		OR = {
			has_country_flag = secular_pope
			has_country_flag = reformer_pope
			has_country_flag = corrupt_pope
			}
		}
	}

mean_time_to_happen = { months = 6 }

title = "EVTNAME551633"
desc = "EVTDESC551633"

option = { 
	name = "EVTOPTA551527" #Same - Excommunicate them
	ai_chance = { factor = 99 }
	owner = { 
		prestige = -0.01
		badboy = +0.25
		}
	controller = { 
		relation = { who = THIS value = -50 }
		set_country_flag = excommunication_decree
		set_country_flag = excommunication_invading_Rome
		}
	}
option = { 
	name = "EVTOPTB551633" #Forgive them for this sin
	ai_chance = { factor = 1 }
	owner = { badboy = -0.25 }
	controller = { 
		set_country_flag = just_war 
		relation = { who = THIS value = 50 }
		}
	}
}

country_event = { #The Captivity

id = 551634

is_triggered_only = yes

title = "EVTNAME551634"
desc = "EVTDESC551634"

option = {
	name = "EVTOPTA551634"
	any_country = { 
		any_owned = { 
			limit = { has_province_flag = curia_location } 
			add_core = THIS 
			add_building = temple
			owner = { country_event = 551635 }
			}
		}
	}

}

country_event = { #The Donation of $MONARCH$

id = 551635

is_triggered_only = yes

title = "EVTNAME551635"
desc = "EVTDESC551635"

option = {
	name = "EVTOPTA551635"
	release_vassal = PAP
	set_country_flag = papal_donor
	any_country = {
		limit = {
			capital_scope = { owner = { religion = catholic } }
			num_of_cities = 1
			NOT = { capital_scope = { owned_by = THIS } }
			OR = {
				defender_of_faith = yes #Yes, twice
				government = theocracy 
				}
			}
		relation = { who = THIS value = 50 }
		}
	PAP = {
		any_owned = {
			limit = { NOT = { has_province_flag = curia_location } }
			secede_province = THIS
			set_province_flag = returned_province
			}
		any_owned = {
			limit = { has_province_flag = curia_location }
			clr_province_flag = curia_location
			}
		}
	any_owned = {
		limit = { has_province_flag = returned_province }
		owner = { badboy = 1 }
		}
	}
}

country_event = { #Conceding Defeat

id = 551636

is_triggered_only = yes

title = "EVTNAME551636"
desc = "EVTDESC551636"

option = {
	name = "EVTOPTA551636"
	any_country = {
		any_owned = { 
			limit = { is_core = AVI }
			remove_core = THIS
			owner = { prestige = 0.01 }
			}
		}
	}

}

province_event = { #The Papal States

id = 551637

trigger = {
	is_core = PAP
	PAP = { primary_culture = THIS }
	NOT = { is_core = THIS }
	continent = europe
	118 = { owner = { tag = PAP } }
	owner = { 
		num_of_cities = 2 
		religion = catholic
		NOT = { has_country_flag = italian_ambitions }
		NOT = { government = papal_government }
		}
	}

mean_time_to_happen = {

	months = 60

	modifier = {
		owner = { has_country_flag = excommunicated }
		factor = 5
		}

	}

title = "EVTNAME551637"
desc = "EVTDESC551637"

option = {
	name = "EVTOPTA551637" #Give the lands back to the pope
	ai_chance = { factor = 90 }
	secede_province = PAP
	owner = {
		prestige = 0.01
		treasury = 10
		badboy = -1
		any_country = {
			limit = { 
				NOT = { capital_scope = { owned_by = THIS } }
				OR = {
					tag = PAP
					has_country_flag = curia_controller
					}
				}
			relation = { who = THIS value = 100 }
			}
		}
	}
option = {
	name = "EVTOPTB551637" #Dismantle the papal states
	ai_chance = { factor = 10 } 
	owner = {
		prestige = -0.01
		stability = -1
		badboy = 1
		set_country_flag = italian_ambitions
		any_country = {
			limit = { 
				NOT = { capital_scope = { owned_by = THIS } }
				religion = catholic
				OR = {
					tag = PAP
					has_country_flag = curia_controller
					defender_of_faith = yes
					}
				}
			relation = { who = THIS value = -50 }
			add_casus_belli = THIS
			}
		}
	}

}

country_event = { #Talks break down

id = 551638

is_triggered_only = yes #By event (Independence of the Vatican)

title = "EVTNAME551638"
desc = "EVTDESC551638"

option = { 
	name = "EVTOPTA551638"
	any_country = { 
		limit = { 
			OR = { 
				AND = {
					religion = catholic
					has_country_flag = curia_controller
					}
				AND = {
					PAP = { has_country_flag = independent_pope }
					NOT = { exists = PAP }
					is_papal_controller = yes
					}
				}
			}
		relation = { who = THIS value = -25 }
		}
	}

}

country_event = { #The will of the $MONARCHTITLE$

id = 551639

trigger = { 
	religion = catholic
	regency = yes
	NOT = { num_of_cities = 2 }
	government = monarchy
	NOT = { war = yes }
	ai = yes
	any_neighbor_country = { 
		NOT = { has_country_flag = donation_of_duchy }
		government = papal_government 
		NOT = { num_of_cities = 4 }
		NOT = { badboy = 0.10 }
		NOT = { truce_with = THIS }
		relation = { who = THIS value = 0 }
		}
	}

mean_time_to_happen = { 

	months = 96

	modifier = { 
		idea = divine_supremacy
		factor = 0.7
		}
	modifier = { 
		idea = church_attendance_duty
		factor = 0.9
		}
	}

title = "EVTNAME551639"
desc = "EVTDESC551639"

option = { 
	name = "EVTOPTA551639" #Our future shall be tied to the Papacy from now on
	ai_chance = { 
		factor = 40 
		modifier = { 
			idea = divine_supremacy 
			factor = 1.4
			}
		modifier = { 
			idea = church_attendance_duty
			factor = 1.4
			}
		modifier = { 
			idea = deus_vult
			factor = 1.4
			}
		modifier = { 
			any_known_country = { 
				government = papal_government
				neighbour = THIS
				primary_culture = THIS
				}
			factor = 1.4
			}
		}
	capital_scope = { remove_core = THIS set_province_flag = princely_donation }
	random_country = { 
		limit = { 
			government = papal_government
			NOT = { has_country_flag = donation_of_duchy }
			NOT = { num_of_cities = 4 }
			NOT = { badboy = 0.10 }
			NOT = { truce_with = THIS }
			relation = { who = THIS value = 0 }
			neighbour = THIS
			}
		relation = { who = THIS value = 100 }
		inherit = THIS
		}
	capital_scope = { province_event = 551640 }
	}
option = { 
	name = "EVTOPTB551639" #Discard the will and appoint a new $MONARCHTITLE$
	ai_chance = { 
		factor = 60 
		modifier = { 
			any_known_country = { 
				government = papal_government
				neighbour = THIS
				NOT = { culture_group = THIS }
				}
			factor = 0.5
			}
		}
	random_owned = { 
		limit = { NOT = { has_global_flag = magna_mundi } }
		owner = { capital_scope = { noble_rebels = 1 } }
		}
	random_owned = { 
		limit = { has_global_flag = magna_mundi }
		owner = { 
			set_country_flag = lider_muerto
			clr_country_flag = rey
			clr_country_flag = nobleza_castigo_1
			clr_country_flag = nobleza_castigo_2
			clr_country_flag = nobleza_castigo_3
			clr_country_flag = nobleza_castigo_4
			clr_country_flag = nobleza_castigo_5
			clr_country_flag = rendicion
			clr_country_flag = ADM_3
			clr_country_flag = ADM_4
			clr_country_flag = ADM_5
			clr_country_flag = ADM_6
			clr_country_flag = ADM_7
			clr_country_flag = ADM_8
			clr_country_flag = ADM_9
			clr_country_flag = DIP_3
			clr_country_flag = DIP_4
			clr_country_flag = DIP_5
			clr_country_flag = DIP_6
			clr_country_flag = DIP_7
			clr_country_flag = DIP_8
			clr_country_flag = DIP_9
			clr_country_flag = MIL_3
			clr_country_flag = MIL_4
			clr_country_flag = MIL_5
			clr_country_flag = MIL_6
			clr_country_flag = MIL_7
			clr_country_flag = MIL_8
			clr_country_flag = MIL_9
			clr_country_flag = religious_decision_1
			clr_country_flag = religious_decision_2
			clr_country_flag = religious_decision_3
			clr_country_flag = hajj_undertaken
			clr_country_flag = hajj_promised
			clr_country_flag = royal_decision_1
			clr_country_flag = royal_decision_2
			clr_country_flag = royal_decision_3
			clr_country_flag = hre_decision_1
			clr_country_flag = hre_decision_2
			clr_country_flag = hre_decision_3
			clr_country_flag = ruler_personality_1
			clr_country_flag = ruler_personality_2
			clr_country_flag = heir_personality_1
			clr_country_flag = heir_personality_2
			set_country_flag = oposicion_nobleza
			set_country_flag = oposicion_nobleza_media		#activa un triggered_modifier
			add_country_modifier = { name = "oposicion_al_rey" duration = 60 }
			}
		}
	prestige = -0.05
	stability = -1
	kill_ruler = THIS
	random_country = { 
		limit = { 
			government = papal_government
			NOT = { has_country_flag = donation_of_duchy }
			NOT = { num_of_cities = 4 }
			NOT = { badboy = 0.10 }
			NOT = { truce_with = THIS }
			relation = { who = THIS value = 0 }
			neighbour = THIS
			}
		relation = { who = THIS value = -50 }
		}
	}

}

province_event = { #A Princely Donation

id = 551640

is_triggered_only = yes

title = "EVTNAME551640"
desc = "EVTDESC551640"

option = { 
	name = "EVTOPTA551640"
	add_core = THIS
	owner = { 
		prestige = 0.02 
		set_country_flag = donation_of_duchy
		}
	}

}

country_event = { #Crusade for Rome

id = 551642

is_triggered_only = yes

title = "EVTNAME551642"
desc = "EVTDESC551642"

option = { 
	name = "EVTOPTA551642"
	ai_chance = { factor = 99 }
	random_country = { 
		limit = { has_country_flag = crusade_for_rome }
		clr_country_flag = crusade_for_rome
		relation = { who = THIS value = -25 }
		}
	}
option = { 
	name = "EVTOPTB551642"
	ai_chance = { 
		factor = 1 
		modifier = { 
			NOT = { religion = catholic }
			factor = 0
			}
		}
	118 = { secede_province = PAP }
	prestige = 0.025
	treasury = 10
	badboy = -2
	clr_country_flag = dispensation_denied
	set_country_flag = dispensation_granted
	any_country = { 
		limit = { has_country_flag = Roman_crusade }
		clr_country_flag = crusade_for_rome
		clr_country_flag = Roman_crusade
		relation = { who = THIS value = 25 }
		remove_core = 118
		add_ai_strategy = { 
			conquer_prov = {
				id = 118
				value = -50
				}
			}
		}
	}

}
