country_event = {

	id = 700
	
	is_triggered_only = yes
	
	title = "EVTNAME700"
	desc = "EVTDESC700"

	option = {
		name = "EVTOPTA700"	# Current ruler stays
		ai_chance = { factor = 70 }
# parliamentary election
# is automatic from "housekeeping" upon new ruler in constitutional or revolutionary republic,
# but must be triggered from here in case of a second (or even third) term of the incumbent
		random_owned = {
			limit = {
				is_capital = yes
				controlled_by = owner
				owner = {
					has_country_flag = parliament_initialized
					OR = {
						government = constitutional_republic
						government = revolutionary_republic
					}
				}
			}
			remove_province_modifier = parliament
			province_event = 112968
		}
# Hansa
		clr_country_flag = hansa_war_declined
		random_owned = {
			limit = {
				has_province_modifier = hansa_leader
				has_global_flag = hansa_election_blocked
				NOT = { has_global_flag = hansa_war }
				owner = {
					NOT = {
						any_known_country = {
							has_country_flag = hansa_challenger
							exists = yes
						}
					}
				}
			}
			clr_global_flag = hansa_election_blocked
			owner = {
				clr_country_flag = hansa_election
				clr_country_flag = hansa_challenger
			}
			any_country = {
				limit = { has_country_flag = hansa_election }
				clr_country_flag = hansa_election
			}
			any_country = {
				limit = { has_country_flag = hansa_challenger }
				clr_country_flag = hansa_challenger
			}
		}
		random_owned = {
			limit = {
				has_province_modifier = hansa_leader
				OR = {
					has_global_flag = hansa_election_called
					has_global_flag = hansa_election_removed_leader
				}
			}
			clr_global_flag = hansa_election_called
			clr_global_flag = hansa_election_removed_leader
		}
# HRE
		clr_country_flag = imperial_crusade_refused
		random_owned = {
			limit = { owner = { has_country_flag = reichsregiment_refused } }
			owner = { clr_country_flag = reichsregiment_refused }
			EMP = { clr_country_flag = reichsregiment_refused prestige = 0.01 }
		}
# MMP2
		random_owned = { 
			limit = { owner = { stability = -3 NOT = { stability = -2 } } }
			owner = { 
				random_list = { 
					4 = { country_event = 3091 } #Civil War
					6 = { capital_scope = { noble_rebels = 1 } }
					8 = { prestige = -0.05 }
					10 = { badboy = +1 }
					12 = { add_country_modifier = { name =  "stolen_election" duration = 1460 } }
					14 = { add_country_modifier = { name =  "government_corruption" duration = 1460 } }
					26 = { }
					8 = { prestige = 0.02 }
					6 = { add_country_modifier = { name =  "cabinet_dynamism" duration = 730 } }
					4 = { badboy = -1 }
					2 = { stability = +1 } #or prestige 0.05
					}
				}
			}
		random_owned = { 
			limit = { owner = { stability = -2 NOT = { stability = -1 } } }
			owner = { 
				random_list = { 
					3 = { country_event = 3091 } #Civil War
					5 = { capital_scope = { noble_rebels = 1 } }
					7 = { stability = -1 }
					9 = { badboy = +1 }
					11 = { add_country_modifier = { name =  "stolen_election" duration = 1460 } }
					13 = { add_country_modifier = { name =  "government_corruption" duration = 1460 } }
					27 = { }
					9 = { prestige = 0.02 }
					7 = { add_country_modifier = { name =  "cabinet_dynamism" duration = 730 } }
					5 = { badboy = -1 }
					3 = { stability = +1 } #or prestige 0.05
					1 = { stability = +1 add_country_modifier = { name =  "election_honeymoon" duration = 730 } }
					}
				}
			}
		random_owned = { 
			limit = { owner = { stability = -1 NOT = { stability = 0 } } }
			owner = { 
				random_list = { 
					2 = { country_event = 3091 } #Civil War
					4 = { capital_scope = { noble_rebels = 1 } }
					6 = { stability = -1 } #or prestige = -0.05
					8 = { badboy = +1 }
					10 = { add_country_modifier = { name =  "stolen_election" duration = 1460 } }
					12 = { add_country_modifier = { name =  "government_corruption" duration = 1460 } }
					28 = { }
					10 = { prestige = 0.02 }
					8 = { add_country_modifier = { name =  "cabinet_dynamism" duration = 730 } }
					6 = { badboy = -1 }
					4 = { stability = +1 } #or prestige 0.05
					2 = { stability = +1 add_country_modifier = { name =  "election_honeymoon" duration = 730 } }
					}
				}
			}
		random_owned = { 
			limit = { owner = { stability = 0 NOT = { stability = 1 } } }
			owner = { 
				random_list = { #36% positive, 36% negative
					1 = { country_event = 3091 } #Civil War
					3 = { capital_scope = { noble_rebels = 1 } }
					5 = { stability = -1 } #or prestige = -0.05
					7 = { badboy = +1 }
					9 = { add_country_modifier = { name =  "stolen_election" duration = 1460 } }
					11 = { add_country_modifier = { name =  "government_corruption" duration = 1460 } }
					28 = { }
					11 = { prestige = 0.02 }
					9 = { add_country_modifier = { name =  "cabinet_dynamism" duration = 730 } }
					7 = { badboy = -1 }
					5 = { stability = +1 } #or prestige 0.05
					3 = { stability = +1 add_country_modifier = { name =  "election_honeymoon" duration = 730 } }
					1 = { country_event = 5008 } #Gift to the State
					}
				}
			}
		random_owned = { 
			limit = { owner = { stability = 1 NOT = { stability = 2 } } }
			owner = { 
				random_list = { #42% positive, 30% negative
					2 = { capital_scope = { noble_rebels = 1 } }
					4 = { stability = -1 } #or prestige = -0.05
					6 = { badboy = +1 }
					8 = { add_country_modifier = { name =  "stolen_election" duration = 1460 } }
					10 = { add_country_modifier = { name =  "government_corruption" duration = 1460 } }
					28 = { }
					12 = { prestige = 0.02 }
					10 = { add_country_modifier = { name =  "cabinet_dynamism" duration = 730 } }
					8 = { badboy = -1 }
					6 = { stability = +1 } #or prestige 0.05
					4 = { stability = +1 add_country_modifier = { name =  "election_honeymoon" duration = 730 } }
					2 = { country_event = 5008 } #Gift to the State
					}
				}
			}
		random_owned = { 
			limit = { owner = { stability = 2 NOT = { stability = 3 } } }
			owner = { 
				random_list = { #25% negative, 48% good
					1 = { capital_scope = { noble_rebels = 1 } }
					3 = { stability = -1 } #or prestige = -0.05
					5 = { badboy = +1 }
					7 = { add_country_modifier = { name =  "stolen_election" duration = 1460 } }
					9 = { add_country_modifier = { name =  "government_corruption" duration = 1460 } }
					27 = { }
					13 = { prestige = 0.02 }
					11 = { add_country_modifier = { name =  "cabinet_dynamism" duration = 730 } }
					9 = { badboy = -1 }
					7 = { stability = +1 } #or prestige 0.05
					5 = { stability = +1 add_country_modifier = { name =  "election_honeymoon" duration = 730 } }
					3 = { country_event = 5008 } #Gift to the State
					}
				}
			}
		random_owned = { 
			limit = { owner = { stability = 3 } }
			owner = { 
				random_list = { #20% negative, 54% positive
					2 = { stability = -1 } #or prestige = -0.05
					4 = { badboy = +1 }
					6 = { add_country_modifier = { name =  "stolen_election" duration = 1460 } }
					8 = { add_country_modifier = { name =  "government_corruption" duration = 1460 } }
					26 = { }
					14 = { prestige = 0.02 }
					12 = { add_country_modifier = { name =  "cabinet_dynamism" duration = 730 } }
					10 = { badboy = -1 }
					8 = { prestige = 0.05 } 
					6 = { prestige = 0.05 add_country_modifier = { name =  "election_honeymoon" duration = 730 } }
					4 = { country_event = 5008 } #Gift to the State
					}
				}
			}
		}
	option = {
		name = "EVTOPTB700"	# An administrator type
		ai_chance = { factor = 10 }
		define_ruler = {
			ADM = 5							# 5 + random 0 to 9
			}
		random_owned = { 
			limit = { owner = { stability = -3 NOT = { stability = -2 } } }
			owner = { 
				random_list = { 
					4 = { country_event = 3091 } #Civil War
					6 = { capital_scope = { noble_rebels = 1 } }
					8 = { prestige = -0.05 }
					10 = { badboy = +1 }
					12 = { add_country_modifier = { name =  "stolen_election" duration = 1460 } }
					14 = { add_country_modifier = { name =  "government_corruption" duration = 1460 } }
					26 = { }
					8 = { add_country_modifier = { name =  "cleaning_house" duration = 1460 } }
					6 = { add_country_modifier = { name =  "cabinet_dynamism" duration = 730 } }
					4 = { badboy = -1 }
					2 = { stability = +1 } #or prestige 0.05
					}
				}
			}
		random_owned = { 
			limit = { owner = { stability = -2 NOT = { stability = -1 } } }
			owner = { 
				random_list = { 
					3 = { country_event = 3091 } #Civil War
					5 = { capital_scope = { noble_rebels = 1 } }
					7 = { stability = -1 }
					9 = { badboy = +1 }
					11 = { add_country_modifier = { name =  "stolen_election" duration = 1460 } }
					13 = { add_country_modifier = { name =  "government_corruption" duration = 1460 } }
					27 = { }
					9 = { add_country_modifier = { name =  "cleaning_house" duration = 1460 } }
					7 = { add_country_modifier = { name =  "cabinet_dynamism" duration = 730 } }
					5 = { badboy = -1 }
					3 = { stability = +1 } #or prestige 0.05
					1 = { stability = +1 add_country_modifier = { name =  "election_honeymoon" duration = 730 } }
					}
				}
			}
		random_owned = { 
			limit = { owner = { stability = -1 NOT = { stability = 0 } } }
			owner = { 
				random_list = { 
					2 = { country_event = 3091 } #Civil War
					4 = { capital_scope = { noble_rebels = 1 } }
					6 = { stability = -1 } #or prestige = -0.05
					8 = { badboy = +1 }
					10 = { add_country_modifier = { name =  "stolen_election" duration = 1460 } }
					12 = { add_country_modifier = { name =  "government_corruption" duration = 1460 } }
					28 = { }
					10 = { add_country_modifier = { name =  "cleaning_house" duration = 1460 } }
					8 = { add_country_modifier = { name =  "cabinet_dynamism" duration = 730 } }
					6 = { badboy = -1 }
					4 = { stability = +1 } #or prestige 0.05
					2 = { stability = +1 add_country_modifier = { name =  "election_honeymoon" duration = 730 } }
					}
				}
			}
		random_owned = { 
			limit = { owner = { stability = 0 NOT = { stability = 1 } } }
			owner = { 
				random_list = { #36% positive, 36% negative
					1 = { country_event = 3091 } #Civil War
					3 = { capital_scope = { noble_rebels = 1 } }
					5 = { stability = -1 } #or prestige = -0.05
					7 = { badboy = +1 }
					9 = { add_country_modifier = { name =  "stolen_election" duration = 1460 } }
					11 = { add_country_modifier = { name =  "government_corruption" duration = 1460 } }
					28 = { }
					11 = { add_country_modifier = { name =  "cleaning_house" duration = 1460 } }
					9 = { add_country_modifier = { name =  "cabinet_dynamism" duration = 730 } }
					7 = { badboy = -1 }
					5 = { stability = +1 } #or prestige 0.05
					3 = { stability = +1 add_country_modifier = { name =  "election_honeymoon" duration = 730 } }
					1 = { country_event = 5008 } #Gift to the State
					}
				}
			}
		random_owned = { 
			limit = { owner = { stability = 1 NOT = { stability = 2 } } }
			owner = { 
				random_list = { #42% positive, 30% negative
					2 = { capital_scope = { noble_rebels = 1 } }
					4 = { stability = -1 } #or prestige = -0.05
					6 = { badboy = +1 }
					8 = { add_country_modifier = { name =  "stolen_election" duration = 1460 } }
					10 = { add_country_modifier = { name =  "government_corruption" duration = 1460 } }
					28 = { }
					12 = { add_country_modifier = { name =  "cleaning_house" duration = 1460 } }
					10 = { add_country_modifier = { name =  "cabinet_dynamism" duration = 730 } }
					8 = { badboy = -1 }
					6 = { stability = +1 } #or prestige 0.05
					4 = { stability = +1 add_country_modifier = { name =  "election_honeymoon" duration = 730 } }
					2 = { country_event = 5008 } #Gift to the State
					}
				}
			}
		random_owned = { 
			limit = { owner = { stability = 2 NOT = { stability = 3 } } }
			owner = { 
				random_list = { #25% negative, 48% good
					1 = { capital_scope = { noble_rebels = 1 } }
					3 = { stability = -1 } #or prestige = -0.05
					5 = { badboy = +1 }
					7 = { add_country_modifier = { name =  "stolen_election" duration = 1460 } }
					9 = { add_country_modifier = { name =  "government_corruption" duration = 1460 } }
					27 = { }
					13 = { add_country_modifier = { name =  "cleaning_house" duration = 1460 } }
					11 = { add_country_modifier = { name =  "cabinet_dynamism" duration = 730 } }
					9 = { badboy = -1 }
					7 = { stability = +1 } #or prestige 0.05
					5 = { stability = +1 add_country_modifier = { name =  "election_honeymoon" duration = 730 } }
					3 = { country_event = 5008 } #Gift to the State
					}
				}
			}
		random_owned = { 
			limit = { owner = { stability = 3 } }
			owner = { 
				random_list = { #20% negative, 54% positive
					2 = { stability = -1 } #or prestige = -0.05
					4 = { badboy = +1 }
					6 = { add_country_modifier = { name =  "stolen_election" duration = 1460 } }
					8 = { add_country_modifier = { name =  "government_corruption" duration = 1460 } }
					26 = { }
					14 = { add_country_modifier = { name =  "cleaning_house" duration = 1460 } }
					12 = { add_country_modifier = { name =  "cabinet_dynamism" duration = 730 } }
					10 = { badboy = -1 }
					8 = { prestige = 0.05 } 
					6 = { prestige = 0.05 add_country_modifier = { name =  "election_honeymoon" duration = 730 } }
					4 = { country_event = 5008 } #Gift to the State
					}
				}
			}
		}
	option = {
		name = "EVTOPTC700"	# A diplomat
		ai_chance = { factor = 10 }
		define_ruler = {
			DIP = 5							# 5 + random 0 to 9
		}
		random_owned = { 
			limit = { owner = { stability = -3 NOT = { stability = -2 } } }
			owner = { 
				random_list = { 
					4 = { country_event = 3091 } #Civil War
					6 = { capital_scope = { noble_rebels = 1 } }
					8 = { prestige = -0.05 }
					10 = { badboy = +1 }
					12 = { add_country_modifier = { name =  "stolen_election" duration = 1460 } }
					14 = { add_country_modifier = { name =  "government_corruption" duration = 1460 } }
					26 = { }
					8 = { add_country_modifier = { name =  "cleaning_house" duration = 1460 } }
					6 = { add_country_modifier = { name =  "cabinet_dynamism" duration = 730 } }
					4 = { badboy = -1 }
					2 = { stability = +1 } #or prestige 0.05
					}
				}
			}
		random_owned = { 
			limit = { owner = { stability = -2 NOT = { stability = -1 } } }
			owner = { 
				random_list = { 
					3 = { country_event = 3091 } #Civil War
					5 = { capital_scope = { noble_rebels = 1 } }
					7 = { stability = -1 }
					9 = { badboy = +1 }
					11 = { add_country_modifier = { name =  "stolen_election" duration = 1460 } }
					13 = { add_country_modifier = { name =  "government_corruption" duration = 1460 } }
					27 = { }
					9 = { add_country_modifier = { name =  "cleaning_house" duration = 1460 } }
					7 = { add_country_modifier = { name =  "cabinet_dynamism" duration = 730 } }
					5 = { badboy = -1 }
					3 = { stability = +1 } #or prestige 0.05
					1 = { stability = +1 add_country_modifier = { name =  "election_honeymoon" duration = 730 } }
					}
				}
			}
		random_owned = { 
			limit = { owner = { stability = -1 NOT = { stability = 0 } } }
			owner = { 
				random_list = { 
					2 = { country_event = 3091 } #Civil War
					4 = { capital_scope = { noble_rebels = 1 } }
					6 = { stability = -1 } #or prestige = -0.05
					8 = { badboy = +1 }
					10 = { add_country_modifier = { name =  "stolen_election" duration = 1460 } }
					12 = { add_country_modifier = { name =  "government_corruption" duration = 1460 } }
					28 = { }
					10 = { add_country_modifier = { name =  "cleaning_house" duration = 1460 } }
					8 = { add_country_modifier = { name =  "cabinet_dynamism" duration = 730 } }
					6 = { badboy = -1 }
					4 = { stability = +1 } #or prestige 0.05
					2 = { stability = +1 add_country_modifier = { name =  "election_honeymoon" duration = 730 } }
					}
				}
			}
		random_owned = { 
			limit = { owner = { stability = 0 NOT = { stability = 1 } } }
			owner = { 
				random_list = { #36% positive, 36% negative
					1 = { country_event = 3091 } #Civil War
					3 = { capital_scope = { noble_rebels = 1 } }
					5 = { stability = -1 } #or prestige = -0.05
					7 = { badboy = +1 }
					9 = { add_country_modifier = { name =  "stolen_election" duration = 1460 } }
					11 = { add_country_modifier = { name =  "government_corruption" duration = 1460 } }
					28 = { }
					11 = { add_country_modifier = { name =  "cleaning_house" duration = 1460 } }
					9 = { add_country_modifier = { name =  "cabinet_dynamism" duration = 730 } }
					7 = { badboy = -1 }
					5 = { stability = +1 } #or prestige 0.05
					3 = { stability = +1 add_country_modifier = { name =  "election_honeymoon" duration = 730 } }
					1 = { country_event = 5008 } #Gift to the State
					}
				}
			}
		random_owned = { 
			limit = { owner = { stability = 1 NOT = { stability = 2 } } }
			owner = { 
				random_list = { #42% positive, 30% negative
					2 = { capital_scope = { noble_rebels = 1 } }
					4 = { stability = -1 } #or prestige = -0.05
					6 = { badboy = +1 }
					8 = { add_country_modifier = { name =  "stolen_election" duration = 1460 } }
					10 = { add_country_modifier = { name =  "government_corruption" duration = 1460 } }
					28 = { }
					12 = { add_country_modifier = { name =  "cleaning_house" duration = 1460 } }
					10 = { add_country_modifier = { name =  "cabinet_dynamism" duration = 730 } }
					8 = { badboy = -1 }
					6 = { stability = +1 } #or prestige 0.05
					4 = { stability = +1 add_country_modifier = { name =  "election_honeymoon" duration = 730 } }
					2 = { country_event = 5008 } #Gift to the State
					}
				}
			}
		random_owned = { 
			limit = { owner = { stability = 2 NOT = { stability = 3 } } }
			owner = { 
				random_list = { #25% negative, 48% good
					1 = { capital_scope = { noble_rebels = 1 } }
					3 = { stability = -1 } #or prestige = -0.05
					5 = { badboy = +1 }
					7 = { add_country_modifier = { name =  "stolen_election" duration = 1460 } }
					9 = { add_country_modifier = { name =  "government_corruption" duration = 1460 } }
					27 = { }
					13 = { add_country_modifier = { name =  "cleaning_house" duration = 1460 } }
					11 = { add_country_modifier = { name =  "cabinet_dynamism" duration = 730 } }
					9 = { badboy = -1 }
					7 = { stability = +1 } #or prestige 0.05
					5 = { stability = +1 add_country_modifier = { name =  "election_honeymoon" duration = 730 } }
					3 = { country_event = 5008 } #Gift to the State
					}
				}
			}
		random_owned = { 
			limit = { owner = { stability = 3 } }
			owner = { 
				random_list = { #20% negative, 54% positive
					2 = { stability = -1 } #or prestige = -0.05
					4 = { badboy = +1 }
					6 = { add_country_modifier = { name =  "stolen_election" duration = 1460 } }
					8 = { add_country_modifier = { name =  "government_corruption" duration = 1460 } }
					26 = { }
					14 = { add_country_modifier = { name =  "cleaning_house" duration = 1460 } }
					12 = { add_country_modifier = { name =  "cabinet_dynamism" duration = 730 } }
					10 = { badboy = -1 }
					8 = { prestige = 0.05 } 
					6 = { prestige = 0.05 add_country_modifier = { name =  "election_honeymoon" duration = 730 } }
					4 = { country_event = 5008 } #Gift to the State
					}
				}
			}
	}
	option = {
		name = "EVTOPTD700"	# A military man
		ai_chance = { factor = 10 }
		define_ruler = {
			MIL = 5							# 5 + random 0 to 9
		}
		random_owned = { 
			limit = { owner = { stability = -3 NOT = { stability = -2 } } }
			owner = { 
				random_list = { 
					4 = { country_event = 3091 } #Civil War
					6 = { capital_scope = { noble_rebels = 1 } }
					8 = { prestige = -0.05 }
					10 = { badboy = +1 }
					12 = { add_country_modifier = { name =  "stolen_election" duration = 1460 } }
					14 = { add_country_modifier = { name =  "government_corruption" duration = 1460 } }
					26 = { }
					8 = { add_country_modifier = { name =  "cleaning_house" duration = 1460 } }
					6 = { add_country_modifier = { name =  "cabinet_dynamism" duration = 730 } }
					4 = { badboy = -1 }
					2 = { stability = +1 } #or prestige 0.05
					}
				}
			}
		random_owned = { 
			limit = { owner = { stability = -2 NOT = { stability = -1 } } }
			owner = { 
				random_list = { 
					3 = { country_event = 3091 } #Civil War
					5 = { capital_scope = { noble_rebels = 1 } }
					7 = { stability = -1 }
					9 = { badboy = +1 }
					11 = { add_country_modifier = { name =  "stolen_election" duration = 1460 } }
					13 = { add_country_modifier = { name =  "government_corruption" duration = 1460 } }
					27 = { }
					9 = { add_country_modifier = { name =  "cleaning_house" duration = 1460 } }
					7 = { add_country_modifier = { name =  "cabinet_dynamism" duration = 730 } }
					5 = { badboy = -1 }
					3 = { stability = +1 } #or prestige 0.05
					1 = { stability = +1 add_country_modifier = { name =  "election_honeymoon" duration = 730 } }
					}
				}
			}
		random_owned = { 
			limit = { owner = { stability = -1 NOT = { stability = 0 } } }
			owner = { 
				random_list = { 
					2 = { country_event = 3091 } #Civil War
					4 = { capital_scope = { noble_rebels = 1 } }
					6 = { stability = -1 } #or prestige = -0.05
					8 = { badboy = +1 }
					10 = { add_country_modifier = { name =  "stolen_election" duration = 1460 } }
					12 = { add_country_modifier = { name =  "government_corruption" duration = 1460 } }
					28 = { }
					10 = { add_country_modifier = { name =  "cleaning_house" duration = 1460 } }
					8 = { add_country_modifier = { name =  "cabinet_dynamism" duration = 730 } }
					6 = { badboy = -1 }
					4 = { stability = +1 } #or prestige 0.05
					2 = { stability = +1 add_country_modifier = { name =  "election_honeymoon" duration = 730 } }
					}
				}
			}
		random_owned = { 
			limit = { owner = { stability = 0 NOT = { stability = 1 } } }
			owner = { 
				random_list = { #36% positive, 36% negative
					1 = { country_event = 3091 } #Civil War
					3 = { capital_scope = { noble_rebels = 1 } }
					5 = { stability = -1 } #or prestige = -0.05
					7 = { badboy = +1 }
					9 = { add_country_modifier = { name =  "stolen_election" duration = 1460 } }
					11 = { add_country_modifier = { name =  "government_corruption" duration = 1460 } }
					28 = { }
					11 = { add_country_modifier = { name =  "cleaning_house" duration = 1460 } }
					9 = { add_country_modifier = { name =  "cabinet_dynamism" duration = 730 } }
					7 = { badboy = -1 }
					5 = { stability = +1 } #or prestige 0.05
					3 = { stability = +1 add_country_modifier = { name =  "election_honeymoon" duration = 730 } }
					1 = { country_event = 5008 } #Gift to the State
					}
				}
			}
		random_owned = { 
			limit = { owner = { stability = 1 NOT = { stability = 2 } } }
			owner = { 
				random_list = { #42% positive, 30% negative
					2 = { capital_scope = { noble_rebels = 1 } }
					4 = { stability = -1 } #or prestige = -0.05
					6 = { badboy = +1 }
					8 = { add_country_modifier = { name =  "stolen_election" duration = 1460 } }
					10 = { add_country_modifier = { name =  "government_corruption" duration = 1460 } }
					28 = { }
					12 = { add_country_modifier = { name =  "cleaning_house" duration = 1460 } }
					10 = { add_country_modifier = { name =  "cabinet_dynamism" duration = 730 } }
					8 = { badboy = -1 }
					6 = { stability = +1 } #or prestige 0.05
					4 = { stability = +1 add_country_modifier = { name =  "election_honeymoon" duration = 730 } }
					2 = { country_event = 5008 } #Gift to the State
					}
				}
			}
		random_owned = { 
			limit = { owner = { stability = 2 NOT = { stability = 3 } } }
			owner = { 
				random_list = { #25% negative, 48% good
					1 = { capital_scope = { noble_rebels = 1 } }
					3 = { stability = -1 } #or prestige = -0.05
					5 = { badboy = +1 }
					7 = { add_country_modifier = { name =  "stolen_election" duration = 1460 } }
					9 = { add_country_modifier = { name =  "government_corruption" duration = 1460 } }
					27 = { }
					13 = { add_country_modifier = { name =  "cleaning_house" duration = 1460 } }
					11 = { add_country_modifier = { name =  "cabinet_dynamism" duration = 730 } }
					9 = { badboy = -1 }
					7 = { stability = +1 } #or prestige 0.05
					5 = { stability = +1 add_country_modifier = { name =  "election_honeymoon" duration = 730 } }
					3 = { country_event = 5008 } #Gift to the State
					}
				}
			}
		random_owned = { 
			limit = { owner = { stability = 3 } }
			owner = { 
				random_list = { #20% negative, 54% positive
					2 = { stability = -1 } #or prestige = -0.05
					4 = { badboy = +1 }
					6 = { add_country_modifier = { name =  "stolen_election" duration = 1460 } }
					8 = { add_country_modifier = { name =  "government_corruption" duration = 1460 } }
					26 = { }
					14 = { add_country_modifier = { name =  "cleaning_house" duration = 1460 } }
					12 = { add_country_modifier = { name =  "cabinet_dynamism" duration = 730 } }
					10 = { badboy = -1 }
					8 = { prestige = 0.05 } 
					6 = { prestige = 0.05 add_country_modifier = { name =  "election_honeymoon" duration = 730 } }
					4 = { country_event = 5008 } #Gift to the State
					}
				}
			}
	}
	
}

country_event = {

	id = 701
	
	is_triggered_only = yes
	
	title = "EVTNAME700"
	desc = "EVTDESC701"
	
	option = {
		name = "EVTOPTA701" #	The hand-picked successor
		ai_chance = { 
			factor = 40 
			days = 1
			modifier = { 
				NOT = { stability = 0 }
				factor = 0.7
				}
			modifier = { 
				stability = 2
				factor = 1.4
				}
			}
		define_ruler = {
			ADM = 5							# 5 + random 0 to 9
		}
		random_owned = { 
			limit = { owner = { stability = -3 NOT = { stability = -2 } } }
			owner = { 
				random_list = { 
					4 = { country_event = 3091 } #Civil War
					6 = { capital_scope = { noble_rebels = 1 } }
					8 = { prestige = -0.05 }
					10 = { badboy = +1 }
					12 = { add_country_modifier = { name =  "stolen_election" duration = 1460 } }
					14 = { add_country_modifier = { name =  "government_corruption" duration = 1460 } }
					26 = { }
					8 = { add_country_modifier = { name =  "cleaning_house" duration = 1460 } }
					6 = { add_country_modifier = { name =  "cabinet_dynamism" duration = 730 } }
					4 = { badboy = -1 }
					2 = { stability = +1 } #or prestige 0.05
					}
				}
			}
		random_owned = { 
			limit = { owner = { stability = -2 NOT = { stability = -1 } } }
			owner = { 
				random_list = { 
					3 = { country_event = 3091 } #Civil War
					5 = { capital_scope = { noble_rebels = 1 } }
					7 = { stability = -1 }
					9 = { badboy = +1 }
					11 = { add_country_modifier = { name =  "stolen_election" duration = 1460 } }
					13 = { add_country_modifier = { name =  "government_corruption" duration = 1460 } }
					27 = { }
					9 = { add_country_modifier = { name =  "cleaning_house" duration = 1460 } }
					7 = { add_country_modifier = { name =  "cabinet_dynamism" duration = 730 } }
					5 = { badboy = -1 }
					3 = { stability = +1 } #or prestige 0.05
					1 = { stability = +1 add_country_modifier = { name =  "election_honeymoon" duration = 730 } }
					}
				}
			}
		random_owned = { 
			limit = { owner = { stability = -1 NOT = { stability = 0 } } }
			owner = { 
				random_list = { 
					2 = { country_event = 3091 } #Civil War
					4 = { capital_scope = { noble_rebels = 1 } }
					6 = { stability = -1 } #or prestige = -0.05
					8 = { badboy = +1 }
					10 = { add_country_modifier = { name =  "stolen_election" duration = 1460 } }
					12 = { add_country_modifier = { name =  "government_corruption" duration = 1460 } }
					28 = { }
					10 = { add_country_modifier = { name =  "cleaning_house" duration = 1460 } }
					8 = { add_country_modifier = { name =  "cabinet_dynamism" duration = 730 } }
					6 = { badboy = -1 }
					4 = { stability = +1 } #or prestige 0.05
					2 = { stability = +1 add_country_modifier = { name =  "election_honeymoon" duration = 730 } }
					}
				}
			}
		random_owned = { 
			limit = { owner = { stability = 0 NOT = { stability = 1 } } }
			owner = { 
				random_list = { #36% positive, 36% negative
					1 = { country_event = 3091 } #Civil War
					3 = { capital_scope = { noble_rebels = 1 } }
					5 = { stability = -1 } #or prestige = -0.05
					7 = { badboy = +1 }
					9 = { add_country_modifier = { name =  "stolen_election" duration = 1460 } }
					11 = { add_country_modifier = { name =  "government_corruption" duration = 1460 } }
					28 = { }
					11 = { add_country_modifier = { name =  "cleaning_house" duration = 1460 } }
					9 = { add_country_modifier = { name =  "cabinet_dynamism" duration = 730 } }
					7 = { badboy = -1 }
					5 = { stability = +1 } #or prestige 0.05
					3 = { stability = +1 add_country_modifier = { name =  "election_honeymoon" duration = 730 } }
					1 = { country_event = 5008 } #Gift to the State
					}
				}
			}
		random_owned = { 
			limit = { owner = { stability = 1 NOT = { stability = 2 } } }
			owner = { 
				random_list = { #42% positive, 30% negative
					2 = { capital_scope = { noble_rebels = 1 } }
					4 = { stability = -1 } #or prestige = -0.05
					6 = { badboy = +1 }
					8 = { add_country_modifier = { name =  "stolen_election" duration = 1460 } }
					10 = { add_country_modifier = { name =  "government_corruption" duration = 1460 } }
					28 = { }
					12 = { add_country_modifier = { name =  "cleaning_house" duration = 1460 } }
					10 = { add_country_modifier = { name =  "cabinet_dynamism" duration = 730 } }
					8 = { badboy = -1 }
					6 = { stability = +1 } #or prestige 0.05
					4 = { stability = +1 add_country_modifier = { name =  "election_honeymoon" duration = 730 } }
					2 = { country_event = 5008 } #Gift to the State
					}
				}
			}
		random_owned = { 
			limit = { owner = { stability = 2 NOT = { stability = 3 } } }
			owner = { 
				random_list = { #25% negative, 48% good
					1 = { capital_scope = { noble_rebels = 1 } }
					3 = { stability = -1 } #or prestige = -0.05
					5 = { badboy = +1 }
					7 = { add_country_modifier = { name =  "stolen_election" duration = 1460 } }
					9 = { add_country_modifier = { name =  "government_corruption" duration = 1460 } }
					27 = { }
					13 = { add_country_modifier = { name =  "cleaning_house" duration = 1460 } }
					11 = { add_country_modifier = { name =  "cabinet_dynamism" duration = 730 } }
					9 = { badboy = -1 }
					7 = { stability = +1 } #or prestige 0.05
					5 = { stability = +1 add_country_modifier = { name =  "election_honeymoon" duration = 730 } }
					3 = { country_event = 5008 } #Gift to the State
					}
				}
			}
		random_owned = { 
			limit = { owner = { stability = 3 } }
			owner = { 
				random_list = { #20% negative, 54% positive
					2 = { stability = -1 } #or prestige = -0.05
					4 = { badboy = +1 }
					6 = { add_country_modifier = { name =  "stolen_election" duration = 1460 } }
					8 = { add_country_modifier = { name =  "government_corruption" duration = 1460 } }
					26 = { }
					14 = { add_country_modifier = { name =  "cleaning_house" duration = 1460 } }
					12 = { add_country_modifier = { name =  "cabinet_dynamism" duration = 730 } }
					10 = { badboy = -1 }
					8 = { prestige = 0.05 } 
					6 = { prestige = 0.05 add_country_modifier = { name =  "election_honeymoon" duration = 730 } }
					4 = { country_event = 5008 } #Gift to the State
					}
				}
			}
	}
	option = {
		name = "EVTOPTB701" #	A compromise candidate acceptable to everyone
		ai_chance = { 
			factor = 30 
			days = 1
			modifier = { 
				NOT = { stability = 0 }
				factor = 1.4
				}
			modifier = { 
				NOT = { stability = -2 }
				factor = 1.4
				}
			modifier = { 
				stability = 2
				factor = 0.7
				}
			modifier = { 
				war = yes
				factor = 0.7
				}
			}
		define_ruler = {
			DIP = 5							# 5 + random 0 to 9
		}
		random_owned = { 
			limit = { owner = { stability = -3 NOT = { stability = -2 } } }
			owner = { 
				random_list = { 
					2 = { country_event = 3091 } #Civil War
					4 = { capital_scope = { noble_rebels = 1 } }
					6 = { prestige = -0.05 }
					8 = { badboy = +1 }
					10 = { add_country_modifier = { name =  "stolen_election" duration = 1460 } }
					12 = { add_country_modifier = { name =  "government_corruption" duration = 1460 } }
					46 = { }
					6 = { add_country_modifier = { name =  "cleaning_house" duration = 1460 } }
					4 = { add_country_modifier = { name =  "cabinet_dynamism" duration = 730 } }
					2 = { badboy = -1 }
					}
				}
			}
		random_owned = { 
			limit = { owner = { stability = -2 NOT = { stability = -1 } } }
			owner = { 
				random_list = { 
					1 = { country_event = 3091 } #Civil War
					3 = { capital_scope = { noble_rebels = 1 } }
					5 = { stability = -1 }
					7 = { badboy = +1 }
					9 = { add_country_modifier = { name =  "stolen_election" duration = 1460 } }
					11 = { add_country_modifier = { name =  "government_corruption" duration = 1460 } }
					48 = { }
					7 = { add_country_modifier = { name =  "cleaning_house" duration = 1460 } }
					5 = { add_country_modifier = { name =  "cabinet_dynamism" duration = 730 } }
					3 = { badboy = -1 }
					1 = { stability = +1 } #or prestige 0.05
					}
				}
			}
		random_owned = { 
			limit = { owner = { stability = -1 NOT = { stability = 0 } } }
			owner = { 
				random_list = { 
					2 = { capital_scope = { noble_rebels = 1 } }
					4 = { stability = -1 } #or prestige = -0.05
					6 = { badboy = +1 }
					8 = { add_country_modifier = { name =  "stolen_election" duration = 1460 } }
					10 = { add_country_modifier = { name =  "government_corruption" duration = 1460 } }
					50 = { }
					8 = { add_country_modifier = { name =  "cleaning_house" duration = 1460 } }
					6 = { add_country_modifier = { name =  "cabinet_dynamism" duration = 730 } }
					4 = { badboy = -1 }
					2 = { stability = +1 } #or prestige 0.05
					}
				}
			}
		random_owned = { 
			limit = { owner = { stability = 0 NOT = { stability = 1 } } }
			owner = { 
				random_list = { #36% positive, 36% negative
					1 = { capital_scope = { noble_rebels = 1 } }
					3 = { stability = -1 } #or prestige = -0.05
					5 = { badboy = +1 }
					7 = { add_country_modifier = { name =  "stolen_election" duration = 1460 } }
					9 = { add_country_modifier = { name =  "government_corruption" duration = 1460 } }
					50 = { }
					9 = { add_country_modifier = { name =  "cleaning_house" duration = 1460 } }
					7 = { add_country_modifier = { name =  "cabinet_dynamism" duration = 730 } }
					5 = { badboy = -1 }
					3 = { stability = +1 } #or prestige 0.05
					1 = { stability = +1 add_country_modifier = { name =  "election_honeymoon" duration = 730 } }
					}
				}
			}
		random_owned = { 
			limit = { owner = { stability = 1 NOT = { stability = 2 } } }
			owner = { 
				random_list = { #42% positive, 30% negative
					2 = { stability = -1 } #or prestige = -0.05
					4 = { badboy = +1 }
					6 = { add_country_modifier = { name =  "stolen_election" duration = 1460 } }
					8 = { add_country_modifier = { name =  "government_corruption" duration = 1460 } }
					50 = { }
					10 = { add_country_modifier = { name =  "cleaning_house" duration = 1460 } }
					8 = { add_country_modifier = { name =  "cabinet_dynamism" duration = 730 } }
					6 = { badboy = -1 }
					4 = { stability = +1 } #or prestige 0.05
					2 = { stability = +1 add_country_modifier = { name =  "election_honeymoon" duration = 730 } }
					}
				}
			}
		random_owned = { 
			limit = { owner = { stability = 2 NOT = { stability = 3 } } }
			owner = { 
				random_list = { #25% negative, 48% good
					1 = { stability = -1 } #or prestige = -0.05
					3 = { badboy = +1 }
					5 = { add_country_modifier = { name =  "stolen_election" duration = 1460 } }
					7 = { add_country_modifier = { name =  "government_corruption" duration = 1460 } }
					48 = { }
					11 = { add_country_modifier = { name =  "cleaning_house" duration = 1460 } }
					9 = { add_country_modifier = { name =  "cabinet_dynamism" duration = 730 } }
					7 = { badboy = -1 }
					5 = { stability = +1 } #or prestige 0.05
					3 = { stability = +1 add_country_modifier = { name =  "election_honeymoon" duration = 730 } }
					1 = { country_event = 5008 } #Gift to the State
					}
				}
			}
		random_owned = { 
			limit = { owner = { stability = 3 } }
			owner = { 
				random_list = { #20% negative, 54% positive
					2 = { badboy = +1 }
					4 = { add_country_modifier = { name =  "stolen_election" duration = 1460 } }
					6 = { add_country_modifier = { name =  "government_corruption" duration = 1460 } }
					46 = { }
					12 = { add_country_modifier = { name =  "cleaning_house" duration = 1460 } }
					10 = { add_country_modifier = { name =  "cabinet_dynamism" duration = 730 } }
					8 = { badboy = -1 }
					6 = { prestige = 0.05 } 
					4 = { prestige = 0.05 add_country_modifier = { name =  "election_honeymoon" duration = 730 } }
					2 = { country_event = 5008 } #Gift to the State
					}
				}
			}
	}
	option = {
		name = "EVTOPTC701" #	The candidate with the best plan
		ai_chance = { 
			factor = 30 
			days = 1
			modifier = { 
				war = yes
				factor = 1.4
				}
			}
		define_ruler = {
			MIL = 4							# 5 + random 0 to 9
			DIP = 4
			ADM = 4
		}
		random_owned = { 
			limit = { owner = { stability = -3 NOT = { stability = -2 } } }
			owner = { 
				random_list = { 
					4 = { country_event = 3091 } #Civil War
					6 = { capital_scope = { noble_rebels = 1 } }
					8 = { prestige = -0.05 }
					10 = { badboy = +1 }
					12 = { add_country_modifier = { name =  "stolen_election" duration = 1460 } }
					14 = { add_country_modifier = { name =  "government_corruption" duration = 1460 } }
					26 = { }
					8 = { add_country_modifier = { name =  "cleaning_house" duration = 1460 } }
					6 = { add_country_modifier = { name =  "cabinet_dynamism" duration = 730 } }
					4 = { badboy = -1 }
					2 = { stability = +1 } #or prestige 0.05
					}
				}
			}
		random_owned = { 
			limit = { owner = { stability = -2 NOT = { stability = -1 } } }
			owner = { 
				random_list = { 
					3 = { country_event = 3091 } #Civil War
					5 = { capital_scope = { noble_rebels = 1 } }
					7 = { stability = -1 }
					9 = { badboy = +1 }
					11 = { add_country_modifier = { name =  "stolen_election" duration = 1460 } }
					13 = { add_country_modifier = { name =  "government_corruption" duration = 1460 } }
					27 = { }
					9 = { add_country_modifier = { name =  "cleaning_house" duration = 1460 } }
					7 = { add_country_modifier = { name =  "cabinet_dynamism" duration = 730 } }
					5 = { badboy = -1 }
					3 = { stability = +1 } #or prestige 0.05
					1 = { stability = +1 add_country_modifier = { name =  "election_honeymoon" duration = 730 } }
					}
				}
			}
		random_owned = { 
			limit = { owner = { stability = -1 NOT = { stability = 0 } } }
			owner = { 
				random_list = { 
					2 = { country_event = 3091 } #Civil War
					4 = { capital_scope = { noble_rebels = 1 } }
					6 = { stability = -1 } #or prestige = -0.05
					8 = { badboy = +1 }
					10 = { add_country_modifier = { name =  "stolen_election" duration = 1460 } }
					12 = { add_country_modifier = { name =  "government_corruption" duration = 1460 } }
					28 = { }
					10 = { add_country_modifier = { name =  "cleaning_house" duration = 1460 } }
					8 = { add_country_modifier = { name =  "cabinet_dynamism" duration = 730 } }
					6 = { badboy = -1 }
					4 = { stability = +1 } #or prestige 0.05
					2 = { stability = +1 add_country_modifier = { name =  "election_honeymoon" duration = 730 } }
					}
				}
			}
		random_owned = { 
			limit = { owner = { stability = 0 NOT = { stability = 1 } } }
			owner = { 
				random_list = { #36% positive, 36% negative
					1 = { country_event = 3091 } #Civil War
					3 = { capital_scope = { noble_rebels = 1 } }
					5 = { stability = -1 } #or prestige = -0.05
					7 = { badboy = +1 }
					9 = { add_country_modifier = { name =  "stolen_election" duration = 1460 } }
					11 = { add_country_modifier = { name =  "government_corruption" duration = 1460 } }
					28 = { }
					11 = { add_country_modifier = { name =  "cleaning_house" duration = 1460 } }
					9 = { add_country_modifier = { name =  "cabinet_dynamism" duration = 730 } }
					7 = { badboy = -1 }
					5 = { stability = +1 } #or prestige 0.05
					3 = { stability = +1 add_country_modifier = { name =  "election_honeymoon" duration = 730 } }
					1 = { country_event = 5008 } #Gift to the State
					}
				}
			}
		random_owned = { 
			limit = { owner = { stability = 1 NOT = { stability = 2 } } }
			owner = { 
				random_list = { #42% positive, 30% negative
					2 = { capital_scope = { noble_rebels = 1 } }
					4 = { stability = -1 } #or prestige = -0.05
					6 = { badboy = +1 }
					8 = { add_country_modifier = { name =  "stolen_election" duration = 1460 } }
					10 = { add_country_modifier = { name =  "government_corruption" duration = 1460 } }
					28 = { }
					12 = { add_country_modifier = { name =  "cleaning_house" duration = 1460 } }
					10 = { add_country_modifier = { name =  "cabinet_dynamism" duration = 730 } }
					8 = { badboy = -1 }
					6 = { stability = +1 } #or prestige 0.05
					4 = { stability = +1 add_country_modifier = { name =  "election_honeymoon" duration = 730 } }
					2 = { country_event = 5008 } #Gift to the State
					}
				}
			}
		random_owned = { 
			limit = { owner = { stability = 2 NOT = { stability = 3 } } }
			owner = { 
				random_list = { #25% negative, 48% good
					1 = { capital_scope = { noble_rebels = 1 } }
					3 = { stability = -1 } #or prestige = -0.05
					5 = { badboy = +1 }
					7 = { add_country_modifier = { name =  "stolen_election" duration = 1460 } }
					9 = { add_country_modifier = { name =  "government_corruption" duration = 1460 } }
					27 = { }
					13 = { add_country_modifier = { name =  "cleaning_house" duration = 1460 } }
					11 = { add_country_modifier = { name =  "cabinet_dynamism" duration = 730 } }
					9 = { badboy = -1 }
					7 = { stability = +1 } #or prestige 0.05
					5 = { stability = +1 add_country_modifier = { name =  "election_honeymoon" duration = 730 } }
					3 = { country_event = 5008 } #Gift to the State
					}
				}
			}
		random_owned = { 
			limit = { owner = { stability = 3 } }
			owner = { 
				random_list = { #20% negative, 54% positive
					2 = { stability = -1 } #or prestige = -0.05
					4 = { badboy = +1 }
					6 = { add_country_modifier = { name =  "stolen_election" duration = 1460 } }
					8 = { add_country_modifier = { name =  "government_corruption" duration = 1460 } }
					26 = { }
					14 = { add_country_modifier = { name =  "cleaning_house" duration = 1460 } }
					12 = { add_country_modifier = { name =  "cabinet_dynamism" duration = 730 } }
					10 = { badboy = -1 }
					8 = { prestige = 0.05 } 
					6 = { prestige = 0.05 add_country_modifier = { name =  "election_honeymoon" duration = 730 } }
					4 = { country_event = 5008 } #Gift to the State
					}
				}
			}
	}
	
}

#Effects of election depend on your stability at the time:
#-3: 5 bad, 50% bad, 15% good, 2 good
#-2: 5 bad, 45% bad, 20% good, 3 good
#-1: 4 bad, 40% bad, 25% good, 3 good
#0: 4 bad, 35% bad, 30% good, 4 good
#+1: 3 bad, 30% bad, 35% good, 4 good
#+2: 3 bad, 25% bad, 40% good, 5 good
#+3: 2 bad, 20% bad, 45% good, 5 good
