# When can a convener take over the Imperial function of asking for the return of a province?
# 
# ONLY IN ORIGINAL HRE PROVINCES
# ONLY IN PROVINCES WITH HIS PRIMARY CULTURE
#
# In the case of REGULAR EVENTS (where the Emperor is unqualified to add to the Demesne),
# Convener is less likely to take over.  
# 	Must have ADM > that of Emperor
#	More likely to step in if Emperor is stronger
#	Less likely, the fewer conveners exist

# In the case of SPECIAL EVENTS (where the Emperor IS qualified to add to the Demesne),
# Convener is more likely to take over.  
# 	Must have ADM or DIP = that of Emperor
#	More likely to step in if Emperor is stronger
#	Less likely, the fewer conveners exist

# In case of THE EMPEROR being the aggressor,
# Convener will only step in if he has
# 	ADM or DIP +2 > that of Emperor
#	Very unlikely, if not all conveners exist,
#	but always possible, if Emperor is foreign (non-HRE capital)

# In case of FOREIGN COUNTRY being the aggressor,
# Convener will be less likely to step in (based on MTTH)
# 	criteria for REGULAR AND SPECIAL EVENTS apply

# Very strong convener in a weakened Empire might simply annex provinces in his circuit ***

###############################################################################################
#
#
# From "HRE_Demands_Return.txt":	28.50.XX	country is not Emperor
#
#
###############################################################################################


# CRITERIA
# Original HRE Province:		YES
# Currently in the HRE:			YES
# Part of Imperial Demesne:		NO
# Is a lien:				NO
# Emperor has qualifications
#  to add provinces to Demesne:		NO
# Previously in non-Christian hands:	N/A
# Secret Alliance			NO

province_event = {

  	id = 2873001

	trigger = {
		NOT = { has_global_flag = HRE_reformation_war }
		NOT = { has_global_flag = HRE_social_revolution }
		hre = yes
		NOT = { is_core = THIS }
		EMP = {
			prestige = 0.25
			has_country_flag = circuits
		}
		region = hre_region
		NOT = { is_core = RLD }					#not part of Imperial Demesne
		NOT = { has_province_flag = object_of_dispute }
		NOT = { has_province_flag = takenmid }
		NOT = { has_province_flag = hre_lien_applied }
		NOT = { has_province_flag = hre_lien }
		NOT = { has_province_flag = reichsverweser }
		NOT = { has_province_modifier = custody }
		controlled_by = THIS
		NOT = { has_siege = yes }
		NOT = {
			any_neighbor_province = {
				owned_by = THIS
				controlled_by = THIS
				has_siege = yes
			}
		}
		owner = {
			NOT = { tag = IMA }
			NOT = { is_emperor = yes }
			NOT = { has_country_flag = current_emperor }
			religion_group = christian
		}
		NOT = { EMP = { prestige = 0.9 } }
		emperor = {						#Emperor not qualified to expand Imperial Demesne
			num_of_cities = 1
			OR = {
				NOT = {
					OR = {
						AND = {
							ADM = 7
							DIP = 7
						}
						OR = {
							ADM = 8
							DIP = 8
						}
					}
				}
				NOT = { relation = { who = THIS value = 0 } }
			}
			NOT = { prestige = 0.99 }
		}
		any_neighbor_province = {				#Makes sure circuit matches
			NOT = { owned_by = THIS }
			owner = {
				has_country_flag = convener
				OR = {
					EMP = { has_country_modifier = reichsregiment }
					AND = { ADM = 4 emperor = { NOT = { ADM = 4 } } }
					AND = { ADM = 5 emperor = { NOT = { ADM = 5 } } }
					AND = { ADM = 6 emperor = { NOT = { ADM = 6 } } }
					AND = { ADM = 7 emperor = { NOT = { ADM = 7 } } }
					AND = { ADM = 8 emperor = { NOT = { ADM = 8 } } }
					AND = { ADM = 9 emperor = { NOT = { ADM = 9 } } }
				}
			}
			OR = {
				AND = {
					region = circuit_bavarian
					THIS = { region = circuit_bavarian }
				}
				AND = {
					region = circuit_austrian
					THIS = { region = circuit_austrian }
				}
				AND = {
					region = circuit_swabian
					THIS = { region = circuit_swabian }
				}
				AND = {
					region = circuit_franconian
					THIS = { region = circuit_franconian }
				}
				AND = {
					region = circuit_lower_rhine
					THIS = { region = circuit_lower_rhine }
				}
				AND = {
					region = circuit_middle_rhine
					THIS = { region = circuit_middle_rhine }
				}
				AND = {
					region = circuit_upper_rhine
					THIS = { region = circuit_upper_rhine }
				}
				AND = {
					region = circuit_lower_saxon
					THIS = { region = circuit_lower_saxon }
				}
				AND = {
					region = circuit_upper_saxon
					THIS = { region = circuit_upper_saxon }
				}
				AND = {
					region = circuit_burgundian
					THIS = { region = circuit_burgundian }
				}
				AND = {
					region = circuit_bohemian
					THIS = { region = circuit_bohemian }
				}
				AND = {
					region = circuit_italian
					THIS = { region = circuit_italian }
				}
			}
		}
# if custodianship is an option, convener may not get involved
		NOT = {	# do not trigger, if conditions of custodianship are given
			AND = {
				NOT = { has_province_flag = custody }
				EMP = { idea = deus_vult }
				NOT = { religion = catholic }
				NOT = { tolerance_to_this = 0 }
				owner = {
					religion = catholic
					OR = {
						defender_of_faith = yes
						is_papal_controller = yes
						missionaries = 1
						innovative_narrowminded = 0
					}
				}
			}
		}
 	}

	mean_time_to_happen = {
			months = 4
			modifier = {
				factor = 0.5
				EMP = { has_country_modifier = reichsregiment }
			}		
			modifier = {
				factor = 16
				owner = { war = yes }
			}		
			modifier = {
				factor = 0.7
				EMP = { prestige = 0.9 }
			}
			modifier = {
				factor = 0.9
				EMP = { prestige = 0.6 }
			}
			modifier = {
				factor = 1.1
				emperor = { advisor = statesman }
			}
			modifier = {
				factor = 1.1
				emperor = { advisor = diplomat }
			}
			modifier = {
				factor = 1.2
				EMP = { prestige = 0.3 NOT = { prestige = 0.6 } }
			}
			modifier = {
				factor = 2
				EMP = { NOT = { prestige = 0.3 } }
			}
			modifier = {
				factor = 1.5
				owner = { capital_scope = { NOT = { hre = yes } } }
			}
			modifier = {
				factor = 1.25
				EMP = { idea = deus_vult }
			}
			modifier = {
				factor = 0.8
				EMP = { idea = ecumenism }
			}
	}				

	title = "EVTNAME2873"
	desc = "EVTDESC2873001"

	immediate = {
		clr_province_flag = reset_takenmid
	}
	option = {
		name = "EVTOPTA116600"
		ai_chance = {
			factor = 100
			modifier = {
				factor = 1.2
				owner = { capital_scope = { NOT = { hre = yes } } }
			}
			modifier = {
				factor = 5
				emperor = { NOT = { army = THIS } }
			}
			modifier = {
				factor = 5
				emperor = { NOT = { num_of_cities = THIS } }
			}
		}
		set_province_flag = takenmid
	 	set_province_flag = non_core_base
		add_province_modifier = { 
			name = "non_core_timer"
			duration = 36500 # 100 years
		}
		owner = {
			badboy = 1
			country_event = 2850
			relation = { who = EMP value = -10 }
			change_variable = { which = hre_standing value = -10 }
			set_country_flag = notify_hre 	#if meddling in the HRE, always send notifications
			random_owned = {
				limit = { owner = { ai = yes } }
				owner = {
					remove_country_modifier = at_peace
					add_country_modifier = {
						name = "at_peace"
						duration = 36500	#100 years
					}
				}
			}
			random_owned = {
				limit = { owner = { ai = no } }
				owner = {
					remove_country_modifier = at_peace
					add_country_modifier = {
						name = "at_peace"
						duration = 18250	#50 years
					}
				}
			}
		}
		EMP = { prestige = -0.01 }
	}

	option = {
		name = "EVTOPTB116600"
		ai_chance = {
			factor = 900
			modifier = {
				factor = 1
				owner = { capital_scope = { NOT = { hre = yes } } }
			}
		}
		owner = {
			prestige = +0.02
			badboy = -1
		}
		any_country = {
			limit = {
				capital_scope = {
					hre = yes
					NOT = { owned_by = THIS }
				}
				num_of_cities = 1
				NOT = { relation = { who = THIS value = 60 } }
			}
			relation = { who = THIS value = 50 }
		}
		secede_province = RLD
		RLD = { country_event = 1130 }
		EMP = { prestige = -0.01 }
	}
}
# CRITERIA
# Original HRE Province:		YES
# Currently in the HRE:			YES
# Part of Imperial Demesne:		NO
# Is a lien:				NO
# Emperor has qualifications
#  to add provinces to Demesne:		YES
# Previously in non-Christian hands:	N/A
# Secret Alliance			NO

province_event = {

  	id = 2873002

	trigger = {
		NOT = { has_global_flag = HRE_reformation_war }
		NOT = { has_global_flag = HRE_social_revolution }
		hre = yes
		NOT = { is_core = THIS }
		EMP = {
			prestige = 0.25
			has_country_flag = circuits
		}
		region = hre_region
		NOT = { is_core = RLD }					#not part of Imperial Demesne
		NOT = { has_province_flag = object_of_dispute }
		NOT = { has_province_flag = takenmid }
		NOT = { has_province_flag = hre_lien_applied }
		NOT = { has_province_flag = hre_lien }
		NOT = { has_province_flag = reichsverweser }
		NOT = { has_province_modifier = custody }
		controlled_by = THIS
		NOT = { has_siege = yes }
		NOT = {
			any_neighbor_province = {
				owned_by = THIS
				controlled_by = THIS
				has_siege = yes
			}
		}
		owner = {
			NOT = { tag = IMA }
			NOT = { is_emperor = yes }
			NOT = { has_country_flag = current_emperor }
			religion_group = christian
		}
		emperor = {						#Emperor is qualified to expand Imperial Demesne
			num_of_cities = 1
			OR = {
				AND = {
					ADM = 7
					DIP = 7
				}
				OR = {
					ADM = 8
					DIP = 8
				}
				EMP = { prestige = 0.9 }
				AND = {
					EMP = { prestige = 0.6 }
					relation = { who = THIS value = 120 }
				}
				diplomat = 5
				statesman = 5
				prestige = 0.9
			}
		}
		any_neighbor_province = {				#Makes sure circuit matches
			NOT = { owned_by = THIS }
			owner = {
				has_country_flag = convener
				OR = {
					EMP = { has_country_modifier = reichsregiment }
					OR = {
						OR = {
							AND = { ADM = 4 emperor = { NOT = { ADM = 5 } } }
							AND = { ADM = 5 emperor = { NOT = { ADM = 6 } } }
							AND = { ADM = 6 emperor = { NOT = { ADM = 7 } } }
							AND = { ADM = 7 emperor = { NOT = { ADM = 8 } } }
							AND = { ADM = 8 emperor = { NOT = { ADM = 9 } } }
							ADM = 9
						}
						OR = {
							AND = { DIP = 4 emperor = { NOT = { DIP = 5 } } }
							AND = { DIP = 5 emperor = { NOT = { DIP = 6 } } }
							AND = { DIP = 6 emperor = { NOT = { DIP = 7 } } }
							AND = { DIP = 7 emperor = { NOT = { DIP = 8 } } }
							AND = { DIP = 8 emperor = { NOT = { DIP = 9 } } }
							DIP = 9
						}
					}
				}
			}
			OR = {
				AND = {
					region = circuit_bavarian
					THIS = { region = circuit_bavarian }
				}
				AND = {
					region = circuit_austrian
					THIS = { region = circuit_austrian }
				}
				AND = {
					region = circuit_swabian
					THIS = { region = circuit_swabian }
				}
				AND = {
					region = circuit_franconian
					THIS = { region = circuit_franconian }
				}
				AND = {
					region = circuit_lower_rhine
					THIS = { region = circuit_lower_rhine }
				}
				AND = {
					region = circuit_middle_rhine
					THIS = { region = circuit_middle_rhine }
				}
				AND = {
					region = circuit_upper_rhine
					THIS = { region = circuit_upper_rhine }
				}
				AND = {
					region = circuit_lower_saxon
					THIS = { region = circuit_lower_saxon }
				}
				AND = {
					region = circuit_upper_saxon
					THIS = { region = circuit_upper_saxon }
				}
				AND = {
					region = circuit_burgundian
					THIS = { region = circuit_burgundian }
				}
				AND = {
					region = circuit_bohemian
					THIS = { region = circuit_bohemian }
				}
				AND = {
					region = circuit_italian
					THIS = { region = circuit_italian }
				}
			}
		}
# if custodianship is an option, convener may not get involved
		NOT = {	# do not trigger, if conditions of custodianship are given
			AND = {
				NOT = { has_province_flag = custody }
				EMP = { idea = deus_vult }
				NOT = { religion = catholic }
				NOT = { tolerance_to_this = 0 }
				owner = {
					religion = catholic
					OR = {
						defender_of_faith = yes
						is_papal_controller = yes
						missionaries = 1
						innovative_narrowminded = 0
					}
				}
			}
		}
 	}

	mean_time_to_happen = {
			months = 4
			modifier = {
				factor = 0.5
				EMP = { has_country_modifier = reichsregiment }
			}		
			modifier = {
				factor = 16
				owner = { war = yes }
			}		
			modifier = {
				factor = 0.7
				EMP = { prestige = 0.9 }
			}
			modifier = {
				factor = 0.9
				EMP = { prestige = 0.6 }
			}
			modifier = {
				factor = 1.1
				emperor = { advisor = statesman }
			}
			modifier = {
				factor = 1.1
				emperor = { advisor = diplomat }
			}
			modifier = {
				factor = 1.2
				EMP = { prestige = 0.3 NOT = { prestige = 0.6 } }
			}
			modifier = {
				factor = 2
				EMP = { NOT = { prestige = 0.3 } }
			}
			modifier = {
				factor = 1.5
				owner = { capital_scope = { NOT = { hre = yes } } }
			}
			modifier = {
				factor = 1.25
				EMP = { idea = deus_vult }
			}
			modifier = {
				factor = 0.8
				EMP = { idea = ecumenism }
			}
	}				

	title = "EVTNAME2873"
	desc = "EVTDESC2873001"

	immediate = {
		clr_province_flag = reset_takenmid
	}

	option = {
		name = "EVTOPTA116600"
		ai_chance = {
			factor = 100
			modifier = {
				factor = 1
				owner = { capital_scope = { NOT = { hre = yes } } }
			}
			modifier = {
				factor = 5
				emperor = { NOT = { army = THIS } }
			}
			modifier = {
				factor = 5
				emperor = { NOT = { num_of_cities = THIS } }
			}
		}
		set_province_flag = takenmid
	 	set_province_flag = non_core_base
		add_province_modifier = { 
			name = "non_core_timer"
			duration = 36500 # 100 years
		}
		owner = {
			badboy = 1
			country_event = 2850
			relation = { who = EMP value = -10 }
			change_variable = { which = hre_standing value = -10 }
			set_country_flag = notify_hre 	#if meddling in the HRE, always send notifications
			random_owned = {
				limit = { owner = { ai = yes } }
				owner = {
					remove_country_modifier = at_peace
					add_country_modifier = {
						name = "at_peace"
						duration = 36500	#100 years
					}
				}
			}
			random_owned = {
				limit = { owner = { ai = no } }
				owner = {
					remove_country_modifier = at_peace
					add_country_modifier = {
						name = "at_peace"
						duration = 18250	#50 years
					}
				}
			}
		}
		EMP = { prestige = -0.01 }
	}
	option = {
		name = "EVTOPTB116600"
		ai_chance = {
			factor = 750
			modifier = {
				factor = 1.066
				owner = { capital_scope = { NOT = { hre = yes } } }
			}
		}
		owner = {
			prestige = +0.02
			badboy = -1
		}
		any_country = {
			limit = {
				capital_scope = {
					hre = yes
					NOT = { owned_by = THIS }
				}
				num_of_cities = 1
				NOT = { relation = { who = THIS value = 60 } }
			}
			relation = { who = THIS value = 50 }
		}
		secede_province = RLD
		RLD = { country_event = 1130 }
		EMP = { prestige = -0.01 }
	}
}

# CRITERIA
# Original HRE Province:		YES
# Currently in the HRE:			N/A
# Part of Imperial Demesne:		NO
# Is a lien:				NO
# Emperor has qualifications
#  to add provinces to Demesne:		N/A
# Previously in non-Christian hands:	N/A
# Secret Alliance			YES	--> Convener steps in

province_event = {

  	id = 2873011

	trigger = {
		NOT = { has_global_flag = HRE_reformation_war }
		NOT = { has_global_flag = HRE_social_revolution }
		hre = yes
		NOT = { is_core = THIS }
		EMP = {
			prestige = 0.25
			has_country_flag = circuits
		}
		has_province_flag = takenmid
		region = hre_region
		NOT = { is_core = RLD }					#not part of Imperial Demesne
		NOT = { has_province_flag = hre_lien_applied }
		NOT = { has_province_flag = hre_lien }
		NOT = { has_province_flag = reichsverweser }
		NOT = { has_province_modifier = custody }
		owner = {
			check_variable = { which = rogue value = 40 }
			war = no
			NOT = { stability = 3 }
			NOT = { tag = IMA }
			NOT = { is_emperor = yes }
			NOT = { has_country_flag = current_emperor }
			religion_group = christian
		}
# disregarding emperor's stats for this particular event
		emperor = { num_of_cities = 1 }
		any_neighbor_province = {				#Makes sure circuit matches
			NOT = { owned_by = THIS }
			owner = {
				has_country_flag = convener
				NOT = { relation = { who = THIS value = 160 } }
			}
			OR = {
				AND = {
					region = circuit_bavarian
					THIS = { region = circuit_bavarian }
				}
				AND = {
					region = circuit_austrian
					THIS = { region = circuit_austrian }
				}
				AND = {
					region = circuit_swabian
					THIS = { region = circuit_swabian }
				}
				AND = {
					region = circuit_franconian
					THIS = { region = circuit_franconian }
				}
				AND = {
					region = circuit_lower_rhine
					THIS = { region = circuit_lower_rhine }
				}
				AND = {
					region = circuit_middle_rhine
					THIS = { region = circuit_middle_rhine }
				}
				AND = {
					region = circuit_upper_rhine
					THIS = { region = circuit_upper_rhine }
				}
				AND = {
					region = circuit_lower_saxon
					THIS = { region = circuit_lower_saxon }
				}
				AND = {
					region = circuit_upper_saxon
					THIS = { region = circuit_upper_saxon }
				}
				AND = {
					region = circuit_burgundian
					THIS = { region = circuit_burgundian }
				}
				AND = {
					region = circuit_bohemian
					THIS = { region = circuit_bohemian }
				}
				AND = {
					region = circuit_italian
					THIS = { region = circuit_italian }
				}
			}
		}
# if custodianship is an option, convener may not get involved
		NOT = {	# do not trigger, if conditions of custodianship are given
			AND = {
				NOT = { has_province_flag = custody }
				EMP = { idea = deus_vult }
				NOT = { religion = catholic }
				NOT = { tolerance_to_this = 0 }
				owner = {
					religion = catholic
					OR = {
						defender_of_faith = yes
						is_papal_controller = yes
						missionaries = 1
						innovative_narrowminded = 0
					}
				}
			}
		}
 	}

	mean_time_to_happen = {
		years = 36	# damocles' sword, for a province otherwise left alone by a weak emperor
		modifier = {
			factor = 0.5
			EMP = { has_country_modifier = reichsregiment }
		}
		modifier = {
			factor = 1.2
			owner = { NOT = { check_variable = { which = rogue value = 80 } } }
		}
		modifier = {
			factor = 0.9
			owner = { check_variable = { which = rogue value = 80 } }
		}
		modifier = {
			factor = 0.9
			owner = { check_variable = { which = rogue value = 120 } }
		}
		modifier = {
			factor = 0.9
			owner = { check_variable = { which = rogue value = 160 } }
		}
		modifier = {
			factor = 0.9
			EMP = { has_country_flag = reichsgesetzbuch }
		}
		modifier = {
			factor = 0.9
			owner = { NOT = { stability = 2 } }
		}
		modifier = {
			factor = 0.9
			owner = { NOT = { stability = 0 } }
		}
		modifier = {
			factor = 0.9
			EMP = { prestige = 0.9 }
		}
		modifier = {
			factor = 0.9
			EMP = { prestige = 0.6 }
		}
		modifier = {
			factor = 1.1
			owner = { advisor = statesman }
		}
		modifier = {
			factor = 1.1
			owner = { advisor = diplomat }
		}
		modifier = {
			factor = 1.1
			emperor = { advisor = statesman }
		}
		modifier = {
			factor = 1.1
			emperor = { advisor = diplomat }
		}
		modifier = {
			factor = 1.2
			EMP = { prestige = 0.3 NOT = { prestige = 0.6 } }
		}
		modifier = {
			factor = 2
			EMP = { NOT = { prestige = 0.3 } }
		}
		modifier = {
			factor = 2.5
			owner = { has_country_flag = convener }
		}
		modifier = {
			factor = 2
			owner = { elector = yes }
		}
		modifier = {
			factor = 1.5
			owner = { capital_scope = { NOT = { hre = yes } } }
		}
		modifier = {
			factor = 1.25
			EMP = { idea = deus_vult }
		}
		modifier = {
			factor = 0.8
			EMP = { idea = ecumenism }
		}
	}				

	title = "EVTNAME2873"
	desc = "EVTDESC2873011"

	immediate = {
		clr_province_flag = reset_takenmid
	}
	option = {
		name = "EVTOPTA2873011"
		ai_chance = { factor = 50 }
		emperor = { relation = { who = THIS value = -100 } }
		set_province_flag = takenmid
		owner = {
			badboy = 1
			relation = { who = EMP value = -10 }
			change_variable = { which = hre_standing value = -10 }
			set_country_flag = notify_hre 	#if meddling in the HRE, always send notifications
			random_owned = {
				limit = { owner = { ai = yes } }
				owner = {
					remove_country_modifier = at_peace
					add_country_modifier = {
						name = "at_peace"
						duration = 36500	#100 years
					}
				}
			}
			random_owned = {
				limit = { owner = { ai = no } }
				owner = {
					remove_country_modifier = at_peace
					add_country_modifier = {
						name = "at_peace"
						duration = 18250	#50 years
					}
				}
			}
		}
		EMP = { prestige = -0.02 }
	}
	option = {
		name = "EVTOPTB116600"
		ai_chance = { factor = 50 }
		random_country = {
			limit = {
				is_emperor = yes
				NOT = { capital_scope = { owned_by = THIS } }
				ai = yes
				THIS = { has_province_flag = targeted_by_emperor_conquer_prov }
			}
			THIS = {
				clr_province_flag = targeted_by_emperor_conquer_prov
				set_province_flag = un_conquer_prov
			}
			set_global_flag = un_conquer_prov
			country_event = 296000
		}
		clr_province_flag = takenmid
		owner = {
			prestige = +0.02
			badboy = -1
			country_event = 2850
		}
		any_country = {
			limit = {
				capital_scope = {
					hre = yes
					NOT = { owned_by = THIS }
				}
				num_of_cities = 1
				NOT = { relation = { who = THIS value = 60 } }
			}
			relation = { who = THIS value = 50 }
		}
		secede_province = RLD
		RLD = { country_event = 1130 }
		EMP = { prestige = 0.01 }
	}
}

###############################################################################################
#
#
# From "Reichslande.txt":	28.51.XX	Emperor (AI or human)
#
#
###############################################################################################

# CRITERIA
# Original HRE Province:		YES
# Currently in the HRE:			YES
# Part of Imperial Demesne:		NO
# Is a lien:				NO
# Emperor has qualifications
#  to add provinces to Demesne:		NO
# Previously in non-Christian hands:	N/A
# Secret Alliance			NO

province_event = {

  	id = 2873101

	trigger = {
		NOT = { has_global_flag = HRE_reformation_war }
		NOT = { has_global_flag = HRE_social_revolution }
		hre = yes
		NOT = { is_core = THIS }
		EMP = {
			prestige = 0.25
			has_country_flag = circuits
		}
		region = hre_region
		NOT = { is_core = RLD }					#not part of Imperial Demesne
		NOT = { has_province_flag = make_core_rld }
		NOT = { has_province_flag = object_of_dispute }
		NOT = { has_province_flag = takenmid }
		NOT = { has_province_flag = reichsverweser }
		NOT = { has_province_modifier = custody }
		controlled_by = THIS
		NOT = { has_siege = yes }
		NOT = {
			any_neighbor_province = {
				owned_by = THIS
				controlled_by = THIS
				has_siege = yes
			}
		}
		NOT = { EMP = { prestige = 0.9 } }
		owner = {
			is_emperor = yes
			NOT = {
				OR = {
					AND = {
						ADM = 7
						DIP = 7
					}
					OR = {
						ADM = 8
						DIP = 8
					}
				}
			}
			NOT = { prestige = 0.99 }
		}
		any_neighbor_province = {				#Makes sure circuit matches
			NOT = { owned_by = THIS }
			owner = {
				has_country_flag = convener
				OR = {
					EMP = { has_country_modifier = reichsregiment }
					emperor = { capital_scope = { NOT = { hre = yes } } }	#may always step in against a foreign Emperor
					OR = {
						AND = { ADM = 5 emperor = { NOT = { ADM = 4 } } }
						AND = { ADM = 6 emperor = { NOT = { ADM = 5 } } }
						AND = { ADM = 7 emperor = { NOT = { ADM = 6 } } }
						AND = { ADM = 8 emperor = { NOT = { ADM = 7 } } }
						AND = { ADM = 9 emperor = { NOT = { ADM = 8 } } }
					}
					OR = {
						AND = { DIP = 5 emperor = { NOT = { DIP = 4 } } }
						AND = { DIP = 6 emperor = { NOT = { DIP = 5 } } }
						AND = { DIP = 7 emperor = { NOT = { DIP = 6 } } }
						AND = { DIP = 8 emperor = { NOT = { DIP = 7 } } }
						AND = { DIP = 9 emperor = { NOT = { DIP = 8 } } }
					}
				}
			}
			OR = {
				AND = {
					region = circuit_bavarian
					THIS = { region = circuit_bavarian }
				}
				AND = {
					region = circuit_austrian
					THIS = { region = circuit_austrian }
				}
				AND = {
					region = circuit_swabian
					THIS = { region = circuit_swabian }
				}
				AND = {
					region = circuit_franconian
					THIS = { region = circuit_franconian }
				}
				AND = {
					region = circuit_lower_rhine
					THIS = { region = circuit_lower_rhine }
				}
				AND = {
					region = circuit_middle_rhine
					THIS = { region = circuit_middle_rhine }
				}
				AND = {
					region = circuit_upper_rhine
					THIS = { region = circuit_upper_rhine }
				}
				AND = {
					region = circuit_lower_saxon
					THIS = { region = circuit_lower_saxon }
				}
				AND = {
					region = circuit_upper_saxon
					THIS = { region = circuit_upper_saxon }
				}
				AND = {
					region = circuit_burgundian
					THIS = { region = circuit_burgundian }
				}
				AND = {
					region = circuit_bohemian
					THIS = { region = circuit_bohemian }
				}
				AND = {
					region = circuit_italian
					THIS = { region = circuit_italian }
				}
			}
		}
# custodianship applies
		NOT = {
			AND = {
				has_owner_religion = no
				EMP = { idea = deus_vult }
				NOT = { religion = catholic }
				owner = {
					religion = catholic
					OR = {
						is_emperor = yes
						defender_of_faith = yes
						is_papal_controller = yes
						missionaries = 1
						innovative_narrowminded = 0
					}
				}
			}
		}
 	}

	mean_time_to_happen = {
			months = 4
			modifier = {
				factor = 0.5
				EMP = { has_country_modifier = reichsregiment }
			}		
			modifier = {
				factor = 16
				owner = { war = yes }
			}		
			modifier = {
				factor = 0.8
				EMP = { prestige = 0.9 }
			}
			modifier = {
				factor = 0.9
				EMP = { prestige = 0.6 }
			}
			modifier = {
				factor = 1.2
				emperor = { advisor = statesman }
			}
			modifier = {
				factor = 1.2
				emperor = { advisor = diplomat }
			}
			modifier = {
				factor = 1.2
				EMP = { prestige = 0.3 NOT = { prestige = 0.6 } }
			}
			modifier = {
				factor = 2
				EMP = { NOT = { prestige = 0.3 } }
			}
			modifier = {
				factor = 1.25
				EMP = { idea = deus_vult }
			}
			modifier = {
				factor = 0.8
				EMP = { idea = ecumenism }
			}
	}				

	title = "EVTNAME116600"
	desc = "EVTDESC2873101"

	immediate = {
		set_province_flag = takenmid
		clr_province_flag = reset_takenmid
	}
	option = {
		name = "EVTOPTA116600"
		ai_chance = { factor = 5 }
		owner = {			# twice in a row
			random_owned = {
				limit = { owner = { has_country_flag = bad_emperor } }
				owner = {
					set_country_flag = disgraced_emperor
					prestige = -0.01
					EMP = { prestige = -0.05 }
				}
			}
			relation = { who = EMP value = -20 }
			change_variable = { which = hre_standing value = -20 }
			set_country_flag = notify_hre 	#if meddling in the HRE, always send notifications
			random_owned = {
				limit = { owner = { ai = yes } }
				owner = {
					remove_country_modifier = at_peace
					add_country_modifier = {
						name = "at_peace"
						duration = 36500	#100 years
					}
				}
			}
			random_owned = {
				limit = { owner = { ai = no } }
				owner = {
					remove_country_modifier = at_peace
					add_country_modifier = {
						name = "at_peace"
						duration = 18250	#50 years
					}
				}
			}
		}
		owner = { 
			badboy = 2
			prestige = -0.01
			set_country_flag = bad_emperor
		}
		EMP = { prestige = -0.05 }
		random_neighbor_province = {				#neighbor
			limit = {
				NOT = { owned_by = THIS }
				owner = {
					NOT = { relation = { who = THIS value = 100 } }
					NOT = { num_of_cities = 4 }
				}
			}
			owner = { relation = { who = THIS value = -200 } }
		}
		any_country = {						# 1-province HRE countries
			limit = {
				capital_scope = { hre = yes }
				NOT = { relation = { who = THIS value = 180 } }
				NOT = { elector = yes }
				num_of_cities = 1
				NOT = { num_of_cities = 2 }
			}			
			relation = { who = THIS value = -80 }
		}
		any_country = {						# 2-3-province HRE countries
			limit = {
				capital_scope = { hre = yes }
				NOT = { relation = { who = THIS value = 180 } }
				NOT = { elector = yes }
				num_of_cities = 2
				NOT = { num_of_cities = 4 }
			}			
			relation = { who = THIS value = -50 }
		}
		random_country = {					# 4+ province HRE country
			limit = {
				capital_scope = { hre = yes }
				NOT = { relation = { who = THIS value = 180 } }
				num_of_cities = 4
				NOT = { elector = yes }
			}			
			relation = { who = THIS value = -50 }
			casus_belli = THIS
		}
		random_country = {					# elector, cb
			limit = {
				elector = yes
				NOT = { relation = { who = THIS value = 100 } }
				num_of_cities = 5
			}			
			relation = { who = THIS value = -50 }
			casus_belli = THIS
		}
		any_country = {						# electors, relations
			limit = {
				elector = yes
				NOT = { relation = { who = THIS value = 180 } }
				num_of_cities = 1
			}			
			relation = { who = THIS value = -30 }
		}
		set_province_flag = takenmid 			# final word - no further consequences
	 	set_province_flag = non_core_base
		add_province_modifier = { 
			name = "non_core_timer"
			duration = 36500 # 100 years
		}
	}
	option = {
		name = "EVTOPTB116600"
		ai_chance = { factor = 95 }
		clr_province_flag = takenmid
		owner = {
			prestige = +0.05
			badboy = -2
			random_owned = {
				limit = { owner = { NOT = { has_country_flag = disgraced_emperor } } }
				owner = { clr_country_flag = bad_emperor }
			}
			random_owned = {
				limit = { owner = { has_country_flag = disgraced_emperor } }
				owner = { clr_country_flag = disgraced_emperor }
			}
		}
		EMP = { prestige = 0.01 }
		any_country = {
			limit = {
				capital_scope = {
					hre = yes
					NOT = { owned_by = THIS }
				}
				num_of_cities = 1
				NOT = { relation = { who = THIS value = 60 } }
				NOT = { has_country_flag = supports_rival }
				NOT = { has_country_flag = rival_of_emperor }
				NOT = { overlord = { has_country_flag = supports_rival } }
				NOT = { overlord = { has_country_flag = rival_of_emperor } }
				NOT = { ally = { has_country_flag = supports_rival } }
				NOT = { ally = { has_country_flag = rival_of_emperor } }
				OR = {
					religion = THIS
					EMP = { idea = ecumenism }
				}
			}
			relation = { who = THIS value = 50 }
		}
		secede_province = RLD
		RLD = { country_event = 1130 }
	}
}
# CRITERIA
# Original HRE Province:		YES
# Currently in the HRE:			YES
# Part of Imperial Demesne:		NO
# Is a lien:				NO
# Emperor has qualifications
#  to add provinces to Demesne:		YES
# Previously in non-Christian hands:	N/A
# Secret Alliance			NO

province_event = {

  	id = 2873102

	trigger = {
		NOT = { has_global_flag = HRE_reformation_war }
		NOT = { has_global_flag = HRE_social_revolution }
		hre = yes
		NOT = { is_core = THIS }
		EMP = {
			prestige = 0.25
			has_country_flag = circuits
		}
		region = hre_region
		NOT = { is_core = RLD }					#not part of Imperial Demesne
		NOT = { has_province_flag = make_core_rld }
		NOT = { has_province_flag = object_of_dispute }
		NOT = { has_province_flag = takenmid }
		NOT = { has_province_flag = reichsverweser }
		NOT = { has_province_modifier = custody }
		EMP = { prestige = 0.25 }
		controlled_by = THIS
		NOT = { has_siege = yes }
		NOT = {
			any_neighbor_province = {
				owned_by = THIS
				controlled_by = THIS
				has_siege = yes
			}
		}
		owner = {
			is_emperor = yes
			OR = {
				AND = {
					ADM = 7
					DIP = 7
				}
				OR = {
					ADM = 8
					DIP = 8
				}
				EMP = { prestige = 0.9 }
				AND = {
					NOT = { ai = yes }
					OR = {
						EMP = { prestige = 0.6 }
						AND = {
							ADM = 6
							DIP = 6
						}
						OR = {
							ADM = 7
							DIP = 7
						}
					}
				}
				diplomat = 5
				statesman = 5
				prestige = 0.9
			}
		}
		any_neighbor_province = {				#Makes sure circuit matches
			NOT = { owned_by = THIS }
			owner = {
				has_country_flag = convener
				OR = {
					EMP = { has_country_modifier = reichsregiment }
					emperor = { capital_scope = { NOT = { hre = yes } } }	#may always step in against a foreign Emperor
					OR = {
						AND = { ADM = 5 emperor = { NOT = { ADM = 4 } } }
						AND = { ADM = 6 emperor = { NOT = { ADM = 5 } } }
						AND = { ADM = 7 emperor = { NOT = { ADM = 6 } } }
						AND = { ADM = 8 emperor = { NOT = { ADM = 7 } } }
						AND = { ADM = 9 emperor = { NOT = { ADM = 8 } } }
					}
					OR = {
						AND = { DIP = 5 emperor = { NOT = { DIP = 4 } } }
						AND = { DIP = 6 emperor = { NOT = { DIP = 5 } } }
						AND = { DIP = 7 emperor = { NOT = { DIP = 6 } } }
						AND = { DIP = 8 emperor = { NOT = { DIP = 7 } } }
						AND = { DIP = 9 emperor = { NOT = { DIP = 8 } } }
					}
				}
			}
			OR = {
				AND = {
					region = circuit_bavarian
					THIS = { region = circuit_bavarian }
				}
				AND = {
					region = circuit_austrian
					THIS = { region = circuit_austrian }
				}
				AND = {
					region = circuit_swabian
					THIS = { region = circuit_swabian }
				}
				AND = {
					region = circuit_franconian
					THIS = { region = circuit_franconian }
				}
				AND = {
					region = circuit_lower_rhine
					THIS = { region = circuit_lower_rhine }
				}
				AND = {
					region = circuit_middle_rhine
					THIS = { region = circuit_middle_rhine }
				}
				AND = {
					region = circuit_upper_rhine
					THIS = { region = circuit_upper_rhine }
				}
				AND = {
					region = circuit_lower_saxon
					THIS = { region = circuit_lower_saxon }
				}
				AND = {
					region = circuit_upper_saxon
					THIS = { region = circuit_upper_saxon }
				}
				AND = {
					region = circuit_burgundian
					THIS = { region = circuit_burgundian }
				}
				AND = {
					region = circuit_bohemian
					THIS = { region = circuit_bohemian }
				}
				AND = {
					region = circuit_italian
					THIS = { region = circuit_italian }
				}
			}
		}
# custodianship applies
		NOT = {
			AND = {
				has_owner_religion = no
				EMP = { idea = deus_vult }
				NOT = { religion = catholic }
				owner = {
					religion = catholic
					OR = {
						is_emperor = yes
						defender_of_faith = yes
						is_papal_controller = yes
						missionaries = 1
						innovative_narrowminded = 0
					}
				}
			}
		}
 	}

	mean_time_to_happen = {
			months = 4
			modifier = {
				factor = 0.5
				EMP = { has_country_modifier = reichsregiment }
			}		
			modifier = {
				factor = 16
				owner = { war = yes }
			}		
			modifier = {
				factor = 0.8
				EMP = { prestige = 0.9 }
			}
			modifier = {
				factor = 0.9
				EMP = { prestige = 0.6 }
			}
			modifier = {
				factor = 1.2
				emperor = { advisor = statesman }
			}
			modifier = {
				factor = 1.2
				emperor = { advisor = diplomat }
			}
			modifier = {
				factor = 1.2
				EMP = { prestige = 0.3 NOT = { prestige = 0.6 } }
			}
			modifier = {
				factor = 2
				EMP = { NOT = { prestige = 0.3 } }
			}
			modifier = {
				factor = 1.25
				EMP = { idea = deus_vult }
			}
			modifier = {
				factor = 0.8
				EMP = { idea = ecumenism }
			}
	}				

	title = "EVTNAME116600"
	desc = "EVTDESC2873101"

	immediate = {
		set_province_flag = takenmid
		clr_province_flag = reset_takenmid
	}
	option = {
		name = "EVTOPTA116600"
		ai_chance = { factor = 20 }
		owner = {			# twice in a row
			random_owned = {
				limit = { owner = { has_country_flag = bad_emperor } }
				owner = {
					set_country_flag = disgraced_emperor
					prestige = -0.01
					EMP = { prestige = -0.05 }
				}
			}
			relation = { who = EMP value = -20 }
			change_variable = { which = hre_standing value = -20 }
			set_country_flag = notify_hre 	#if meddling in the HRE, always send notifications
			random_owned = {
				limit = { owner = { ai = yes } }
				owner = {
					remove_country_modifier = at_peace
					add_country_modifier = {
						name = "at_peace"
						duration = 36500	#100 years
					}
				}
			}
			random_owned = {
				limit = { owner = { ai = no } }
				owner = {
					remove_country_modifier = at_peace
					add_country_modifier = {
						name = "at_peace"
						duration = 18250	#50 years
					}
				}
			}
		}
		owner = { 
			badboy = 2
			prestige = -0.01
			set_country_flag = bad_emperor
		}
		EMP = { prestige = -0.05 }
		random_neighbor_province = {				#neighbor
			limit = {
				NOT = { owned_by = THIS }
				owner = {
					NOT = { relation = { who = THIS value = 100 } }
					NOT = { num_of_cities = 4 }
				}
			}
			owner = { relation = { who = THIS value = -200 } }
		}
		any_country = {						# 1-province HRE countries
			limit = {
				capital_scope = { hre = yes }
				NOT = { relation = { who = THIS value = 180 } }
				NOT = { elector = yes }
				num_of_cities = 1
				NOT = { num_of_cities = 2 }
			}			
			relation = { who = THIS value = -80 }
		}
		any_country = {						# 2-3-province HRE countries
			limit = {
				capital_scope = { hre = yes }
				NOT = { relation = { who = THIS value = 180 } }
				NOT = { elector = yes }
				num_of_cities = 2
				NOT = { num_of_cities = 4 }
			}			
			relation = { who = THIS value = -50 }
		}
		random_country = {					# 4+ province HRE country
			limit = {
				capital_scope = { hre = yes }
				NOT = { relation = { who = THIS value = 180 } }
				num_of_cities = 4
				NOT = { elector = yes }
			}			
			relation = { who = THIS value = -50 }
			casus_belli = THIS
		}
		random_country = {					# elector, cb
			limit = {
				elector = yes
				NOT = { relation = { who = THIS value = 100 } }
				num_of_cities = 5
			}			
			relation = { who = THIS value = -50 }
			casus_belli = THIS
		}
		any_country = {						# electors, relations
			limit = {
				elector = yes
				NOT = { relation = { who = THIS value = 180 } }
				num_of_cities = 1
			}			
			relation = { who = THIS value = -30 }
		}
		set_province_flag = takenmid 			# final word - no further consequences
	 	set_province_flag = non_core_base
		add_province_modifier = { 
			name = "non_core_timer"
			duration = 36500 # 100 years
		}
	}
	option = {
		name = "EVTOPTB116600"
		ai_chance = { factor = 80 }
		clr_province_flag = takenmid
		owner = {
			prestige = +0.05
			badboy = -2
			random_owned = {
				limit = { owner = { NOT = { has_country_flag = disgraced_emperor } } }
				owner = { clr_country_flag = bad_emperor }
			}
			random_owned = {
				limit = { owner = { has_country_flag = disgraced_emperor } }
				owner = { clr_country_flag = disgraced_emperor }
			}
		}
		any_country = {
			limit = {
				capital_scope = {
					hre = yes
					NOT = { owned_by = THIS }
				}
				num_of_cities = 1
				NOT = { relation = { who = THIS value = 60 } }
				NOT = { has_country_flag = supports_rival }
				NOT = { has_country_flag = rival_of_emperor }
				NOT = { overlord = { has_country_flag = supports_rival } }
				NOT = { overlord = { has_country_flag = rival_of_emperor } }
				NOT = { ally = { has_country_flag = supports_rival } }
				NOT = { ally = { has_country_flag = rival_of_emperor } }
				OR = {
					religion = THIS
					EMP = { idea = ecumenism }
				}
			}
			relation = { who = THIS value = 50 }
		}
		secede_province = RLD
		RLD = { country_event = 1130 }
		EMP = { prestige = 0.01 }
	}
}