######################################
# THE EDO PERIOD (Tokugawa Shogunate) #
#######################################

#80 East Asia + 6 Japan + 2 Edo Period + xx

###############################
# Establishment of the Bakufu #
###############################

#01 Outer Lords
#02 Fate of the $COUNTRY$ (AI only)
#03 Inner Lords
#04 The Samurai
#05 The Sword Hunt (Katanagari)
#06 Attempted Coup
#07 Japanese Land Survey
#08 Japanese Foreign Policy
#09 The Rotation System
#10 Japanese Buddhism (REMOVED)
#11 Japanese Christians
#12 Expulsion of the Kirishitan
#13 Cash Economy
#14 Decline of the $COUNTRY$

# 	-	-	-	-	-	-	-	-	-	-	-	-	-	-	-	-	#

###############################
# Establishment of the Bakufu #
###############################

#01 Outer Lords
#02 Fate of the $COUNTRY$
#03 Inner Lords
#04 The Samurai
#05 The Sword Hunt (Katanagari)
#06 Attempted Coup
#07 Japanese Land Survey
#08 Japanese Foreign Policy
#09 The Rotation System
#10 Japanese Buddhism (REMOVED)
#11 Japanese Christians
#12 Expulsion of the Kirishitan
#13 Cash Economy
#14 Decline of the $COUNTRY$

country_event = { #Outer Lords

id = 806201

trigger = {
	OR = { primary_culture = azuma primary_culture = kyushu primary_culture = yamato has_country_flag = japanese_fief }
	NOT = { religion_group = pagan }
	has_country_flag = unification
	has_country_flag = japanese_capital
	NOT = { has_country_flag = outer_lords }
	OR = { 
		manpower_percentage = 0.05
		NOT = { any_owned_province = { has_siege = yes } }
		}
	NOT = { war_exhaustion = 8 }
	NOT = { war = yes }
	NOT = { any_owned_province = { has_siege = yes } }
	NOT = { any_owned_province = { controller = { tag = REB } } }
	}

mean_time_to_happen = { 

	months = 3
	
	} 

title = "EVTNAME806201"
desc = "EVTDESC806201"

immediate = { 
	JAP = { set_country_flag = recalculating_fiefs }
	any_owned = { 
		limit = {
			culture_group = japanese
			JAP = { has_country_flag = recalculating_fiefs }
			NOT = { has_province_modifier = very_small_fief }
			NOT = { has_province_modifier = small_fief }
			NOT = { has_province_modifier = large_fief }
			NOT = { has_province_modifier = very_large_fief }
			check_variable = { which = province_division value = 3.99 }
			}
		add_province_modifier = { name = "very_small_fief" duration = -1 }
		}
	any_owned = { 
		limit = {
			culture_group = japanese
			JAP = { has_country_flag = recalculating_fiefs }
			NOT = { has_province_modifier = very_small_fief }
			NOT = { has_province_modifier = small_fief }
			NOT = { has_province_modifier = large_fief }
			NOT = { has_province_modifier = very_large_fief }
			check_variable = { which = province_division value = 2.99 }
			NOT = { check_variable = { which = province_division value = 3.99 } }
			}
		add_province_modifier = { name = "small_fief" duration = -1 }
		}
	any_owned = { 
		limit = {
			culture_group = japanese
			JAP = { has_country_flag = recalculating_fiefs }
			NOT = { has_province_modifier = very_small_fief }
			NOT = { has_province_modifier = small_fief }
			NOT = { has_province_modifier = large_fief }
			NOT = { has_province_modifier = very_large_fief }
			check_variable = { which = province_division value = 1.99 }
			NOT = { check_variable = { which = province_division value = 2.99 } }
			}
		add_province_modifier = { name = "large_fief" duration = -1 }
		}
	any_owned = { 
		limit = {
			culture_group = japanese
			JAP = { has_country_flag = recalculating_fiefs }
			NOT = { has_province_modifier = very_small_fief }
			NOT = { has_province_modifier = small_fief }
			NOT = { has_province_modifier = large_fief }
			NOT = { has_province_modifier = very_large_fief }
			check_variable = { which = province_division value = 0.99 }
			NOT = { check_variable = { which = province_division value = 1.99 } }
			}
		add_province_modifier = { name = "very_large_fief" duration = -1 }
		}
	JAP = { clr_country_flag = recalculating_fiefs }
	}

option = {
	name = "EVTOPTA806201"
	ai_chance = { factor = 80 }
	random_owned = { 
		limit = { owner = { stability = 3 } }
		owner = { prestige = 0.05 }
		}
	random_owned = { 
		limit = { owner = { NOT = { stability = 3 } } }
		owner = { stability = 1 }
		}
	random_owned = { 
		limit = { 
			owner = { 
				has_country_flag = outer_lords_kansai
				has_country_flag = outer_lords_chubu
				has_country_flag = outer_lords_chugoku
				has_country_flag = outer_lords_kanto
				has_country_flag = outer_lords_kyushu
				} 
			}
		owner = { capital_scope = { noble_rebels = 0 } }
		owner = { 
			set_country_flag = outer_lords_tohoku
			random_owned = { 
				limit = { 
					is_core = NNB
					NOT = { exists = NNB }
					NOT = { owner = { relation = { who = NNB value = 150 } } }
					NNB = { has_country_flag = society }
					}
				NNB = { country_event = 806202 }
				}
			random_owned = { 
				limit = { 
					is_core = NNB
					NOT = { exists = NNB }
					NNB = { NOT = { has_country_flag = society } }
					}
				noble_rebels = 0
				NNB = { country_event = 806214 }
				}
			random_owned = { 
				limit = { 
					is_core = DTE
					NOT = { exists = DTE }
					NOT = { owner = { relation = { who = DTE value = 150 } } }
					DTE = { has_country_flag = society }
					}
				DTE = { country_event = 806202 }
				}
			random_owned = { 
				limit = { 
					is_core = DTE
					NOT = { exists = DTE }
					DTE = { NOT = { has_country_flag = society } }
					}
				noble_rebels = 0
				DTE = { country_event = 806214 }
				}
			random_owned = { 
				limit = { 
					is_core = MGM
					NOT = { exists = MGM }
					NOT = { owner = { relation = { who = MGM value = 150 } } }
					MGM = { has_country_flag = society }
					}
				MGM = { country_event = 806202 }
				}
			random_owned = { 
				limit = { 
					is_core = MGM
					NOT = { exists = MGM }
					MGM = { NOT = { has_country_flag = society } }
					}
				MGM = { country_event = 806214 }
				}
			random_owned = { 
				limit = { 
					is_core = ASN
					NOT = { exists = ASN }
					NOT = { owner = { relation = { who = ASN value = 150 } } }
					ASN = { has_country_flag = society }
					}
				ASN = { country_event = 806202 }
				}
			random_owned = { 
				limit = { 
					is_core = ASN
					NOT = { exists = ASN }
					ASN = { NOT = { has_country_flag = society } }
					}
				noble_rebels = 0
				ASN = { country_event = 806214 }
				}
			clr_country_flag = outer_lords_kansai
			clr_country_flag = outer_lords_chubu
			clr_country_flag = outer_lords_chugoku
			clr_country_flag = outer_lords_kanto
			clr_country_flag = outer_lords_kyushu
			clr_country_flag = outer_lords_tohoku
			set_country_flag = outer_lords
			}
		}
	random_owned = { 
		limit = { 
			owner = { 
				has_country_flag = outer_lords_kansai
				has_country_flag = outer_lords_chubu
				has_country_flag = outer_lords_chugoku
				has_country_flag = outer_lords_kanto
				NOT = { has_country_flag = outer_lords_kyushu }
				} 
			}
		owner = { capital_scope = { noble_rebels = 0 } }
		owner = { 
			set_country_flag = outer_lords_kyushu
			random_owned = { 
				limit = { 
					is_core = RZJ
					NOT = { exists = RZJ }
					NOT = { owner = { relation = { who = RZJ value = 150 } } }
					RZJ = { has_country_flag = society }
					}
				RZJ = { country_event = 806202 }
				}
			random_owned = { 
				limit = { 
					is_core = RZJ
					NOT = { exists = RZJ }
					RZJ = { NOT = { has_country_flag = society } }
					}
				noble_rebels = 0
				RZJ = { country_event = 806214 }
				}
			random_owned = { 
				limit = { 
					is_core = OTM
					NOT = { exists = OTM }
					NOT = { owner = { relation = { who = OTM value = 150 } } }
					OTM = { has_country_flag = society }
					}
				OTM = { country_event = 806202 }
				}
			random_owned = { 
				limit = { 
					is_core = OTM
					NOT = { exists = OTM }
					OTM = { NOT = { has_country_flag = society } }
					}
				noble_rebels = 0
				OTM = { country_event = 806214 }
				}
			random_owned = { 
				limit = { 
					is_core = SHN
					NOT = { exists = SHN }
					NOT = { owner = { relation = { who = SHN value = 150 } } }
					SHN = { has_country_flag = society }
					}
				SHN = { country_event = 806202 }
				}
			random_owned = { 
				limit = { 
					is_core = SHN
					NOT = { exists = SHN }
					SHN = { NOT = { has_country_flag = society } }
					}
				noble_rebels = 0
				SHN = { country_event = 806214 }
				}
			random_owned = { 
				limit = { 
					is_core = SMZ
					NOT = { exists = SMZ }
					NOT = { owner = { relation = { who = SMZ value = 150 } } }
					SMZ = { has_country_flag = society }
					}
				SMZ = { country_event = 806202 }
				}
			random_owned = { 
				limit = { 
					is_core = SMZ
					NOT = { exists = SMZ }
					SMZ = { NOT = { has_country_flag = society } }
					}
				noble_rebels = 0
				SMZ = { country_event = 806214 }
				}
			}
		}
	random_owned = { 
		limit = { 
			owner = { 
				has_country_flag = outer_lords_kansai
				has_country_flag = outer_lords_chubu
				has_country_flag = outer_lords_chugoku
				NOT = { has_country_flag = outer_lords_kanto }
				} 
			}
		owner = { capital_scope = { noble_rebels = 0 } }
		owner = { 
			set_country_flag = outer_lords_kanto
			random_owned = { 
				limit = { 
					is_core = TKD
					NOT = { exists = TKD }
					NOT = { owner = { relation = { who = TKD value = 150 } } }
					TKD = { has_country_flag = society }
					}
				TKD = { country_event = 806202 }
				}
			random_owned = { 
				limit = { 
					is_core = TKD
					NOT = { exists = TKD }
					TKD = { NOT = { has_country_flag = society } }
					}
				noble_rebels = 0
				TKD = { country_event = 806214 }
				}
			random_owned = { 
				limit = { 
					is_core = STM
					NOT = { exists = STM }
					NOT = { owner = { relation = { who = STM value = 150 } } }
					STM = { has_country_flag = society }
					}
				STM = { country_event = 806202 }
				}
			random_owned = { 
				limit = { 
					is_core = STM
					NOT = { exists = STM }
					STM = { NOT = { has_country_flag = society } }
					}
				noble_rebels = 0
				STM = { country_event = 806214 }
				}
			random_owned = { 
				limit = { 
					is_core = HJO
					NOT = { exists = HJO }
					NOT = { owner = { relation = { who = HJO value = 150 } } }
					HJO = { has_country_flag = society }
					}
				HJO = { country_event = 806202 }
				}
			random_owned = { 
				limit = { 
					is_core = HJO
					NOT = { exists = HJO }
					HJO = { NOT = { has_country_flag = society } }
					}
				noble_rebels = 0
				HJO = { country_event = 806214 }
				}
			random_owned = { 
				limit = { 
					is_core = MIY
					NOT = { exists = MIY }
					NOT = { owner = { relation = { who = MIY value = 150 } } }
					MIY = { has_country_flag = society }
					}
				MIY = { country_event = 806202 }
				}
			random_owned = { 
				limit = { 
					is_core = MIY
					NOT = { exists = MIY }
					MIY = { NOT = { has_country_flag = society } }
					}
				noble_rebels = 0
				MIY = { country_event = 806214 }
				}
			}
		}
	random_owned = { 
		limit = { 
			owner = { 
				has_country_flag = outer_lords_kansai
				has_country_flag = outer_lords_chubu
				NOT = { has_country_flag = outer_lords_chugoku } 
				} 
			}
		owner = { capital_scope = { noble_rebels = 0 } }
		owner = { 
			set_country_flag = outer_lords_chugoku
			random_owned = { 
				limit = { 
					is_core = OUC
					NOT = { exists = OUC }
					NOT = { owner = { relation = { who = OUC value = 150 } } }
					OUC = { has_country_flag = society }
					}
				OUC = { country_event = 806202 }
				}
			random_owned = { 
				limit = { 
					is_core = OUC
					NOT = { exists = OUC }
					OUC = { NOT = { has_country_flag = society } }
					}
				noble_rebels = 0
				OUC = { country_event = 806214 }
				}
			random_owned = { 
				limit = { 
					is_core = AKM
					NOT = { exists = AKM }
					NOT = { owner = { relation = { who = AKM value = 150 } } }
					AKM = { has_country_flag = society }
					}
				AKM = { country_event = 806202 }
				}
			random_owned = { 
				limit = { 
					is_core = AKM
					NOT = { exists = AKM }
					AKM = { NOT = { has_country_flag = society } }
					}
				noble_rebels = 0
				AKM = { country_event = 806214 }
				}
			random_owned = { 
				limit = { 
					is_core = MRI
					NOT = { exists = MRI }
					NOT = { owner = { relation = { who = MRI value = 150 } } }
					MRI = { has_country_flag = society }
					}
				MRI = { country_event = 806202 }
				}
			random_owned = { 
				limit = { 
					is_core = MRI
					NOT = { exists = MRI }
					MRI = { NOT = { has_country_flag = society } }
					}
				noble_rebels = 0
				MRI = { country_event = 806214 }
				}
			random_owned = { 
				limit = { 
					is_core = ANG
					NOT = { exists = ANG }
					NOT = { owner = { relation = { who = ANG value = 150 } } }
					ANG = { has_country_flag = society }
					}
				ANG = { country_event = 806202 }
				}
			random_owned = { 
				limit = { 
					is_core = ANG
					NOT = { exists = ANG }
					ANG = { NOT = { has_country_flag = society } }
					}
				noble_rebels = 0
				ANG = { country_event = 806214 }
				}
			random_owned = { 
				limit = { 
					is_core = CSK
					NOT = { exists = CSK }
					NOT = { owner = { relation = { who = CSK value = 150 } } }
					CSK = { has_country_flag = society }
					}
				CSK = { country_event = 806202 }
				}
			random_owned = { 
				limit = { 
					is_core = CSK
					NOT = { exists = CSK }
					CSK = { NOT = { has_country_flag = society } }
					}
				noble_rebels = 0
				CSK = { country_event = 806214 }
				}
			random_owned = { 
				limit = { 
					is_core = KNO
					NOT = { exists = KNO }
					NOT = { owner = { relation = { who = KNO value = 150 } } }
					KNO = { has_country_flag = society }
					}
				KNO = { country_event = 806202 }
				}
			random_owned = { 
				limit = { 
					is_core = KNO
					NOT = { exists = KNO }
					KNO = { NOT = { has_country_flag = society } }
					}
				noble_rebels = 0
				KNO = { country_event = 806214 }
				}
			}
		}
	random_owned = { 
		limit = { 
			owner = { 
				has_country_flag = outer_lords_kansai
				NOT = { has_country_flag = outer_lords_chubu } 
				} 
			}
		owner = { capital_scope = { noble_rebels = 0 } }
		owner = { 
			set_country_flag = outer_lords_chubu
			random_owned = { 
				limit = { 
					is_core = IGW
					NOT = { exists = IGW }
					NOT = { owner = { relation = { who = IGW value = 150 } } }
					IGW = { has_country_flag = society }
					}
				IGW = { country_event = 806202 }
				}
			random_owned = { 
				limit = { 
					is_core = IGW
					NOT = { exists = IGW }
					IGW = { NOT = { has_country_flag = society } }
					}
				noble_rebels = 0
				IGW = { country_event = 806214 }
				}
			random_owned = { 
				limit = { 
					is_core = TGW
					NOT = { exists = TGW }
					NOT = { owner = { relation = { who = TGW value = 150 } } }
					TGW = { has_country_flag = society }
					}
				TGW = { country_event = 806202 }
				}
			random_owned = { 
				limit = { 
					is_core = TGW
					NOT = { exists = TGW }
					TGW = { NOT = { has_country_flag = society } }
					}
				noble_rebels = 0
				TGW = { country_event = 806214 }
				}
			random_owned = { 
				limit = { 
					is_core = TKI
					NOT = { exists = TKI }
					NOT = { owner = { relation = { who = TKI value = 150 } } }
					TKI = { has_country_flag = society }
					}
				TKI = { country_event = 806202 }
				}
			random_owned = { 
				limit = { 
					is_core = TKI
					NOT = { exists = TKI }
					TKI = { NOT = { has_country_flag = society } }
					}
				noble_rebels = 0
				TKI = { country_event = 806214 }
				}
			random_owned = { 
				limit = { 
					is_core = ASK
					NOT = { exists = ASK }
					NOT = { owner = { relation = { who = ASK value = 150 } } }
					ASK = { has_country_flag = society }
					}
				ASK = { country_event = 806202 }
				}
			random_owned = { 
				limit = { 
					is_core = ASK
					NOT = { exists = ASK }
					ASK = { NOT = { has_country_flag = society } }
					}
				noble_rebels = 0
				ASK = { country_event = 806214 }
				}
			random_owned = { 
				limit = { 
					is_core = USG
					NOT = { exists = USG }
					NOT = { owner = { relation = { who = USG value = 150 } } }
					USG = { has_country_flag = society }
					}
				USG = { country_event = 806202 }
				}
			random_owned = { 
				limit = { 
					is_core = USG
					NOT = { exists = USG }
					USG = { NOT = { has_country_flag = society } }
					}
				noble_rebels = 0
				USG = { country_event = 806214 }
				}
			}
		}
	random_owned = { 
		limit = { 
			owner = { 
				NOT = { has_country_flag = outer_lords_kansai } 
				} 
			}
		owner = { capital_scope = { noble_rebels = 0 } }
		owner = { 
			set_country_flag = outer_lords_kansai
			random_owned = { 
				limit = { 
					is_core = AKG
					NOT = { exists = AKG }
					NOT = { owner = { relation = { who = AKG value = 150 } } }
					AKG = { has_country_flag = society }
					}
				AKG = { country_event = 806202 }
				}
			random_owned = { 
				limit = { 
					is_core = AKG
					NOT = { exists = AKG }
					AKG = { NOT = { has_country_flag = society } }
					}
				noble_rebels = 0
				AKG = { country_event = 806214 }
				}
			random_owned = { 
				limit = { 
					is_core = HKW
					NOT = { exists = HKW }
					NOT = { owner = { relation = { who = HKW value = 150 } } }
					HKW = { has_country_flag = society }
					}
				HKW = { country_event = 806202 }
				}
			random_owned = { 
				limit = { 
					is_core = HKW
					NOT = { exists = HKW }
					HKW = { NOT = { has_country_flag = society } }
					}
				noble_rebels = 0
				HKW = { country_event = 806214 }
				}
			random_owned = { 
				limit = { 
					is_core = YMN
					NOT = { exists = YMN }
					NOT = { owner = { relation = { who = YMN value = 150 } } }
					YMN = { has_country_flag = society }
					}
				YMN = { country_event = 806202 }
				}
			random_owned = { 
				limit = { 
					is_core = YMN
					NOT = { exists = YMN }
					YMN = { NOT = { has_country_flag = society } }
					}
				noble_rebels = 0
				YMN = { country_event = 806214 }
				}
			random_owned = { 
				limit = { 
					is_core = ODA
					NOT = { exists = ODA }
					NOT = { owner = { relation = { who = ODA value = 150 } } }
					ODA = { has_country_flag = society }
					}
				ODA = { country_event = 806202 }
				}
			random_owned = { 
				limit = { 
					is_core = ODA
					NOT = { exists = ODA }
					ODA = { NOT = { has_country_flag = society } }
					}
				noble_rebels = 0
				ODA = { country_event = 806214 }
				}
			random_owned = { 
				limit = { 
					is_core = HTK
					NOT = { exists = HTK }
					NOT = { owner = { relation = { who = HTK value = 150 } } }
					HTK = { has_country_flag = society }
					}
				HTK = { country_event = 806202 }
				}
			random_owned = { 
				limit = { 
					is_core = HTK
					NOT = { exists = HTK }
					HTK = { NOT = { has_country_flag = society } }
					}
				noble_rebels = 0
				HTK = { country_event = 806214 }
				}
			}
		}
	}
option = {
	name = "EVTOPTB806201"
	ai_chance = { factor = 20 }
	prestige = -0.05
	centralization_decentralization = 1
	aristocracy_plutocracy = -1
	random_owned = { 
		limit = { 
			owner = { 
				has_country_flag = outer_lords_kansai
				has_country_flag = outer_lords_chubu
				has_country_flag = outer_lords_chugoku
				has_country_flag = outer_lords_kanto
				has_country_flag = outer_lords_kyushu
				} 
			region = kanto
			}
		base_tax = -1
		owner = { 
			set_country_flag = outer_lords_tohoku
			random_owned = { 
				limit = { 
					is_core = NNB
					NOT = { exists = NNB }
					OR = { NOT = { owner = { relation = { who = NNB value = 150 } } } NOT = { NNB = { has_country_flag = society } } }
					}
				NNB = { country_event = 806214 }
				}
			random_owned = { 
				limit = { 
					is_core = DTE
					NOT = { exists = DTE }
					OR = { NOT = { owner = { relation = { who = DTE value = 150 } } } NOT = { DTE = { has_country_flag = society } } }
					}
				DTE = { country_event = 806214 }
				}
			random_owned = { 
				limit = { 
					is_core = MGM
					NOT = { exists = MGM }
					OR = { NOT = { owner = { relation = { who = MGM value = 150 } } } NOT = { MGM = { has_country_flag = society } } }
					}
				MGM = { country_event = 806214 }
				}
			random_owned = { 
				limit = { 
					is_core = ASN
					NOT = { exists = ASN }
					OR = { NOT = { owner = { relation = { who = ASN value = 150 } } } NOT = { ASN = { has_country_flag = society } } }
					}
				ASN = { country_event = 806214 }
				}
			clr_country_flag = outer_lords_kansai
			clr_country_flag = outer_lords_chubu
			clr_country_flag = outer_lords_chugoku
			clr_country_flag = outer_lords_kanto
			clr_country_flag = outer_lords_kyushu
			clr_country_flag = outer_lords_tohoku
			set_country_flag = outer_lords
			}
		}
	random_owned = { 
		limit = { 
			owner = { 
				has_country_flag = outer_lords_kansai
				has_country_flag = outer_lords_chubu
				has_country_flag = outer_lords_chugoku
				has_country_flag = outer_lords_kanto
				NOT = { has_country_flag = outer_lords_kyushu }
				} 
			region = kyushu
			}
		base_tax = -1
		owner = { 
			set_country_flag = outer_lords_kyushu
			random_owned = { 
				limit = { 
					is_core = RZJ
					NOT = { exists = RZJ }
					OR = { NOT = { owner = { relation = { who = RZJ value = 150 } } } NOT = { RZJ = { has_country_flag = society } } }
					}
				RZJ = { country_event = 806214 }
				}
			random_owned = { 
				limit = { 
					is_core = OTM
					NOT = { exists = OTM }
					OR = { NOT = { owner = { relation = { who = OTM value = 150 } } } NOT = { OTM = { has_country_flag = society } } }
					}
				OTM = { country_event = 806214 }
				}
			random_owned = { 
				limit = { 
					is_core = SHN
					NOT = { exists = SHN }
					OR = { NOT = { owner = { relation = { who = SHN value = 150 } } } NOT = { SHN = { has_country_flag = society } } }
					}
				SHN = { country_event = 806214 }
				}
			random_owned = { 
				limit = { 
					is_core = SMZ
					NOT = { exists = SMZ }
					OR = { NOT = { owner = { relation = { who = SMZ value = 150 } } } NOT = { SMZ = { has_country_flag = society } } }
					}
				SMZ = { country_event = 806214 }
				}
			}
		}
	random_owned = { 
		limit = { 
			owner = { 
				has_country_flag = outer_lords_kansai
				has_country_flag = outer_lords_chubu
				has_country_flag = outer_lords_chugoku
				NOT = { has_country_flag = outer_lords_kanto }
				} 
			region = kanto
			}
		base_tax = -1
		owner = { 
			set_country_flag = outer_lords_kanto
			random_owned = { 
				limit = { 
					is_core = TKD
					NOT = { exists = TKD }
					OR = { NOT = { owner = { relation = { who = TKD value = 150 } } } NOT = { TKD = { has_country_flag = society } } }
					}
				TKD = { country_event = 806214 }
				}
			random_owned = { 
				limit = { 
					is_core = STM
					NOT = { exists = STM }
					OR = { NOT = { owner = { relation = { who = STM value = 150 } } } NOT = { STM = { has_country_flag = society } } }
					}
				STM = { country_event = 806214 }
				}
			random_owned = { 
				limit = { 
					is_core = HJO
					NOT = { exists = HJO }
					OR = { NOT = { owner = { relation = { who = HJO value = 150 } } } NOT = { HJO = { has_country_flag = society } } }
					}
				HJO = { country_event = 806214 }
				}
			random_owned = { 
				limit = { 
					is_core = MIY
					NOT = { exists = MIY }
					OR = { NOT = { owner = { relation = { who = MIY value = 150 } } } NOT = { MIY = { has_country_flag = society } } }
					}
				MIY = { country_event = 806214 }
				}
			}
		}
	random_owned = { 
		limit = { 
			owner = { 
				has_country_flag = outer_lords_kansai
				has_country_flag = outer_lords_chubu
				NOT = { has_country_flag = outer_lords_chugoku } 
				} 
			region = chugoku
			}
		base_tax = -1
		owner = { 
			set_country_flag = outer_lords_chugoku
			random_owned = { 
				limit = { 
					is_core = OUC
					NOT = { exists = OUC }
					OR = { NOT = { owner = { relation = { who = OUC value = 150 } } } NOT = { OUC = { has_country_flag = society } } }
					}
				OUC = { country_event = 806214 }
				}
			random_owned = { 
				limit = { 
					is_core = AKM
					NOT = { exists = AKM }
					OR = { NOT = { owner = { relation = { who = AKM value = 150 } } } NOT = { AKM = { has_country_flag = society } } }
					}
				AKM = { country_event = 806214 }
				}
			random_owned = { 
				limit = { 
					is_core = MRI
					NOT = { exists = MRI }
					OR = { NOT = { owner = { relation = { who = MRI value = 150 } } } NOT = { MRI = { has_country_flag = society } } }
					}
				MRI = { country_event = 806214 }
				}
			random_owned = { 
				limit = { 
					is_core = ANG
					NOT = { exists = ANG }
					OR = { NOT = { owner = { relation = { who = ANG value = 150 } } } NOT = { ANG = { has_country_flag = society } } }
					}
				ANG = { country_event = 806214 }
				}
			random_owned = { 
				limit = { 
					is_core = CSK
					NOT = { exists = CSK }
					OR = { NOT = { owner = { relation = { who = CSK value = 150 } } } NOT = { CSK = { has_country_flag = society } } }
					}
				CSK = { country_event = 806214 }
				}
			random_owned = { 
				limit = { 
					is_core = KNO
					NOT = { exists = KNO }
					OR = { NOT = { owner = { relation = { who = KNO value = 150 } } } NOT = { KNO = { has_country_flag = society } } }
					}
				KNO = { country_event = 806214 }
				}
			}
		}
	random_owned = { 
		limit = { 
			owner = { 
				has_country_flag = outer_lords_kansai
				NOT = { has_country_flag = outer_lords_chubu } 
				} 
			region = chubu
			}
		base_tax = -1
		owner = { 
			set_country_flag = outer_lords_chubu
			random_owned = { 
				limit = { 
					is_core = IGW 
					NOT = { exists = IGW }
					OR = { NOT = { owner = { relation = { who = IGW value = 150 } } } NOT = { IGW = { has_country_flag = society } } }
					}
				IGW = { country_event = 806214 }
				}
			random_owned = { 
				limit = { 
					is_core = TGW
					NOT = { exists = TGW }
					OR = { NOT = { owner = { relation = { who = TGW value = 150 } } } NOT = { TGW = { has_country_flag = society } } }
					}
				TGW = { country_event = 806214 }
				}
			random_owned = { 
				limit = { 
					is_core = TKI 
					NOT = { exists = TKI }
					OR = { NOT = { owner = { relation = { who = TKI value = 150 } } } NOT = { TKI = { has_country_flag = society } } }
					}
				TKI = { country_event = 806214 }
				}
			random_owned = { 
				limit = { 
					is_core = ASK
					NOT = { exists = ASK }
					OR = { NOT = { owner = { relation = { who = ASK value = 150 } } } NOT = { ASK = { has_country_flag = society } } }
					}
				ASK = { country_event = 806214 }
				}
			random_owned = { 
				limit = { 
					is_core = USG
					NOT = { exists = USG }
					OR = { NOT = { owner = { relation = { who = USG value = 150 } } } NOT = { USG = { has_country_flag = society } } }
					}
				USG = { country_event = 806214 }
				}
			}
		}
	random_owned = { 
		limit = { 
			owner = { 
				NOT = { has_country_flag = outer_lords_kansai } 
				} 
			region = kansai
			}
		base_tax = -1
		owner = { 
			set_country_flag = outer_lords_kansai
			random_owned = { 
				limit = { 
					is_core = AKG
					NOT = { exists = AKG }
					OR = { NOT = { owner = { relation = { who = AKG value = 150 } } } NOT = { AKG = { has_country_flag = society } } }
					}
				AKG = { country_event = 806214 }
				}
			random_owned = { 
				limit = { 
					is_core = HKW
					NOT = { exists = HKW }
					OR = { NOT = { owner = { relation = { who = HKW value = 150 } } } NOT = { HKW = { has_country_flag = society } } }
					}
				HKW = { country_event = 806214 }
				}
			random_owned = { 
				limit = { 
					is_core = YMN
					NOT = { exists = YMN }
					OR = { NOT = { owner = { relation = { who = YMN value = 150 } } } NOT = { YMN = { has_country_flag = society } } }
					}
				YMN = { country_event = 806214 }
				}
			random_owned = { 
				limit = { 
					is_core = ODA
					NOT = { exists = ODA }
					OR = { NOT = { owner = { relation = { who = ODA value = 150 } } } NOT = { ODA = { has_country_flag = society } } }
					}
				ODA = { country_event = 806214 }
				}
			random_owned = { 
				limit = { 
					is_core = HTK
					NOT = { exists = HTK }
					OR = { NOT = { owner = { relation = { who = HTK value = 150 } } } NOT = { HTK = { has_country_flag = society } } }
					}
				HTK = { country_event = 806214 }
				}
			}
		}
	}

}

country_event = {

id = 806202

is_triggered_only = yes

title = "EVTNAME806202"
desc = "EVTDESC806202"

option = {
	name = "EVTOPTA806202"
	prestige = -0.20
	remove_core = 1012
	remove_core = 1013
	remove_core = 1014
	remove_core = 1015
	remove_core = 1016
	remove_core = 1017
	remove_core = 1018
	remove_core = 1019
	remove_core = 1020
	remove_core = 1021
	remove_core = 1022
	remove_core = 1023
	remove_core = 1024
	remove_core = 1025
	remove_core = 1026
	remove_core = 1027
	remove_core = 1028
	remove_core = 1029
	remove_core = 1030
	remove_core = 1031
	remove_core = 1782
	remove_core = 1783
	remove_core = 1784
	remove_core = 1785
	remove_core = 1786
	remove_core = 1787
	remove_core = 1788
	remove_core = 1789
	remove_core = 1790
	remove_core = 1791
	capital_scope = { 
		noble_rebels = 1 
		change_controller = REB
		owner = { war_exhaustion = 0.5 }
		add_core = JTG
		}
	}

}

country_event = { #Inner Lords

id = 806203

trigger = { 
	OR = { primary_culture = azuma primary_culture = kyushu primary_culture = yamato has_country_flag = japanese_fief }
	NOT = { religion_group = pagan }
	has_country_flag = unification
	has_country_flag = japanese_capital
	NOT = { has_country_flag = inner_lords }
	has_country_flag = outer_lords
	NOT = { war_exhaustion = 4 }
	NOT = { war = yes }
	NOT = { any_owned_province = { has_siege = yes } }
	NOT = { any_owned_province = { controller = { tag = REB } } }
	}

mean_time_to_happen = { months = 12 }

title = "EVTNAME806203"
desc = "EVTDESC806203"

immediate = { 
	JAP = { set_country_flag = recalculating_fiefs }
	any_owned = { 
		limit = {
			culture_group = japanese
			JAP = { has_country_flag = recalculating_fiefs }
			NOT = { has_province_modifier = very_small_fief }
			NOT = { has_province_modifier = small_fief }
			NOT = { has_province_modifier = large_fief }
			NOT = { has_province_modifier = very_large_fief }
			check_variable = { which = province_division value = 3.99 }
			}
		add_province_modifier = { name = "very_small_fief" duration = -1 }
		}
	any_owned = { 
		limit = {
			culture_group = japanese
			JAP = { has_country_flag = recalculating_fiefs }
			NOT = { has_province_modifier = very_small_fief }
			NOT = { has_province_modifier = small_fief }
			NOT = { has_province_modifier = large_fief }
			NOT = { has_province_modifier = very_large_fief }
			check_variable = { which = province_division value = 2.99 }
			NOT = { check_variable = { which = province_division value = 3.99 } }
			}
		add_province_modifier = { name = "small_fief" duration = -1 }
		}
	any_owned = { 
		limit = {
			culture_group = japanese
			JAP = { has_country_flag = recalculating_fiefs }
			NOT = { has_province_modifier = very_small_fief }
			NOT = { has_province_modifier = small_fief }
			NOT = { has_province_modifier = large_fief }
			NOT = { has_province_modifier = very_large_fief }
			check_variable = { which = province_division value = 1.99 }
			NOT = { check_variable = { which = province_division value = 2.99 } }
			}
		add_province_modifier = { name = "large_fief" duration = -1 }
		}
	any_owned = { 
		limit = {
			culture_group = japanese
			JAP = { has_country_flag = recalculating_fiefs }
			NOT = { has_province_modifier = very_small_fief }
			NOT = { has_province_modifier = small_fief }
			NOT = { has_province_modifier = large_fief }
			NOT = { has_province_modifier = very_large_fief }
			check_variable = { which = province_division value = 0.99 }
			NOT = { check_variable = { which = province_division value = 1.99 } }
			}
		add_province_modifier = { name = "very_large_fief" duration = -1 }
		}
	JAP = { clr_country_flag = recalculating_fiefs }
	}

option = {
	name = "EVTOPTA806203"
	ai_chance = { factor = 80 }
	set_country_flag = inner_lords
	army_tradition = 0.20
	diplomats = 2
	aristocracy_plutocracy = -1
	any_country = { 
		limit = { 
			OR = { primary_culture = azuma primary_culture = kyushu primary_culture = yamato has_country_flag = japanese_fief }
			NOT = { capital_scope = { owned_by = THIS } }
			NOT = { religion_group = pagan }
			num_of_cities = 1
			}
		relation = { who = THIS value = 200 }
		prestige = 0.05
		stability = 1
		}
	random_owned = { 
		limit = { 
			is_core = NNB
			NOT = { exists = NNB }
			NNB = { relation = { who = THIS value = 150 } }
			NNB = { has_country_flag = society }
			}
		owner = { release_vassal = NNB }
		NNB = { relation = { who = THIS value = 200 } }
		}
	random_owned = { 
		limit = { 
			is_core = KNO
			NOT = { exists = KNO }
			KNO = { relation = { who = THIS value = 150 } }
			KNO = { has_country_flag = society }
			}
		owner = { release_vassal = KNO }
		KNO = { relation = { who = THIS value = 200 } }
		}
	random_owned = { 
		limit = { 
			is_core = HTK
			NOT = { exists = HTK }
			HTK = { relation = { who = THIS value = 150 } }
			HTK = { has_country_flag = society }
			}
		owner = { release_vassal = HTK }
		HTK = { relation = { who = THIS value = 200 } }
		}
	random_owned = { 
		limit = { 
			is_core = DTE
			NOT = { exists = DTE }
			DTE = { relation = { who = THIS value = 150 } }
			DTE = { has_country_flag = society }
			}
		owner = { release_vassal = DTE }
		DTE = { relation = { who = THIS value = 200 } }
		}
	random_owned = { 
		limit = { 
			is_core = MGM
			NOT = { exists = MGM }
			MGM = { relation = { who = THIS value = 150 } }
			MGM = { has_country_flag = society }
			}
		owner = { release_vassal = MGM }
		MGM = { relation = { who = THIS value = 200 } }
		}
	random_owned = { 
		limit = { 
			is_core = ASN
			NOT = { exists = ASN }
			ASN = { relation = { who = THIS value = 150 } }
			ASN = { has_country_flag = society }
			}
		owner = { release_vassal = ASN }
		ASN = { relation = { who = THIS value = 200 } }
		}
	random_owned = { 
		limit = { 
			is_core = RZJ
			NOT = { exists = RZJ }
			RZJ = { relation = { who = THIS value = 150 } }
			RZJ = { has_country_flag = society }
			}
		owner = { release_vassal = RZJ }
		RZJ = { relation = { who = THIS value = 200 } }
		}
	random_owned = { 
		limit = { 
			is_core = OTM
			NOT = { exists = OTM }
			OTM = { relation = { who = THIS value = 150 } }
			OTM = { has_country_flag = society }
			}
		owner = { release_vassal = OTM }
		OTM = { relation = { who = THIS value = 200 } }
		}
	random_owned = { 
		limit = { 
			is_core = SHN
			NOT = { exists = SHN }
			SHN = { relation = { who = THIS value = 150 } }
			SHN = { has_country_flag = society }
			}
		owner = { release_vassal = SHN }
		SHN = { relation = { who = THIS value = 200 } }
		}
	random_owned = { 
		limit = { 
			is_core = SMZ
			NOT = { exists = SMZ }
			SMZ = { relation = { who = THIS value = 150 } }
			SMZ = { has_country_flag = society }
			}
		owner = { release_vassal = SMZ }
		SMZ = { relation = { who = THIS value = 200 } }
		}
	random_owned = { 
		limit = { 
			is_core = TKD
			NOT = { exists = TKD }
			TKD = { relation = { who = THIS value = 150 } }
			TKD = { has_country_flag = society }
			}
		owner = { release_vassal = TKD }
		TKD = { relation = { who = THIS value = 200 } }
		}
	random_owned = { 
		limit = { 
			is_core = STM
			NOT = { exists = STM }
			STM = { relation = { who = THIS value = 150 } }
			STM = { has_country_flag = society }
			}
		owner = { release_vassal = STM }
		STM = { relation = { who = THIS value = 200 } }
		}
	random_owned = { 
		limit = { 
			is_core = HJO
			NOT = { exists = HJO }
			HJO = { relation = { who = THIS value = 150 } }
			HJO = { has_country_flag = society }
			}
		owner = { release_vassal = HJO }
		HJO = { relation = { who = THIS value = 200 } }
		}
	random_owned = { 
		limit = { 
			is_core = CSK
			NOT = { exists = CSK }
			CSK = { relation = { who = THIS value = 150 } }
			CSK = { has_country_flag = society }
			}
		owner = { release_vassal = CSK }
		CSK = { relation = { who = THIS value = 200 } }
		}
	random_owned = { 
		limit = { 
			is_core = MIY
			NOT = { exists = MIY }
			MIY = { relation = { who = THIS value = 150 } }
			MIY = { has_country_flag = society }
			}
		owner = { release_vassal = MIY }
		MIY = { relation = { who = THIS value = 200 } }
		}
	random_owned = { 
		limit = { 
			is_core = OUC
			NOT = { exists = OUC }
			OUC = { relation = { who = THIS value = 150 } }
			OUC = { has_country_flag = society }
			}
		owner = { release_vassal = OUC }
		OUC = { relation = { who = THIS value = 200 } }
		}
	random_owned = { 
		limit = { 
			is_core = MRI
			NOT = { exists = MRI }
			MRI = { relation = { who = THIS value = 150 } }
			MRI = { has_country_flag = society }
			}
		owner = { release_vassal = MRI }
		MRI = { relation = { who = THIS value = 200 } }
		}
	random_owned = { 
		limit = { 
			is_core = ANG
			NOT = { exists = ANG }
			ANG = { relation = { who = THIS value = 150 } }
			ANG = { has_country_flag = society }
			}
		owner = { release_vassal = ANG }
		ANG = { relation = { who = THIS value = 200 } }
		}
	random_owned = { 
		limit = { 
			is_core = IGW 
			NOT = { exists = IGW }
			IGW = { relation = { who = THIS value = 150 } }
			IGW = { has_country_flag = society }
			}
		owner = { release_vassal = IGW }
		IGW = { relation = { who = THIS value = 200 } }
		}
	random_owned = { 
		limit = { 
			is_core = TGW
			NOT = { exists = TGW }
			TGW = { relation = { who = THIS value = 150 } }
			TGW = { has_country_flag = society }
			}
		owner = { release_vassal = TGW }
		TGW = { relation = { who = THIS value = 200 } }
		}
	random_owned = { 
		limit = { 
			is_core = TKI 
			NOT = { exists = TKI }
			TKI = { relation = { who = THIS value = 150 } }
			TKI = { has_country_flag = society }
			}
		owner = { release_vassal = TKI }
		TKI = { relation = { who = THIS value = 200 } }
		}
	random_owned = { 
		limit = { 
			is_core = ASK
			NOT = { exists = ASK }
			ASK = { relation = { who = THIS value = 150 } }
			ASK = { has_country_flag = society }
			}
		owner = { release_vassal = ASK }
		ASK = { relation = { who = THIS value = 200 } }
		}
	random_owned = { 
		limit = { 
			is_core = USG
			NOT = { exists = USG }
			USG = { relation = { who = THIS value = 150 } }
			USG = { has_country_flag = society }
			}
		owner = { release_vassal = USG }
		USG = { relation = { who = THIS value = 200 } }
		}
	random_owned = { 
		limit = { 
			is_core = AKG
			NOT = { exists = AKG }
			AKG = { relation = { who = THIS value = 150 } }
			AKG = { has_country_flag = society }
			}
		owner = { release_vassal = AKG }
		AKG = { relation = { who = THIS value = 200 } }
		}
	random_owned = { 
		limit = { 
			is_core = HKW
			NOT = { exists = HKW }
			HKW = { relation = { who = THIS value = 150 } }
			HKW = { has_country_flag = society }
			}
		owner = { release_vassal = HKW }
		HKW = { relation = { who = THIS value = 200 } }
		}
	random_owned = { 
		limit = { 
			is_core = YMN
			NOT = { exists = YMN }
			YMN = { relation = { who = THIS value = 150 } }
			YMN = { has_country_flag = society }
			}
		owner = { release_vassal = YMN }
		YMN = { relation = { who = THIS value = 200 } }
		}
	random_owned = { 
		limit = { 
			is_core = ODA
			NOT = { exists = ODA }
			ODA = { relation = { who = THIS value = 150 } }
			ODA = { has_country_flag = society }
			}
		owner = { release_vassal = ODA }
		ODA = { relation = { who = THIS value = 200 } }
		}
	}
option = {
	name = "EVTOPTB806203"
	ai_chance = { factor = 20 }
	set_country_flag = inner_lords
	aristocracy_plutocracy = 1
	prestige = -0.10
	stability = -2
	capital_scope = { noble_rebels = 2 }
	any_country = { 
		limit = { 
			OR = { primary_culture = azuma primary_culture = kyushu primary_culture = yamato has_country_flag = japanese_fief }
			NOT = { capital_scope = { owned_by = THIS } }
			NOT = { religion_group = pagan }
			num_of_cities = 1
			}
		war = THIS
		}
	any_owned = { 
		limit = { 
			is_core = NNB
			NOT = { exists = NNB }
			NNB = { has_country_flag = society }
			}
		noble_rebels = 0
		noble_rebels = 0
		owner = { badboy = 0.5 }
		NNB = { country_event = 806202 }
		}
	any_owned = { 
		limit = { 
			is_core = AKM
			NOT = { exists = AKM }
			AKM = { has_country_flag = society }
			}
		noble_rebels = 0
		noble_rebels = 0
		owner = { badboy = 0.5 }
		AKM = { country_event = 806202 }
		}
	any_owned = { 
		limit = { 
			is_core = KNO
			NOT = { exists = KNO }
			KNO = { has_country_flag = society }
			}
		noble_rebels = 0
		noble_rebels = 0
		owner = { badboy = 0.5 }
		KNO = { country_event = 806202 }
		}
	any_owned = { 
		limit = { 
			is_core = HTK
			NOT = { exists = HTK }
			HTK = { has_country_flag = society }
			}
		noble_rebels = 0
		noble_rebels = 0
		owner = { badboy = 0.5 }
		HTK = { country_event = 806202 }
		}
	any_owned = { 
		limit = { 
			is_core = DTE
			NOT = { exists = DTE }
			DTE = { has_country_flag = society }
			}
		noble_rebels = 0
		noble_rebels = 0
		owner = { badboy = 0.5 }
		DTE = { country_event = 806202 }
		}
	any_owned = { 
		limit = { 
			is_core = MGM
			NOT = { exists = MGM }
			MGM = { has_country_flag = society }
			}
		noble_rebels = 0
		noble_rebels = 0
		owner = { badboy = 0.5 }
		MGM = { country_event = 806202 }
		}
	any_owned = { 
		limit = { 
			is_core = ASN
			NOT = { exists = ASN }
			ASN = { has_country_flag = society }
			}
		noble_rebels = 0
		noble_rebels = 0
		owner = { badboy = 0.5 }
		ASN = { country_event = 806202 }
		}
	any_owned = { 
		limit = { 
			is_core = RZJ
			NOT = { exists = RZJ }
			RZJ = { has_country_flag = society }
			}
		noble_rebels = 0
		noble_rebels = 0
		owner = { badboy = 0.5 }
		RZJ = { country_event = 806202 }
		}
	any_owned = { 
		limit = { 
			is_core = OTM
			NOT = { exists = OTM }
			OTM = { has_country_flag = society }
			}
		noble_rebels = 0
		noble_rebels = 0
		owner = { badboy = 0.5 }
		OTM = { country_event = 806202 }
		}
	any_owned = { 
		limit = { 
			is_core = SHN
			NOT = { exists = SHN }
			SHN = { has_country_flag = society }
			}
		noble_rebels = 0
		noble_rebels = 0
		owner = { badboy = 0.5 }
		SHN = { country_event = 806202 }
		}
	any_owned = { 
		limit = { 
			is_core = SMZ
			NOT = { exists = SMZ }
			SMZ = { has_country_flag = society }
			}
		noble_rebels = 0
		noble_rebels = 0
		owner = { badboy = 0.5 }
		SMZ = { country_event = 806202 }
		}
	any_owned = { 
		limit = { 
			is_core = TKD
			NOT = { exists = TKD }
			TKD = { has_country_flag = society }
			}
		noble_rebels = 0
		noble_rebels = 0
		owner = { badboy = 0.5 }
		TKD = { country_event = 806202 }
		}
	any_owned = { 
		limit = { 
			is_core = STM
			NOT = { exists = STM }
			STM = { has_country_flag = society }
			}
		noble_rebels = 0
		noble_rebels = 0
		owner = { badboy = 0.5 }
		STM = { country_event = 806202 }
		}
	any_owned = { 
		limit = { 
			is_core = HJO
			NOT = { exists = HJO }
			HJO = { has_country_flag = society }
			}
		noble_rebels = 0
		noble_rebels = 0
		owner = { badboy = 0.5 }
		HJO = { country_event = 806202 }
		}
	any_owned = { 
		limit = { 
			is_core = CSK
			NOT = { exists = CSK }
			CSK = { has_country_flag = society }
			}
		noble_rebels = 0
		noble_rebels = 0
		owner = { badboy = 0.5 }
		CSK = { country_event = 806202 }
		}
	any_owned = { 
		limit = { 
			is_core = MIY
			NOT = { exists = MIY }
			MIY = { has_country_flag = society }
			}
		noble_rebels = 0
		noble_rebels = 0
		owner = { badboy = 0.5 }
		MIY = { country_event = 806202 }
		}
	any_owned = { 
		limit = { 
			is_core = OUC
			NOT = { exists = OUC }
			OUC = { has_country_flag = society }
			}
		noble_rebels = 0
		noble_rebels = 0
		owner = { badboy = 0.5 }
		OUC = { country_event = 806202 }
		}
	any_owned = { 
		limit = { 
			is_core = MRI
			NOT = { exists = MRI }
			MRI = { has_country_flag = society }
			}
		noble_rebels = 0
		noble_rebels = 0
		owner = { badboy = 0.5 }
		MRI = { country_event = 806202 }
		}
	any_owned = { 
		limit = { 
			is_core = ANG
			NOT = { exists = ANG }
			ANG = { has_country_flag = society }
			}
		noble_rebels = 0
		noble_rebels = 0
		owner = { badboy = 0.5 }
		ANG = { country_event = 806202 }
		}
	any_owned = { 
		limit = { 
			is_core = IGW 
			NOT = { exists = IGW }
			IGW = { has_country_flag = society }
			}
		noble_rebels = 0
		noble_rebels = 0
		owner = { badboy = 0.5 }
		IGW = { country_event = 806202 }
		}
	any_owned = { 
		limit = { 
			is_core = TGW
			NOT = { exists = TGW }
			TGW = { has_country_flag = society }
			}
		noble_rebels = 0
		noble_rebels = 0
		owner = { badboy = 0.5 }
		TGW = { country_event = 806202 }
		}
	any_owned = { 
		limit = { 
			is_core = TKI 
			NOT = { exists = TKI }
			TKI = { has_country_flag = society }
			}
		noble_rebels = 0
		noble_rebels = 0
		owner = { badboy = 0.5 }
		TKI = { country_event = 806202 }
		}
	any_owned = { 
		limit = { 
			is_core = ASK
			NOT = { exists = ASK }
			ASK = { has_country_flag = society }
			}
		noble_rebels = 0
		noble_rebels = 0
		owner = { badboy = 0.5 }
		ASK = { country_event = 806202 }
		}
	any_owned = { 
		limit = { 
			is_core = USG
			NOT = { exists = USG }
			USG = { has_country_flag = society }
			}
		noble_rebels = 0
		noble_rebels = 0
		owner = { badboy = 0.5 }
		USG = { country_event = 806202 }
		}
	any_owned = { 
		limit = { 
			is_core = AKG
			NOT = { exists = AKG }
			AKG = { has_country_flag = society }
			}
		noble_rebels = 0
		noble_rebels = 0
		owner = { badboy = 0.5 }
		AKG = { country_event = 806202 }
		}
	any_owned = { 
		limit = { 
			is_core = HKW
			NOT = { exists = HKW }
			HKW = { has_country_flag = society }
			}
		noble_rebels = 0
		noble_rebels = 0
		owner = { badboy = 0.5 }
		HKW = { country_event = 806202 }
		}
	any_owned = { 
		limit = { 
			is_core = YMN
			NOT = { exists = YMN }
			YMN = { has_country_flag = society }
			}
		noble_rebels = 0
		noble_rebels = 0
		owner = { badboy = 0.5 }
		YMN = { country_event = 806202 }
		}
	any_owned = { 
		limit = { 
			is_core = ODA
			NOT = { exists = ODA }
			ODA = { has_country_flag = society }
			}
		noble_rebels = 0
		noble_rebels = 0
		owner = { badboy = 0.5 }
		ODA = { country_event = 806202 }
		}
	}

}

country_event = { #The Samurai

id = 806204

trigger = {
	OR = { primary_culture = azuma primary_culture = kyushu primary_culture = yamato has_country_flag = japanese_fief }
	has_country_flag = unification
	has_country_flag = sword_hunt
	NOT = { has_country_flag = samurai_caste }
	NOT = { has_country_flag = samurai_abolished }
	NOT = { has_country_flag = samurai_profession }
	NOT = { regency = yes }
	}

mean_time_to_happen = { months = 120 }

title = "EVTNAME806204"
desc = "EVTDESC806204"

option = {
	name = "EVTOPTA806204" #Restrict their numbers and locations
	ai_chance = { factor = 55 }
	set_country_flag = samurai_caste
	centralization_decentralization = -1
	serfdom_freesubjects = -2
	aristocracy_plutocracy = -1
	quality_quantity = -1
	random_owned = { 
		limit = { culture_group = THIS }
		noble_rebels = 0
		}
	}
option = {
	name = "EVTOPTB806204" #Disarm them and abolish private armies
	ai_chance = { factor = 25 }
	stability = -1
	set_country_flag = samurai_abolished
	centralization_decentralization = -2
	aristocracy_plutocracy = 1
	quality_quantity = -1
	any_owned = { 
		limit = { culture_group = THIS }
		noble_rebels = 0
		}
	}
option = {
	name = "EVTOPTC806204" #Restrict social mobility but leave them alone
	ai_chance = { factor = 15 }
	set_country_flag = samurai_caste
	centralization_decentralization = 1
	serfdom_freesubjects = -2
	aristocracy_plutocracy = -2
	}
option = {
	name = "EVTOPTD806204" #Use the samurai as a check on the daimyo
	ai_chance = { factor = 5 }
	set_country_flag = samurai_profession
	centralization_decentralization = 2
	serfdom_freesubjects = 1
	aristocracy_plutocracy = -2
	quality_quantity = 1
	}

}

country_event = { #Sword Hunt

id = 806205

trigger = { 
	OR = {
		has_country_flag = empire
		has_country_flag = kingdom
		}
	num_of_cities = 6
	OR = { primary_culture = azuma primary_culture = kyushu primary_culture = yamato has_country_flag = japanese_fief }
	NOT = { religion_group = pagan }
	NOT = { has_country_flag = sword_hunt }
	NOT = { has_country_flag = right_to_bear_arms }
	NOT = { war = yes }
	NOT = { regency = yes }
	}

mean_time_to_happen = { 

	months = 60

	modifier = {
		NOT = { MIL = 5 }
		factor = 2
		}
	modifier = {
		MIL = 6
		factor = 0.7
		}
	modifier = {
		MIL = 8
		factor = 0.7
		}
	}

title = "EVTNAME806205"
desc = "EVTDESC806205"

option = {
	name = "EVTOPTA806205" #Disarm civilians as well as samurai
	ai_chance = { factor = 90 }
	set_country_flag = sword_hunt
	random_owned = { 
		limit = { owner = { stability = 3 } }
		owner = { prestige = 0.10 }
		}
	random_owned = { 
		limit = { owner = { stability = 2 NOT = { stability = 3 } } }
		owner = { prestige = 0.05 stability = 1 }
		}
	random_owned = { 
		limit = { owner = { NOT = { stability = 2 } } }
		owner = { stability = 2 }
		}
	centralization_decentralization = -1
	aristocracy_plutocracy = -1
	quality_quantity = -1
	serfdom_freesubjects = -2
	any_owned = {
		limit = {
			OR = {
   				has_province_modifier = very_small_fief
				has_province_modifier = small_fief
			 	has_province_modifier = large_fief
				has_province_modifier = very_large_fief
				}
      		NOT = { has_province_flag = provincial_campaign }
      		}
		set_province_flag = provincial_campaign
		noble_rebels = 0
		noble_rebels = 0
		}
	any_owned = { limit = { culture_group = THIS citysize = 1000 } noble_rebels = 0 }
	}
option = {
	name = "EVTOPTB806205" #Confiscate weapons only from rival lords
	ai_chance = { factor = 10 }
	set_country_flag = right_to_bear_arms
	random_owned = { 
		limit = { owner = { stability = 3 } }
		owner = { prestige = 0.05 }
		}
	random_owned = { 
		limit = { owner = { NOT = { stability = 3 } } }
		owner = { stability = 1 }
		}
	centralization_decentralization = -1
	aristocracy_plutocracy = -1
	any_owned = {
		limit = {
			OR = {
				has_province_modifier = very_small_fief
		    		has_province_modifier = small_fief
		    		has_province_modifier = large_fief
		    		has_province_modifier = very_large_fief
		    		}
		      NOT = { has_province_flag = provincial_campaign }
		      }
	    set_province_flag = provincial_campaign
	    noble_rebels = 0
	    noble_rebels = 0
	    }
	any_owned = {
		limit = { culture_group = THIS NOT = { is_core = THIS } citysize = 1000 }
		noble_rebels = 0
		}
	}
}

country_event = { #Attempted Coup

id = 806206

trigger = {
	OR = { primary_culture = azuma primary_culture = kyushu primary_culture = yamato has_country_flag = japanese_fief }
	NOT = { religion_group = pagan }
	has_country_flag = unification
	has_country_flag = lider_muerto
	has_country_flag = samurai_caste
	NOT = { centralization_decentralization = -3 }
	}

mean_time_to_happen = { 

	months = 6 

	modifier = {
		capital_scope = { has_province_flag = ronin_expelled }
		factor = 2
		}
	
	}

title = "EVTNAME806206"
desc = "EVTDESC806206"

option = {
	name = "EVTOPTA806206" #Win the ronin over with friendlier policies
	ai_chance = { factor = 50 }
	capital_scope = { noble_rebels = 2 }
	centralization_decentralization = 1
	}
option = {
	name = "EVTOPTB806206" #Expel all ronin from the capital
	ai_chance = { factor = 50 }
	capital_scope = { noble_rebels = 2 set_province_flag = ronin_expelled }
	}
}

country_event = { #Japanese Land Survey

id = 806207

trigger = {
	OR = { primary_culture = azuma primary_culture = kyushu primary_culture = yamato has_country_flag = japanese_fief }
	NOT = { religion_group = pagan }
	NOT = { has_global_flag = feudal_japan }
	OR = {
		has_country_flag = kingdom
		has_country_flag = empire
		}
	NOT = { has_country_flag = census }
	treasury = 25
	NOT = { war = yes }
	stability = 0
	ADM = 5
	NOT = { war_exhaustion = 2 }
	NOT = { regency = yes }
	}

mean_time_to_happen = {

	months = 120
	
	modifier = {
		NOT = { ADM = 7 }
		factor = 0.5
		}
	modifier = {
		stability = 3
		factor = 0.7
		}
	modifier = {
		has_country_flag = unification
		factor = 0.5
		}
	}

title = "EVTNAME806207"
desc = "EVTDESC806207"

immediate = { 
	JAP = { set_country_flag = recalculating_fiefs }
	any_owned = { 
		limit = {
			culture_group = japanese
			JAP = { has_country_flag = recalculating_fiefs }
			NOT = { has_province_modifier = very_small_fief }
			NOT = { has_province_modifier = small_fief }
			NOT = { has_province_modifier = large_fief }
			NOT = { has_province_modifier = very_large_fief }
			check_variable = { which = province_division value = 3.99 }
			}
		add_province_modifier = { name = "very_small_fief" duration = -1 }
		}
	any_owned = { 
		limit = {
			culture_group = japanese
			JAP = { has_country_flag = recalculating_fiefs }
			NOT = { has_province_modifier = very_small_fief }
			NOT = { has_province_modifier = small_fief }
			NOT = { has_province_modifier = large_fief }
			NOT = { has_province_modifier = very_large_fief }
			check_variable = { which = province_division value = 2.99 }
			NOT = { check_variable = { which = province_division value = 3.99 } }
			}
		add_province_modifier = { name = "small_fief" duration = -1 }
		}
	any_owned = { 
		limit = {
			culture_group = japanese
			JAP = { has_country_flag = recalculating_fiefs }
			NOT = { has_province_modifier = very_small_fief }
			NOT = { has_province_modifier = small_fief }
			NOT = { has_province_modifier = large_fief }
			NOT = { has_province_modifier = very_large_fief }
			check_variable = { which = province_division value = 1.99 }
			NOT = { check_variable = { which = province_division value = 2.99 } }
			}
		add_province_modifier = { name = "large_fief" duration = -1 }
		}
	any_owned = { 
		limit = {
			culture_group = japanese
			JAP = { has_country_flag = recalculating_fiefs }
			NOT = { has_province_modifier = very_small_fief }
			NOT = { has_province_modifier = small_fief }
			NOT = { has_province_modifier = large_fief }
			NOT = { has_province_modifier = very_large_fief }
			check_variable = { which = province_division value = 0.99 }
			NOT = { check_variable = { which = province_division value = 1.99 } }
			}
		add_province_modifier = { name = "very_large_fief" duration = -1 }
		}
	JAP = { clr_country_flag = recalculating_fiefs }
	}

option = {
	name = "EVTOPTA806207" #Order the census and institute serfdom
	ai_chance = { factor = 60 }
	set_country_flag = census
	serfdom_freesubjects = -2
	centralization_decentralization = -1
	treasury = -25
	random_owned = { 
		limit = { culture_group = THIS }
		base_tax = 1
		change_manpower = 0.5
		random_neighbor_province = {
			base_tax = 1
			change_manpower = 0.5
			}
		}
	}
option = {
	name = "EVTOPTB806207" #Survey the land but leave the peasants alone
	ai_chance = { factor = 30 }
	set_country_flag = census
	treasury = -25
	random_owned = { 
		limit = { culture_group = THIS }
		base_tax = 1
		change_manpower = 0.5
		}
	}
option = {
	name = "EVTOPTC806207" #It is not a good time
	ai_chance = { factor = 10 }
	}

}

country_event = { #Japanese Foreign Policy

id = 806208

trigger = {
	OR = { primary_culture = azuma primary_culture = kyushu primary_culture = yamato has_country_flag = japanese_fief }
	NOT = { religion_group = pagan }
	has_country_flag = unification
	NOT = { has_country_flag = sakoku }
	NOT = { stability = 3 }
	NOT = { war = yes }
	}

mean_time_to_happen = {

	months = 480

	}

title = "EVTNAME806208"
desc = "EVTDESC806208"

option = {
	name = "EVTOPTA806208" #Restrict commerce and foreign relations
	ai_chance = { 
		factor = 90 
		days = 1
		modifier = { 
			japanese_region = { cot = yes }
			factor = 0.5
			}
		modifier = { 
			stability = 3
			factor = 0.7
			}
		modifier = { 
			OR = { #Naval ideas
				idea = press_gangs
				idea = grand_navy
				idea = sea_hawks
				idea = superior_seamanship
				idea = excellent_shipwrights
				idea = naval_fighting_instruction
				idea = naval_provisioning
				}
			factor = 0.7
			}
		modifier = { 
			OR = { #Exploration and Foreign Contact ideas
				idea = colonial_ventures
				idea = vice_roys
				idea = quest_for_the_new_world
				idea = cabinet
				idea = humanist_tolerance
				}
			factor = 0.7
			}
		modifier = { 
			OR = { #Trade ideas
				idea = merchant_adventures
				idea = shrewd_commerce_practise
				idea = national_trade_policy
				}
			factor = 0.7
			}
		}
	set_country_flag = sakoku
	random_owned = { 
		limit = { owner = { stability = 3 } }
		owner = { prestige = 0.10 }
		}
	random_owned = { 
		limit = { owner = { stability = 2 NOT = { stability = 3 } } }
		owner = { prestige = 0.05 stability = 1 }
		}
	random_owned = { 
		limit = { owner = { NOT = { stability = 2 } } }
		owner = { stability = 2 }
		}
	innovative_narrowminded = 1
	land_naval = -1
	random_owned = { 
		limit = { 
			NOT = { japanese_region = { cot = yes } }
			owner = { owns = 1013 }
			province_id = 1013 #Hizen (Nagasaki, historical)
			}
		cot = yes
		send_merchant = THIS
		send_merchant = THIS
		send_merchant = THIS
		send_merchant = THIS
		send_merchant = THIS
		}
	random_owned = { 
		limit = { 
			NOT = { japanese_region = { cot = yes } }
			owner = { NOT = { owns = 1013 } }
			province_id = 1021 #Settsu (Osaka or Settsu, both good alternatives)
			}
		cot = yes
		send_merchant = THIS
		send_merchant = THIS
		send_merchant = THIS
		send_merchant = THIS
		send_merchant = THIS
		}
	random_owned = { 
		limit = { 
			NOT = { japanese_region = { cot = yes } }
			owner = { NOT = { owns = 1013 } }
			owner = { NOT = { owns = 1021 } }
			province_id = 1017 #Nagato (center of much trade with China)
			}
		cot = yes
		send_merchant = THIS
		send_merchant = THIS
		send_merchant = THIS
		send_merchant = THIS
		send_merchant = THIS
		}
	random_owned = { 
		limit = { 
			NOT = { japanese_region = { cot = yes } }
			owner = { NOT = { owns = 1013 } }
			owner = { NOT = { owns = 1021 } }
			owner = { NOT = { owns = 1017 } }
			province_id = 1791 #Harima (Okayama, a bustling city)
			}
		cot = yes
		send_merchant = THIS
		send_merchant = THIS
		send_merchant = THIS
		send_merchant = THIS
		send_merchant = THIS		}
	random_owned = { 
		limit = { 
			NOT = { japanese_region = { cot = yes } }
			owner = { NOT = { owns = 1013 } }
			owner = { NOT = { owns = 1021 } }
			owner = { NOT = { owns = 1017 } }
			owner = { NOT = { owns = 1791 } }
			port = yes
			OR = { primary_culture = azuma primary_culture = kyushu primary_culture = yamato has_country_flag = japanese_fief }
			}
		cot = yes
		send_merchant = THIS
		send_merchant = THIS
		send_merchant = THIS
		send_merchant = THIS
		send_merchant = THIS
		}
	}
option = {
	name = "EVTOPTB806208" #Allow unrestricted foreign contact
	ai_chance = { factor = 10 }
	set_country_flag = sakoku
	stability = -1
	innovative_narrowminded = -1
	land_naval = 1
	}

}

country_event = { #The Rotation System

id = 806209

trigger = {
	OR = { primary_culture = azuma primary_culture = kyushu primary_culture = yamato has_country_flag = japanese_fief }
	NOT = { religion_group = pagan }
	has_country_flag = unification
	NOT = { has_country_flag = rotation_system }
	NOT = { stability = 2 }
	ADM = 5
	NOT = { regency = yes }
	NOT = { war = yes }
	}

mean_time_to_happen = { 

	months = 120 
	
	}

title = "EVTNAME806209"
desc = "EVTDESC806209"

option = {
	name = "EVTOPTA806209" #Daimyo must live in $CAPITAL$ every other year
	ai_chance = { 
		factor = 75 
		days = 1
		modifier = {
			NOT = { treasury = 200 }
			factor = 0.7
			}
		modifier = {
			NOT = { treasury = 100 }
			factor = 0.7
			}
		modifier = {
			NOT = { treasury = 50 }
			factor = 0.7
			}
		modifier = {
			NOT = { treasury = 1 }
			factor = 0.7
			}
		}
	random_owned = { 
		limit = { owner = { stability = 3 } }
		owner = { prestige = 0.10 }
		}
	random_owned = { 
		limit = { owner = { stability = 2 NOT = { stability = 3 } } }
		owner = { prestige = 0.05 stability = 1 }
		}
	random_owned = { 
		limit = { owner = { NOT = { stability = 2 } } }
		owner = { stability = 2 }
		}
	prestige = 0.05
	treasury = -200
	capital_scope = { 
		base_tax = 1 
		random_neighbor_province = { base_tax = 1 }
		}
	aristocracy_plutocracy = 2
	centralization_decentralization = -1
	set_country_flag = rotation_system
	}
option = {
	name = "EVTOPTB806209" #Daimyo must stay on their fiefs
	ai_chance = { factor = 10 }
	random_owned = { 
		limit = { owner = { stability = 3 } }
		owner = { prestige = 0.05 }
		}
	random_owned = { 
		limit = { owner = { NOT = { stability = 3 } } }
		owner = { stability = 1 }
		}
	aristocracy_plutocracy = -1
	set_country_flag = rotation_system
	}
option = {
	name = "EVTOPTC806209" #Daimyo must live in $CAPITAL$ year-round
	ai_chance = { factor = 10 }
	stability = -1
	prestige = 0.05
	centralization_decentralization = -1
	capital_scope = { base_tax = 1 }
	set_country_flag = rotation_system
	}
option = {
	name = "EVTOPTD806209" #Let the daimyo live where they please
	ai_chance = { factor = 5 }
	aristocracy_plutocracy = -1
	centralization_decentralization = 1
	set_country_flag = rotation_system
	}

}

country_event = { #Japanese Christians

id = 806211

trigger = {
	OR = { primary_culture = azuma primary_culture = kyushu primary_culture = yamato has_country_flag = japanese_fief }
	NOT = { religion_group = pagan }
	NOT = { has_global_flag = feudal_japan }
	OR = {
		has_country_flag = kingdom
		has_country_flag = empire
		}
	num_of_cities = 8
	NOT = { religion_group = christian }
	has_country_flag = jesuits_arrive
	NOT = { has_country_flag = japanese_christians }
	OR = { 
		NOT = { has_country_flag = christians_expelled }
		any_neighbor_country = { 
			AND = { 
				OR = { primary_culture = azuma primary_culture = kyushu primary_culture = yamato has_country_flag = japanese_fief }
				religion_group = christian
				}
			}
		}
	NOT = { regency = yes }
	}

mean_time_to_happen = { months = 120 }

title = "EVTNAME806211"
desc = "EVTDESC806211"

option = {
	name = "EVTOPTA806211" #Expel the Kirishitan from Japan
	ai_chance = { factor = 70 }
	set_country_flag = christians_expelled
	innovative_narrowminded = 1
	any_country = {
		limit = { 
			OR = { primary_culture = azuma primary_culture = kyushu primary_culture = yamato has_country_flag = japanese_fief }
			religion_group = christian
			}
		country_event = 806212
		}
	}
option = {
	name = "EVTOPTB806211" #Let them stay
	ai_chance = { factor = 29 }
	stability = -1
	set_country_flag = japanese_christians
	}
option = {
	name = "EVTOPTC806211" #Embrace this new faith
	ai_chance = { factor = 1 }
	innovative_narrowminded = -2
	random_owned = {
		limit = { owner = { NOT = { religion_group = christian } } }
		owner = { 
			religion = catholic 
			force_converted = yes
			stability = -5
			}
		}
	}

}

country_event = { #Expulsion of the Kirishitan

id = 806212

is_triggered_only = yes

title = "EVTNAME806212"
desc = "EVTDESC806212"

option = {
	name = "EVTOPTA806212" #Obey the ban and convert
	ai_chance = { factor = 50 }
	stability = -3
	religion = shinto
	force_converted = yes
	}
option = {
	name = "EVTOPTB806212" #Wage holy war against the kanpaku
	ai_chance = { factor = 50 }
	stability = -1
	war = FROM
	}

}

country_event = { #Cash Economy

id = 806213

trigger = {
	OR = { primary_culture = azuma primary_culture = kyushu primary_culture = yamato has_country_flag = japanese_fief }
	NOT = { religion_group = pagan }
	has_country_flag = unification
	NOT = { has_country_flag = cash_economy }
	production_tech = 10
	trade_tech = 10
	}

mean_time_to_happen = { months = 480 }

title = "EVTNAME806213"
desc = "EVTDESC806213"

option = {
	name = "EVTOPTA806213" #Encourage these changes
	ai_chance = { 
		factor = 50 
		days = 1
		modifier = {
			innovative_narrowminded = 4
			factor = 0.8
			}
		modifier = {
			innovative_narrowminded = 2
			factor = 0.8
			}
		modifier = {
			NOT = { innovative_narrowminded = -1 }
			factor = 1.25
			}
		modifier = {
			NOT = { innovative_narrowminded = -3 }
			factor = 1.25
			}
		modifier = {
			NOT = { treasury = 1 }
			factor = 1.4
			}
		modifier = {
			number_of_loans = 1
			factor = 1.4
			}
		}
	set_country_flag = cash_economy
	stability = -2
	aristocracy_plutocracy = 1
	random_owned = {
		anti_tax_rebels = 1
		base_tax = 1
		change_manpower = -0.5
		}
	random_owned = {
		limit = { 
			owner = { 
				num_of_cities = 1
				NOT = { num_of_cities = 2 } 
				}
			}
		owner = { 
			trade_tech = +100
			production_tech = +100
			}
		}
	random_owned = {
		limit = { 
			owner = { 
				num_of_cities = 2
				NOT = { num_of_cities = 6 } 
				}
			}
		owner = { 
			trade_tech = +200
			production_tech = +200
			}
		}
	random_owned = {
		limit = { 
			owner = { 
				num_of_cities = 6
				NOT = { num_of_cities = 12 } 
				}
			}
		owner = { 
			trade_tech = +400
			production_tech = +400
			}
		}
	random_owned = {
		limit = { owner = { num_of_cities = 12 } }
		owner = { 
			trade_tech = +600
			production_tech = +600
			}
		}
	}
option = {
	name = "EVTOPTB806213" #Discourage these changes
	ai_chance = { 
		factor = 50 
		}
	set_country_flag = cash_economy
	aristocracy_plutocracy = -1
	random_owned = { 
		limit = { owner = { stability = 3 } }
		owner = { prestige = 0.05 }
		}
	random_owned = { 
		limit = { owner = { NOT = { stability = 3 } } }
		owner = { stability = 1 }
		}
	random_owned = {
		base_tax = -1
		change_manpower = +0.5
		}
	}

}

country_event = {

id = 806214

is_triggered_only = yes

title = "EVTNAME806214"
desc = "EVTDESC806202"

option = {
	name = "EVTOPTA806202"
	remove_core = 1012
	remove_core = 1013
	remove_core = 1014
	remove_core = 1015
	remove_core = 1016
	remove_core = 1017
	remove_core = 1018
	remove_core = 1019
	remove_core = 1020
	remove_core = 1021
	remove_core = 1022
	remove_core = 1023
	remove_core = 1024
	remove_core = 1025
	remove_core = 1026
	remove_core = 1027
	remove_core = 1028
	remove_core = 1029
	remove_core = 1030
	remove_core = 1031
	remove_core = 1782
	remove_core = 1783
	remove_core = 1784
	remove_core = 1785
	remove_core = 1786
	remove_core = 1787
	remove_core = 1788
	remove_core = 1789
	remove_core = 1790
	remove_core = 1791
	capital_scope = { 
		add_core = JTG
		}
	}

}

