#####################
# Pan-Mongol events #
#####################

#82 Mongol + 00 Universal + xx

country_event = { #setup

id = 820000

is_triggered_only = yes

title = "EVTNAME820000"
desc = "EVTDESC820000"

option = {
	name = "EVTOPTA820000"
	ai_chance = { factor = 100 }
	random_owned = {
		limit = {
			owner = {
				NOT = { has_country_flag = done_nomadic_setup }
				}
			}
		owner = { set_country_flag = done_nomadic_setup }
	}
	any_owned = {
		limit = {
			OR = {
				AND = {
					culture = tuareg
					NOT = { province_id = 1111 }
					}
				culture = sibir
				AND = {
					culture = chagatai
					NOT = { year = 1650 }
					}
				AND = {
					culture = tangut
					NOT = { province_id = 708 }
					}
				AND = {
					culture = tartar
					OR = {
						province_id = 299
						province_id = 302
						province_id = 466
						province_id = 467
						province_id = 468
						province_id = 464
						}
					}
				AND = {
					culture = uzbehk
					NOT = { year = 1650 }
					}
				culture = khazak
				culture = nogai
				culture = turkmeni
				culture = astrakhani
				AND = {
					culture = crimean
					NOT = { province_id = 285 }
					NOT = { province_id = 286 }
					}
				culture = mongol
				AND = {
					culture = jurchen
					NOT = { year = 1666 }
					NOT = { province_id = 726 }
					}
				culture = uralic
				AND = {
					culture = yakut
					OR = {
						province_id = 1060
						province_id = 1063
						province_id = 1065
						province_id = 480
						}
					}
				culture = baluchi
				AND = {
					culture = tibetan
					province_id = 706
					}
				AND = {
					culture = uyghur
					OR = {
						province_id = 712
						province_id = 715
						}
					NOT = { year = 1700 }
					}
				AND = {
					culture = ukrainian
					OR = {
						province_id = 283
						province_id = 291
						}
					}
				AND = {
					culture = bedouin_arabic
					port = no
					}
				}
				citysize = 1
				NOT = { citysize = 2000 }
			}
		set_variable = { which = nomadic_lifestyle value = 10 }
		set_province_flag = tribes_initialized
		add_province_modifier = {
			name = "highly_nomadic"
			duration = -1
			}
		}
	any_owned = {
		limit = {
			OR = {
				AND = {
					culture = tuareg
					NOT = { province_id = 1111 }
					}
				culture = sibir
				AND = {
					culture = chagatai
					NOT = { year = 1650 }
					}
				AND = {
					culture = tangut
					NOT = { province_id = 708 }
					}
				AND = {
					culture = tartar
					OR = {
						province_id = 299
						province_id = 302
						province_id = 466
						province_id = 467
						province_id = 468
						province_id = 464
						}
					}
				AND = {
					culture = uzbehk
					NOT = { year = 1650 }
					}
				culture = khazak
				culture = nogai
				culture = turkmeni
				culture = astrakhani
				AND = {
					culture = crimean
					NOT = { province_id = 285 }
					NOT = { province_id = 286 }
					}
				culture = mongol
				AND = {
					culture = jurchen
					NOT = { year = 1666 }
					NOT = { province_id = 726 }
					}
				culture = uralic
				AND = {
					culture = yakut
					OR = {
						province_id = 1060
						province_id = 1063
						province_id = 1065
						province_id = 480
						}
					}
				culture = baluchi
				AND = {
					culture = tibetan
					province_id = 706
					}
				AND = {
					culture = uyghur
					OR = {
						province_id = 712
						province_id = 715
						}
					}
				AND = {
					culture = ukrainian
					OR = {
						province_id = 283
						province_id = 291
						}
					}
				AND = {
					culture = bedouin_arabic
					port = no
					}
				}
				citysize = 2000
				NOT = { citysize = 4000 }	
			}
		set_variable = { which = nomadic_lifestyle value = 9 }
		set_province_flag = tribes_initialized
		add_province_modifier = {
			name = "highly_nomadic"
			duration = -1
			}
		}
	any_owned = {
		limit = {
			OR = {
				AND = {
					culture = tuareg
					NOT = { province_id = 1111 }
					}
				culture = sibir
				AND = {
					culture = chagatai
					NOT = { year = 1650 }
					}
				AND = {
					culture = tangut
					NOT = { province_id = 708 }
					}
				AND = {
					culture = tartar
					OR = {
						province_id = 299
						province_id = 302
						province_id = 466
						province_id = 467
						province_id = 468
						province_id = 464
						}
					}
				AND = {
					culture = uzbehk
					NOT = { year = 1650 }
					}
				culture = khazak
				culture = nogai
				culture = turkmeni
				culture = astrakhani
				AND = {
					culture = crimean
					NOT = { province_id = 285 }
					NOT = { province_id = 286 }
					}
				culture = mongol
				AND = {
					culture = jurchen
					NOT = { year = 1666 }
					NOT = { province_id = 726 }
					}
				culture = uralic
				AND = {
					culture = yakut
					OR = {
						province_id = 1060
						province_id = 1063
						province_id = 1065
						province_id = 480
						}
					}
				culture = baluchi
				AND = {
					culture = tibetan
					province_id = 706
					}
				AND = {
					culture = uyghur
					OR = {
						province_id = 712
						province_id = 715
						}
					}
				AND = {
					culture = ukrainian
					OR = {
						province_id = 283
						province_id = 291
						}
					}
				AND = {
					culture = bedouin_arabic
					port = no
					}
				}
				citysize = 4000
				NOT = { citysize = 6000 }	
			}
		set_variable = { which = nomadic_lifestyle value = 8 }
		set_province_flag = tribes_initialized
		add_province_modifier = {
			name = "highly_nomadic"
			duration = -1
			}
		}
	any_owned = {
		limit = {
			OR = {
				AND = {
					culture = tuareg
					NOT = { province_id = 1111 }
					}
				culture = sibir
				AND = {
					culture = chagatai
					NOT = { year = 1650 }
					}
				AND = {
					culture = tangut
					NOT = { province_id = 708 }
					}
				AND = {
					culture = tartar
					OR = {
						province_id = 299
						province_id = 302
						province_id = 466
						province_id = 467
						province_id = 468
						province_id = 464
						}
					}
				AND = {
					culture = uzbehk
					NOT = { year = 1650 }
					}
				culture = khazak
				culture = nogai
				culture = turkmeni
				culture = astrakhani
				AND = {
					culture = crimean
					NOT = { province_id = 285 }
					NOT = { province_id = 286 }
					}
				culture = mongol
				AND = {
					culture = jurchen
					NOT = { year = 1666 }
					NOT = { province_id = 726 }
					}
				culture = uralic
				AND = {
					culture = yakut
					OR = {
						province_id = 1060
						province_id = 1063
						province_id = 1065
						province_id = 480
						}
					}
				culture = baluchi
				AND = {
					culture = tibetan
					province_id = 706
					}
				AND = {
					culture = uyghur
					OR = {
						province_id = 712
						province_id = 715
						}
					}
				AND = {
					culture = ukrainian
					OR = {
						province_id = 283
						province_id = 291
						}
					}
				AND = {
					culture = bedouin_arabic
					port = no
					}
				}
				citysize = 6000
				NOT = { citysize = 8000 }
			}
		set_variable = { which = nomadic_lifestyle value = 7 }
		set_province_flag = tribes_initialized
		add_province_modifier = {
			name = "moderately_nomadic"
			duration = -1
			}
		}
	any_owned = {
		limit = {
			OR = {
				AND = {
					culture = tuareg
					NOT = { province_id = 1111 }
					}
				culture = sibir
				AND = {
					culture = chagatai
					NOT = { year = 1650 }
					}
				AND = {
					culture = tangut
					NOT = { province_id = 708 }
					}
				AND = {
					culture = tartar
					OR = {
						province_id = 299
						province_id = 302
						province_id = 466
						province_id = 467
						province_id = 468
						province_id = 464
						}
					}
				AND = {
					culture = uzbehk
					NOT = { year = 1650 }
					}
				culture = khazak
				culture = nogai
				culture = turkmeni
				culture = astrakhani
				AND = {
					culture = crimean
					NOT = { province_id = 285 }
					NOT = { province_id = 286 }
					}
				culture = mongol
				AND = {
					culture = jurchen
					NOT = { year = 1666 }
					NOT = { province_id = 726 }
					}
				culture = uralic
				AND = {
					culture = yakut
					OR = {
						province_id = 1060
						province_id = 1063
						province_id = 1065
						province_id = 480
						}
					}
				culture = baluchi
				AND = {
					culture = tibetan
					province_id = 706
					}
				AND = {
					culture = uyghur
					OR = {
						province_id = 712
						province_id = 715
						}
					}
				AND = {
					culture = ukrainian
					OR = {
						province_id = 283
						province_id = 291
						}
					}
				AND = {
					culture = bedouin_arabic
					port = no
					}
				}
				citysize = 8000
				NOT = { citysize = 10000 }
			}
		set_variable = { which = nomadic_lifestyle value = 6 }
		set_province_flag = tribes_initialized
		add_province_modifier = {
			name = "moderately_nomadic"
			duration = -1
			}
		}
	any_owned = {
		limit = {
			OR = {
				AND = {
					culture = tuareg
					NOT = { province_id = 1111 }
					}
				culture = sibir
				AND = {
					culture = chagatai
					NOT = { year = 1650 }
					}
				AND = {
					culture = tangut
					NOT = { province_id = 708 }
					}
				AND = {
					culture = tartar
					OR = {
						province_id = 299
						province_id = 302
						province_id = 466
						province_id = 467
						province_id = 468
						province_id = 464
						}
					}
				AND = {
					culture = uzbehk
					NOT = { year = 1650 }
					}
				culture = khazak
				culture = nogai
				culture = turkmeni
				culture = astrakhani
				AND = {
					culture = crimean
					NOT = { province_id = 285 }
					NOT = { province_id = 286 }
					}
				culture = mongol
				AND = {
					culture = jurchen
					NOT = { year = 1666 }
					NOT = { province_id = 726 }
					}
				culture = uralic
				AND = {
					culture = yakut
					OR = {
						province_id = 1060
						province_id = 1063
						province_id = 1065
						province_id = 480
						}
					}
				culture = baluchi
				AND = {
					culture = tibetan
					province_id = 706
					}
				AND = {
					culture = uyghur
					OR = {
						province_id = 712
						province_id = 715
						}
					}
				AND = {
					culture = ukrainian
					OR = {
						province_id = 283
						province_id = 291
						}
					}
				AND = {
					culture = bedouin_arabic
					port = no
					}
				}
				citysize = 10000
			}
		set_variable = { which = nomadic_lifestyle value = 5 }
		set_province_flag = tribes_initialized
		add_province_modifier = {
			name = "moderately_nomadic"
			duration = -1
			}
		}
	any_owned = {
		limit = {
			culture = bedouin_arabic
			port = yes
			citysize = 1
			NOT = { citysize = 2000 }
			}
		set_variable = { which = nomadic_lifestyle value = 7 }
		set_province_flag = tribes_initialized
		add_province_modifier = {
			name = "moderately_nomadic"
			duration = -1
			}
		}
	any_owned = {
		limit = {
			culture = bedouin_arabic
			port = yes
			citysize = 2000
			NOT = { citysize = 4000 }
			}
		set_variable = { which = nomadic_lifestyle value = 6 }
		set_province_flag = tribes_initialized
		add_province_modifier = {
			name = "moderately_nomadic"
			duration = -1
			}
		}
	any_owned = {
		limit = {
			culture = bedouin_arabic
			port = yes
			citysize = 4000
			NOT = { citysize = 6000 }
			}
		set_variable = { which = nomadic_lifestyle value = 5 }
		set_province_flag = tribes_initialized
		add_province_modifier = {
			name = "moderately_nomadic"
			duration = -1
			}
		}
	any_owned = {
		limit = {
			culture = bedouin_arabic
			port = yes
			citysize = 6000
			}
		set_variable = { which = nomadic_lifestyle value = 4 }
		set_province_flag = tribes_initialized
		add_province_modifier = {
			name = "moderately_nomadic"
			duration = -1
			}
		}
	random_owned = {
			limit = {
				owner = {
					NOT = {
						government = tribal_despotism-upper
						government = tribal_democracy-upper
						government = tribal_federation-upper
						government = tribal_despotism
						government = tribal_democracy
						government = tribal_federation
						government = tribal_despotism-lower
						government = tribal_democracy-lower
						government = tribal_federation-lower
						government = tribal_despotism-lowest
						government = tribal_democracy-lowest
						government = tribal_federation-lowest
						has_country_flag = tribal_setup
						}
					}
				}
			owner = {
				any_owned = {
					limit = {
						check_variable = { which = nomadic_lifestyle value = 1 }
						NOT = {
							has_province_flag = independent_tribes
							has_province_flag = fragmented_tribes
							has_province_flag = disorganized_tribes
							has_province_flag = organized_tribes
						}
					}
					set_province_flag = fragmented_tribes
					add_province_modifier = {
						name = "fragmented_tribes"
						duration = -1
					}
				}
			}
		}
		random_owned = {
			limit = {
				owner = {
					OR = {
						government = tribal_despotism-upper
						government = tribal_democracy-upper
						government = tribal_federation-upper
						government = tribal_despotism
						government = tribal_democracy
						government = tribal_federation
						government = tribal_despotism-lower
						government = tribal_democracy-lower
						government = tribal_federation-lower
						government = tribal_despotism-lowest
						government = tribal_democracy-lowest
						government = tribal_federation-lowest
						has_country_flag = tribal_setup
						}
					}
				}
			owner = { country_event = 820101 }
		}
		any_country = { #Tribal setup(non-nomadic)
		limit = {
			has_country_flag = tribal_setup
			}
		country_event = 820101
		}
		clr_country_flag = horse_nomad_setup
	}
}

province_event = { #Nomads Pillaging a Neighboring Province - Nomadic & Nomadic/Sedentary(between two countries)

id = 820001

trigger = {
	check_variable = { which = nomadic_lifestyle value = 1 }
	NOT = { has_province_modifier = nomadic_raid }
	NOT = { has_province_modifier = successful_raid }
	NOT = { has_province_modifier = unsuccessful_raid }
	NOT = { has_province_modifier = receiving_tribute }
	NOT = { has_province_modifier = ongoing_retaliatory_raid }
	NOT = { has_province_modifier = retaliatory_raid }
	controlled_by = owner
	any_neighbor_province = {
		NOT = { has_province_modifier = nomadic_raid }
		NOT = { owned_by = THIS }
		controlled_by = owner
		}
	OR = {
		NOT = { has_province_modifier = raiding_prohibited }
		AND = {
			has_province_modifier = raiding_prohibited
			OR = {
				has_province_modifier = tribal_distress
				revolt_risk = 10
				}
			}
		}
	}

mean_time_to_happen = {

	months = 60

	modifier = {
		has_province_modifier = raiding_prohibited
		factor = 3
		}
	modifier = {
		has_province_modifier = receiving_tribute
		owner = {
			is_bankrupt = no
			treasury = 150
			}
		factor = 0
		}
	modifier = {
		has_province_modifier = receiving_tribute
		owner = {
			is_bankrupt = yes
			treasury = 150
			}
		factor = 3
		}
	modifier = {
		has_province_modifier = receiving_tribute
		owner = {
			is_bankrupt = no
			NOT = { treasury = 150 }
			}
		factor = 3
		}
	modifier = {
		NOT = { base_tax = 2 }
		factor = 0.9
		}
	modifier = {
		NOT = { base_tax = 3 }
		factor = 0.9
		}
	modifier = {
		any_neighbor_province = {
			base_tax = 2
			check_variable = { which = nomadic_lifestyle value = 1 }
			NOT = { owned_by = THIS }
			}
		factor = 0.9
		}
	modifier = {
		any_neighbor_province = {
			base_tax = 4
			check_variable = { which = nomadic_lifestyle value = 1 }
			NOT = { owned_by = THIS }
			}
		factor = 0.9
		}
	modifier = {
		any_neighbor_province = {
			base_tax = 6
			check_variable = { which = nomadic_lifestyle value = 1 }
			NOT = { owned_by = THIS }
			}
		factor = 0.9
		}
	modifier = {
		any_neighbor_province = {
			base_tax = 8
			check_variable = { which = nomadic_lifestyle value = 1 }
			NOT = { owned_by = THIS }
			}
		factor = 0.9
		}
	modifier = {
		any_neighbor_province = {
			base_tax = 10
			check_variable = { which = nomadic_lifestyle value = 1 }
			NOT = { owned_by = THIS }
			}
		factor = 0.9
		}
	modifier = {
		owner = {
			is_bankrupt = yes
			}
		factor = 0.5
		}
	modifier = {
		owner = {
			NOT = { treasury = 150 }
			}
		factor = 0.8
		}
	modifier = {
			owner = {
				NOT = { treasury = 100 }
			}
		factor = 0.8
		}
	modifier = {
			owner = {
				NOT = { treasury = 50 }
				}
		factor = 0.8
		}
	modifier = { 
		any_neighbor_province = {
			check_variable = { which = nomadic_lifestyle value = 1 }
			owner = {
				NOT = { stability = 0 }
				}
			}	
		factor = 0.9
		}
	modifier = { 
		any_neighbor_province = {
			check_variable = { which = nomadic_lifestyle value = 1 }
			owner = {
				NOT = { stability = -1 }
				}
			}	
		factor = 0.9
		}	
	modifier = { 
		any_neighbor_province = {
			check_variable = { which = nomadic_lifestyle value = 1 }
			owner = {
				NOT = { stability = -2 }
				}
			}	
		factor = 0.9
		}	
	modifier = { 
			owner = { has_country_flag = easy_difficulty }
		factor = 1.2
		}
	modifier = {
		has_province_modifier = unsuccessful_raid
		factor = 2
		}
#	modifier = {
#		any_neighbor_province = {
#			has_province_modifier = horse_market_civilized
#			}
#			factor = 1.5
#		}		
#	modifier = {
#			has_province_modifier = nomadic_defense1
#		factor = 1.5
#		}
#	modifier = {
#		has_province_modifier = nomadic_defense2
#		factor = 1.5
#		}
#	modifier = {
#		has_province_modifier = nomadic_defense3
#		factor = 2
#		}
#	modifier = {
#		has_province_modifier = defensive_measures1
#		factor = 1.5
#		}
#	modifier = {
#		has_province_modifier = defensive_measures2
#		factor = 2
#		}
	modifier = {
		any_neighbor_province = {
			check_variable = { which = nomadic_lifestyle value = 1 }
			units_in_province = 1
			NOT = { owned_by = THIS }
			}
		factor = 1.2
		}
	modifier = {
		any_neighbor_province = {
			check_variable = { which = nomadic_lifestyle value = 1 }
			units_in_province = 2
			NOT = { owned_by = THIS }
			}
		factor = 1.2
		}
	modifier = {
		any_neighbor_province = {
			check_variable = { which = nomadic_lifestyle value = 1 }
			units_in_province = 3
			NOT = { owned_by = THIS }
			}
		factor = 1.2
		}
	modifier = {
		any_neighbor_province = {
			check_variable = { which = nomadic_lifestyle value = 1 }
			units_in_province = 4
			NOT = { owned_by = THIS }
			}
		factor = 1.2
		}
	modifier = {
		any_neighbor_province = {
			check_variable = { which = nomadic_lifestyle value = 1 }
			units_in_province = 5
			NOT = { owned_by = THIS }
			}
		factor = 1.2
		}
	modifier = { 
			owner = { war_exhaustion = 3 }
		factor = 1.1
		}
	modifier = { 
			owner = { war_exhaustion = 6 }
		factor = 1.1
		}
	modifier = { 
			owner = { war_exhaustion = 9 }
		factor = 1.1
		}
	modifier = { 
			owner = { war_exhaustion = 12 }
		factor = 1.1
		}
	modifier = { 
			owner = { war_exhaustion = 15 }
		factor = 1.1
		}
	modifier = {
		any_neighbor_province = {
			NOT = { owned_by = THIS }
			check_variable = { which = nomadic_lifestyle value = 1 }
			relation = { who = THIS value = 0 }
			}
		factor = 1.2
		}
	modifier = {
		any_neighbor_province = {
			NOT = { owned_by = THIS }
			check_variable = { which = nomadic_lifestyle value = 1 }
			owner = { relation = { who = THIS value = 30 } }
			}
		factor = 1.2
		}
	modifier = {
		any_neighbor_province = {
			NOT = { owned_by = THIS }
			check_variable = { which = nomadic_lifestyle value = 1 }
			owner = { relation = { who = THIS value = 60 } }
			}
		factor = 1.2
		}
	modifier = {
		any_neighbor_province = {
			NOT = { owned_by = THIS }
			check_variable = { which = nomadic_lifestyle value = 1 }
			owner = { relation = { who = THIS value = 90 } }
			}
		factor = 1.2
		}
	modifier = {
		any_neighbor_province = {
			NOT = { owned_by = THIS }
			check_variable = { which = nomadic_lifestyle value = 1 }
			owner = { relation = { who = THIS value = 120 } }
			}
		factor = 1.2
		}
	modifier = {
		any_neighbor_province = {
			NOT = { owned_by = THIS }
			check_variable = { which = nomadic_lifestyle value = 1 }
			owner = { relation = { who = THIS value = 150 } }
			}
		factor = 1.2
		}
	modifier = {
		any_neighbor_province = {
			NOT = { owned_by = THIS }
			check_variable = { which = nomadic_lifestyle value = 1 }
			owner = { relation = { who = THIS value = 180 } }
			}
		factor = 1.2
		}
	}
	
immediate = {
	add_province_modifier = {
		name = "province_raided"
		duration = 550
		}
	}

title = "EVTNAME820001"
desc = "EVTDESC820001"

option = {
	name = "EVTOPTA820001" #Ok
	ai_chance = { factor = 100 }
#	owner = { treasury = -5 }
	owner = {
		random_owned = {
			limit = {
				THIS = {
					OR = {
						owner = {
							NOT = {
								government = tribal_despotism-upper
								government = tribal_despotism
								government = tribal_despotism-lower
								government = tribal_despotism-lowest
								government = tribal_federation-upper
								government = tribal_federation
								government = tribal_federation-lower
								government = tribal_federation-lowest
								}
							}
							has_province_flag = organized_tribes
							NOT = {
								has_province_flag = organized_tribes
								has_province_flag = disorganized_tribes
								has_province_flag = fragmented_tribes
								has_province_flag = independent_tribes
								}
							}
						}
					}
			THIS = {
					random_neighbor_province = {
					limit = {
						NOT = { has_province_modifier = nomadic_raid }
						NOT = { owned_by = THIS }
						controlled_by = owner
						}
					owner = {
						relation = { who = THIS value = -5 }	
						}
					add_province_modifier = {
						name = "province_being_raided"
						duration = 550
						}
					province_event = 820016
				}
			}
		}
	random_owned = {
			limit = {
				THIS = {
						owner = {
							OR = {
								government = tribal_despotism-upper
								government = tribal_despotism
								government = tribal_despotism-lower
								government = tribal_despotism-lowest
								government = tribal_federation-upper
								government = tribal_federation
								government = tribal_federation-lower
								government = tribal_federation-lowest
								}
							}
							NOT = { has_province_flag = organized_tribes }
							OR = {
								has_province_flag = disorganized_tribes
								has_province_flag = fragmented_tribes
								has_province_flag = independent_tribes
							}
						}
					}
			THIS = {
					random_neighbor_province = {
					limit = {
						NOT = { has_province_modifier = nomadic_raid }
						NOT = { owned_by = THIS }
						controlled_by = owner
						}
					owner = {
						relation = { who = THIS value = -5 }	
						}
					add_province_modifier = {
						name = "province_being_raided"
						duration = 550
					}
				}
			}
		}
		}
	}
}

province_event = {

id = 820002

trigger = {
	owner = {
		OR = {
			government = tribal_despotism-upper
			government = tribal_democracy-upper
			government = tribal_federation-upper
			government = tribal_despotism
			government = tribal_democracy
			government = tribal_federation
			government = tribal_despotism-lower
			government = tribal_democracy-lower
			government = tribal_federation-lower
			government = tribal_despotism-lowest
			government = tribal_democracy-lowest
			government = tribal_federation-lowest
			}
		NOT = { stability = 0 }
		OR = {
			NOT = { MIL = 5 }
			NOT = { ADM = 5 }
			regency = yes
			}
		NOT = {
			any_owned_province = {
				has_province_modifier = tribal_disintegration
			}
		}
	}
	OR = {
		has_province_flag = disorganized_tribes
		has_province_flag = fragmented_tribes
		has_province_flag = organized_tribes
	}
}

mean_time_to_happen = {
	months = 60

	modifier = {
		has_province_flag = disorganized_tribes
		factor = 0.8
	}
	modifier = {
		has_province_flag = fragmented_tribes
		factor = 0.5
	}
	modifier = {
		owner = {
			NOT = { stability = 0 }
			}
		factor = 0.8
		}
	modifier = {
		owner = {
			NOT = { stability = -1 }
			}
		factor = 0.8
		}
	modifier = {
		owner = {
			NOT = { stability = -2 }
			}
		factor = 0.8
		}
	modifier = {
		owner = {
			regency = yes
			}
		factor = 0.5
	}
	modifier = {
		owner = {
			NOT = { MIL = 6 }
			}
		factor = 0.9
	}
	modifier = {
		owner = {
			NOT = { MIL = 5 }
			}
		factor = 0.9
	}
	modifier = {
		owner = {
			NOT = { MIL = 4 }
			}
		factor = 0.9
	}
	modifier = {
		owner = {
			NOT = { ADM = 6 }
			}
		factor = 0.9
	}
	modifier = {
		owner = {
			NOT = { ADM = 5 }
			}
		factor = 0.9
	}
	modifier = {
		owner = {
			NOT = { ADM = 4 }
			}
		factor = 0.9
	}
	modifier = {
		any_neighbor_province = {
			owned_by = THIS
			is_capital = yes
			}
		factor = 2
	}
	modifier = {
		is_capital = yes
		factor = 2.5
	}
	modifier = {
		revolt_risk = 3
		factor = 0.8
	}
	modifier = {
		revolt_risk = 6
		factor = 0.8
	}
	modifier = {
		revolt_risk = 9
		factor = 0.8
	}
	modifier = {
		revolt_risk = 12
		factor = 0.8
	}
	modifier = {
		revolt_risk = 15
		factor = 0.8
	}
}

title = "EVTNAME820002" #Crumbling Nation
desc = "EVTDESC820002"

option = {
	name = "EVTOPTA820002" #This is unacceptable!
	ai_chance = { factor = 100 }
	owner = {
		random_owned = {
			limit = {
				THIS = { has_province_flag = fragmented_tribes }
				}
			THIS = {
				clr_province_flag = fragmented_tribes
				remove_province_modifier = fragmented_tribes
				set_province_flag = independent_tribes
				remove_province_modifier = tribal_tribute
				add_province_modifier = {
					name = "independent_tribes"
					duration = -1
					}
				}
			}
		random_owned = {
			limit = {
				THIS = { has_province_flag = disorganized_tribes }
			}
			THIS = {
				clr_province_flag = disorganized_tribes
				remove_province_modifier = disorganized_tribes
				set_province_flag = fragmented_tribes
				remove_province_modifier = tribal_tribute
				add_province_modifier = {
					name = "fragmented_tribes"
					duration = -1
					}
				}
			}
		random_owned = {
			limit = {
				THIS = { has_province_flag = organized_tribes }
			}
			THIS = {
				clr_province_flag = organized_tribes
				remove_province_modifier = organized_tribes
				set_province_flag = disorganized_tribes
				remove_province_modifier = tribal_tribute
				add_province_modifier = {
					name = "disorganized_tribes"
					duration = -1
					}
				}
			}
		}
	add_province_modifier = {
		name = "tribal_disintegration"
		duration = 183
		}
	}
}

province_event = {

id = 820003

trigger = {
	any_neighbor_province = {
		has_province_modifier = tribal_disintegration
		owned_by = THIS
		}
	OR = {
		has_province_flag = organized_tribes
		has_province_flag = disorganized_tribes
		has_province_flag = fragmented_tribes
	}
}

mean_time_to_happen = {
	months = 3
	
}

title = "EVTNAME820003" #Crumbling Nation
desc = "EVTDESC820003"

option = {
	name = "EVTOPTA820003" #This must be stopped!
	ai_chance = { factor = 100 }
	owner = {
		random_owned = {
			limit = {
				THIS = { has_province_flag = fragmented_tribes }
				}
			THIS = {
				clr_province_flag = fragmented_tribes
				remove_province_modifier = fragmented_tribes
				set_province_flag = independent_tribes
				remove_province_modifier = tribal_tribute
				add_province_modifier = {
					name = "independent_tribes"
					duration = -1
					}
				}
			}
		random_owned = {
			limit = {
				THIS = { has_province_flag = disorganized_tribes }
			}
			THIS = {
				clr_province_flag = disorganized_tribes
				remove_province_modifier = disorganized_tribes
				set_province_flag = fragmented_tribes
				remove_province_modifier = tribal_tribute
				add_province_modifier = {
					name = "fragmented_tribes"
					duration = -1
					}
				}
			}
		random_owned = {
			limit = {
				THIS = { has_province_flag = organized_tribes }
			}
			THIS = {
				clr_province_flag = organized_tribes
				remove_province_modifier = organized_tribes
				set_province_flag = disorganized_tribes
				remove_province_modifier = tribal_tribute
				add_province_modifier = {
					name = "disorganized_tribes"
					duration = -1
					}
				}
			}
		}
	}
}


province_event = { #Nomads Pillaging a Neighbor Province! - Nomadic & Nomadic (in the same country)

id = 820004

trigger = {
	check_variable = { which = nomadic_lifestyle value = 1 }
	OR = {
		has_province_modifier = provincial_tax_h
		has_province_modifier = provincial_tax_vh
		revolt_risk = 10
		}
	controlled_by = owner
	any_neighbor_province = {
		check_variable = { which = nomadic_lifestyle value = 1 }
		NOT = { has_province_modifier = nomadic_raid }
		owned_by = THIS
		OR = {
			NOT = {
				has_province_modifier = provincial_tax_h 
				has_province_modifier = provincial_tax_vh
				has_province_modifier = provincial_tax_vl
				has_province_modifier = provincial_tax_l 
				}
			has_province_modifier = provincial_tax_vl
			has_province_modifier = provincial_tax_l
			NOT = { revolt_risk = 3 }
		}
#		NOT = { has_province_modifier = raiding_prohibited }
#		NOT = { owner = { marriage_with = THIS } }
#		NOT = { owner = { alliance_with = THIS } }
		}
	NOT = { has_province_modifier = successful_raid }
	NOT = { has_province_modifier = unsuccessful_raid }
	OR = {
		NOT = { has_province_modifier = raiding_prohibited }
		AND = {
			has_province_modifier = raiding_prohibited
			OR = {
				has_province_modifier = tribal_distress
				revolt_risk = 10
				}
			}
		}
	}

mean_time_to_happen = {

	months = 60

	modifier = {
		has_province_modifier = raiding_prohibited
		factor = 3
		}
	modifier = {
		owner = {
			OR = {
				has_country_modifier = horse_nomad
				has_country_flag = horse_nomad
				}
			}
		factor = 0.9
		}
	modifier = {
		owner = {
		OR = {
			government = tribal_despotism-upper
			government = tribal_despotism
			government = tribal_despotism-lower
			government = tribal_despotism-lowest
			}
		}
		factor = 0.9
		}
	modifier = {
		owner = {
			OR = {
			government = tribal_federation-upper
			government = tribal_federation
			government = tribal_federation-lower
			government = tribal_federation-lowest
			government = tribal_democracy-upper
			government = tribal_democracy
			government = tribal_democracy-lower
			government = tribal_democracy-lowest
			}
		}
		factor = 0.8
		}
	modifier = {
		NOT = { base_tax = 2 }
		factor = 0.9
		}
	modifier = {
		NOT = { base_tax = 3 }
		factor = 0.9
		}
	modifier = {
		any_neighbor_province = {
			base_tax = 2
			check_variable = { which = nomadic_lifestyle value = 1 }
			owned_by = THIS
			}
		factor = 0.9
		}
	modifier = {
		any_neighbor_province = {
			base_tax = 4
			check_variable = { which = nomadic_lifestyle value = 1 }
			owned_by = THIS
			}
		factor = 0.9
		}
	modifier = {
		any_neighbor_province = {
			base_tax = 6
			check_variable = { which = nomadic_lifestyle value = 1 }
			owned_by = THIS
			}
		factor = 0.9
		}
	modifier = {
		any_neighbor_province = {
			base_tax = 8
			check_variable = { which = nomadic_lifestyle value = 1 }
			owned_by = THIS
			}
		factor = 0.9
		}
	modifier = {
		any_neighbor_province = {
			base_tax = 10
			check_variable = { which = nomadic_lifestyle value = 1 }
			owned_by = THIS
			}
		factor = 0.9
		}
#	modifier = { 
#		check_variable = { which = nomadic_lifestyle value = 1 }
#		owner = { has_country_modifier = horse_nomad }
#		factor = 1.5
#		}
	modifier = {
		any_neighbor_province = {
			check_variable = { which = nomadic_lifestyle value = 1 }
			units_in_province = 1
			owned_by = THIS
			}
		factor = 1.2
		}
	modifier = {
		any_neighbor_province = {
			check_variable = { which = nomadic_lifestyle value = 1 }
			units_in_province = 2
			owned_by = THIS
			}
		factor = 1.2
		}
	modifier = {
		any_neighbor_province = {
			check_variable = { which = nomadic_lifestyle value = 1 }
			units_in_province = 3
			owned_by = THIS
			}
		factor = 1.2
		}
	modifier = {
		any_neighbor_province = {
			check_variable = { which = nomadic_lifestyle value = 1 }
			units_in_province = 4
			owned_by = THIS
			}
		factor = 1.2
		}
	modifier = {
		any_neighbor_province = {
			check_variable = { which = nomadic_lifestyle value = 1 }
			units_in_province = 5
			owned_by = THIS
			}
		factor = 1.2
		}
	}

title = "EVTNAME820001"
desc = "EVTDESC820004"

option = {
	name = "EVTOPTA820004" #There isn't much we can do...
	ai_chance = { factor = 100 }
#	owner = { treasury = -5 }
#	add_province_modifier = {
#				name = "province_raided"
#				duration = 550
#			}
	add_province_modifier = {
				name = "successful_raid"
				duration = 550
			}
	random_neighbor_province = {
		limit = {
			check_variable = { which = nomadic_lifestyle value = 1 }
			NOT = { has_province_modifier = nomadic_raid }
			owned_by = THIS
			controlled_by = owner
#			NOT = { owner = { marriage_with = THIS } }
#			NOT = { owner = { alliance_with = THIS } }
			owner = {
				OR = {
					has_country_flag = horse_nomad
					has_country_modifier = horse_nomad
					}
				}
			}
		add_province_modifier = {
				name = "nomadic_raid"
				duration = 550
			}
		}
#	random_neighbor_province = {
#		limit = {
#			check_variable = { which = nomadic_lifestyle value = 1 }
#			NOT = { has_province_modifier = receiving_tribute }
#			NOT = { has_province_modifier = ongoing_retaliatory_raid }
#			NOT = { owned_by = THIS }
#			controlled_by = owner
#			NOT = { has_province_modifier = raiding_prohibited }
#			NOT = { owner = { marriage_with = THIS } }
#			NOT = { owner = { alliance_with = THIS } }
#			owner = {
#				NOT = {
#					has_country_flag = horse_nomad
#					has_country_modifier = horse_nomad
#					}
#				}
#			}
#		owner = { 
#			relation = { who = THIS value = -10 }	
#			}
#		province_event = 820006
#		}
#  citysize = -50
#  add_province_modifier = {
#    name = "nomadic_raid"
#    duration = 550
#    }
#  remove_province_modifier = sent_retaliatory_raid
  }
#option = {
#  name = "EVTOPTB820001" #Retaliate against them
#  ai_chance = { factor = 20 }
#  owner = { treasury = -10 }
#	random_neighbor_province = {
#		limit = {
#			NOT = { owned_by = THIS }
#			NOT = { owner = { marriage_with = THIS } }
#			NOT = { owner = { alliance_with = THIS } }
#			has_province_flag = nomadic_lifestyle
#			}
#		owner = {
#			relation = { who = THIS value = -20 }
#			}
#		set_province_flag = province_raided
#		set_province_flag = retaliatory_raid
#		}
#  citysize = -50
#  add_province_modifier = {
#    name = "nomadic_raid"
#    duration = 700
#    }
#  }
}

province_event = { #Nomads Pillaging a Neighbor Province! - Nomadic & Sedentary (in the same country)

id = 820005

trigger = {
	owner = {
		NOT = {
			has_country_modifier = horse_nomad
			has_country_flag = horse_nomad
			}
		}
		has_province_modifier = titles_given
	revolt_risk = 5
	check_variable = { which = nomadic_lifestyle value = 1 }
	controlled_by = owner
	any_neighbor_province = {
		NOT = { check_variable = { which = nomadic_lifestyle value = 1 } }
		NOT = { has_province_modifier = nomadic_raid }
		owned_by = THIS
#		NOT = { has_province_modifier = raiding_prohibited }
#		NOT = { owner = { marriage_with = THIS } }
#		NOT = { owner = { alliance_with = THIS } }
		}
	NOT = { has_province_modifier = successful_raid }
	NOT = { has_province_modifier = unsuccessful_raid }
	OR = {
		NOT = { has_province_modifier = raiding_prohibited }
		AND = {
			has_province_modifier = raiding_prohibited
			OR = {
				has_province_modifier = tribal_distress
				revolt_risk = 10
				}
			}
		}
	}

mean_time_to_happen = {

	months = 60

	modifier = {
		has_province_modifier = raiding_prohibited
		factor = 3
		}
	modifier = {
		NOT = { base_tax = 2 }
		factor = 0.9
		}
	modifier = {
		NOT = { base_tax = 3 }
		factor = 0.9
		}
	modifier = {
		any_neighbor_province = {
			base_tax = 2
			NOT = { check_variable = { which = nomadic_lifestyle value = 1 } }
			owned_by = THIS
			}
		factor = 0.9
		}
	modifier = {
		any_neighbor_province = {
			base_tax = 4
			NOT = { check_variable = { which = nomadic_lifestyle value = 1 } }
			owned_by = THIS
			}
		factor = 0.9
		}
	modifier = {
		any_neighbor_province = {
			base_tax = 6
			NOT = { check_variable = { which = nomadic_lifestyle value = 1 } }
			owned_by = THIS
			}
		factor = 0.9
		}
	modifier = {
		any_neighbor_province = {
			base_tax = 8
			NOT = { check_variable = { which = nomadic_lifestyle value = 1 } }
			owned_by = THIS
			}
		factor = 0.9
		}
	modifier = {
		any_neighbor_province = {
			base_tax = 10
			NOT = { check_variable = { which = nomadic_lifestyle value = 1 } }
			owned_by = THIS
			}
		factor = 0.9
		}
#	modifier = { 
#		check_variable = { which = nomadic_lifestyle value = 1 }
#		owner = { has_country_modifier = horse_nomad }
#		factor = 1.5
#		}
	modifier = {
		any_neighbor_province = {
			NOT = { check_variable = { which = nomadic_lifestyle value = 1 } }
			units_in_province = 1
			owned_by = THIS
			}
		factor = 1.2
		}
	modifier = {
		any_neighbor_province = {
			NOT = { check_variable = { which = nomadic_lifestyle value = 1 } }
			units_in_province = 2
			owned_by = THIS
			}
		factor = 1.2
		}
	modifier = {
		any_neighbor_province = {
			NOT = { check_variable = { which = nomadic_lifestyle value = 1 } }
			units_in_province = 3
			owned_by = THIS
			}
		factor = 1.2
		}
	modifier = {
		any_neighbor_province = {
			NOT = { check_variable = { which = nomadic_lifestyle value = 1 } }
			units_in_province = 4
			owned_by = THIS
			}
		factor = 1.2
		}
	modifier = {
		any_neighbor_province = {
			NOT = { check_variable = { which = nomadic_lifestyle value = 1 } }
			units_in_province = 5
			owned_by = THIS
			}
		factor = 1.2
		}
	}

title = "EVTNAME820005"
desc = "EVTDESC820005"

option = {
	name = "EVTOPTA820005" #Do not question their action
	ai_chance = { factor = 80 }
	owner = { prestige = -0.03 }
	add_province_modifier = {
				name = "successful_raid"
				duration = 550
			}
	random_neighbor_province = {
		limit = {
			check_variable = { which = nomadic_lifestyle value = 1 }
			NOT = { has_province_modifier = nomadic_raid }
			owned_by = THIS
			controlled_by = owner
#			NOT = { owner = { marriage_with = THIS } }
#			NOT = { owner = { alliance_with = THIS } }
			owner = {
				OR = {
					has_country_flag = horse_nomad
					has_country_modifier = horse_nomad
					}
				}
			}
		add_province_modifier = {
				name = "nomadic_raid"
				duration = 550
			}
		}
  }
option = {
  name = "EVTOPTB820005" #Denounce their action
  ai_chance = { factor = 10 }
	remove_province_modifier = titles_given
	add_province_modifier = {
				name = "tribal_distress"
				duration = 1825
			}
	add_province_modifier = {
				name = "successful_raid"
				duration = 550
			}
    random_neighbor_province = {
		limit = {
			check_variable = { which = nomadic_lifestyle value = 1 }
			NOT = { has_province_modifier = nomadic_raid }
			
			owned_by = THIS
			controlled_by = owner
#			NOT = { owner = { marriage_with = THIS } }
#			NOT = { owner = { alliance_with = THIS } }
			owner = {
				OR = {
					has_country_flag = horse_nomad
					has_country_modifier = horse_nomad
					}
				}
			}
		add_province_modifier = {
				name = "nomadic_raid"
				duration = 550
			}
		}
  }
}

province_event = { #Nomadic raid in $PROVINCENAME$ - Successfully Repelled

id = 820006

trigger = {
	has_province_modifier = province_being_raided
	any_neighbor_province = {
		has_province_modifier = province_raided
		NOT = { owned_by = THIS }
	}
}

mean_time_to_happen = {
	months = 1
	
	modifier = { 
		factor = 1.2
		any_neighbor_province = {
			NOT = { owned_by = THIS }
			has_province_modifier = province_raided
			units_in_province = 1
			}
		}
	modifier = { 
		factor = 1.2
		any_neighbor_province = {
			NOT = { owned_by = THIS }
			has_province_modifier = province_raided
			units_in_province = 2
			}
		}
	modifier = { 
		factor = 1.2
		any_neighbor_province = {
			NOT = { owned_by = THIS }
			has_province_modifier = province_raided
			units_in_province = 3
			}
		}
	modifier = { 
		factor = 1.2
		any_neighbor_province = {
			NOT = { owned_by = THIS }
			has_province_modifier = province_raided
			units_in_province = 4
			}
		}
	modifier = { 
		factor = 1.2
		any_neighbor_province = {
			NOT = { owned_by = THIS }
			has_province_modifier = province_raided
			units_in_province = 5
			}
		}
	}

title = "EVTNAME820006"
desc = "EVTDESC820006"

immediate = { remove_province_modifier = province_being_raided }

option = {
	name = "EVTOPTA820006" #Success!
	ai_chance = { factor = 100 }
#	owner = { treasury = -5 }
	random_neighbor_province = {
		limit = {
			check_variable = { which = nomadic_lifestyle value = 1 }
			NOT = { owned_by = THIS }
			has_province_modifier = province_raided
			}
		province_event = 820013
		}
#  citysize = -50
#  add_province_modifier = {
#    name = "nomadic_raid"
#    duration = 550
#    }
  }
}

province_event = { #Nomadic raid in $PROVINCENAME$ - Failed Defense

id = 820007

trigger = {
	has_province_modifier = province_being_raided
	any_neighbor_province = {
		has_province_modifier = province_raided
		NOT = { owned_by = THIS }
	}
}

mean_time_to_happen = {
	months = 1
	
	modifier = {
		has_province_modifier = garrison_post_nomadic
		factor = 1.3
	}
	modifier = {
		factor = 1.5
		OR = {
			has_province_modifier = nomadic_defense2
			has_province_modifier = defensive_measures1
		}
	}
	modifier = {
		factor = 2
		OR = {
			has_province_modifier = nomadic_defense3
			has_province_modifier = defensive_measures2
		}
	}
	modifier = {
		factor = 1.2
		units_in_province = 1
	}
	modifier = {
		factor = 1.2
		units_in_province = 2
	}
	modifier = {
		factor = 1.2
		units_in_province = 3
	}
	modifier = {
		factor = 1.2
		units_in_province = 4
	}
	modifier = {
		factor = 1.2
		units_in_province = 5
	}
}

title = "EVTNAME820007"
desc = "EVTDESC820007"

immediate = { remove_province_modifier = province_being_raided }

option = {
	name = "EVTOPTA820007" #Terrible!
	ai_chance = { factor = 100 }
#	owner = { treasury = -5 }
	random_neighbor_province = {
		limit = {
			check_variable = { which = nomadic_lifestyle value = 1 }
			NOT = { owned_by = THIS }
			has_province_modifier = province_raided
			}
		province_event = 820012
		}
#  citysize = -50
  add_province_modifier = {
    name = "nomadic_raid"
    duration = 400
    }
  }
}

province_event = { #Nomadic raid in $PROVINCENAME$ - Raiders Retreat in Disarray!

id = 820008

trigger = {
	has_province_modifier = province_being_raided
	any_neighbor_province = {
		has_province_modifier = province_raided
		NOT = { owned_by = THIS }
	}
}

mean_time_to_happen = {
	months = 1
	
	modifier = {
		factor = 0.8
		units_in_province = 1
	}
	modifier = {
		factor = 0.8
		units_in_province = 2
	}
	modifier = {
		factor = 0.8
		units_in_province = 3
	}
	modifier = {
		factor = 0.8
		units_in_province = 4
	}
	modifier = {
		factor = 0.8
		units_in_province = 5
	}
	modifier = { 
		factor = 1.2
		any_neighbor_province = {
			NOT = { owned_by = THIS }
			has_province_modifier = province_raided
			units_in_province = 1
			}
		}
	modifier = { 
		factor = 1.2
		any_neighbor_province = {
			NOT = { owned_by = THIS }
			has_province_modifier = province_raided
			units_in_province = 2
			}
		}
	modifier = { 
		factor = 1.2
		any_neighbor_province = {
			NOT = { owned_by = THIS }
			has_province_modifier = province_raided
			units_in_province = 3
			}
		}
	modifier = { 
		factor = 1.2
		any_neighbor_province = {
			NOT = { owned_by = THIS }
			has_province_modifier = province_raided
			units_in_province = 4
			}
		}
	modifier = { 
		factor = 1.2
		any_neighbor_province = {
			NOT = { owned_by = THIS }
			has_province_modifier = province_raided
			units_in_province = 5
			}
		}
	}

title = "EVTNAME820008"
desc = "EVTDESC820008"

immediate = { remove_province_modifier = province_being_raided }

option = {
	name = "EVTOPTA820006" #Success!
	ai_chance = { factor = 100 }
#	owner = { treasury = -5 }
	random_neighbor_province = {
		limit = {
			check_variable = { which = nomadic_lifestyle value = 1 }
			NOT = { owned_by = THIS }
			has_province_modifier = province_raided
			}
		province_event = 820015
		}
#  citysize = -50
#  add_province_modifier = {
#    name = "nomadic_raid"
#    duration = 550
#    }
  }
}

province_event = { #Nomadic raid in $PROVINCENAME$ - A Total Failure

id = 820009

trigger = {
	has_province_modifier = province_being_raided
	any_neighbor_province = {
		has_province_modifier = province_raided
		NOT = { owned_by = THIS }
	}
}

mean_time_to_happen = {
	months = 1
	
	modifier = {
		has_province_modifier = garrison_post_nomadic
		factor = 1.3
	}
	modifier = {
		factor = 1.5
		OR = {
			has_province_modifier = nomadic_defense2
			has_province_modifier = defensive_measures1
		}
	}
	modifier = {
		factor = 2
		OR = {
			has_province_modifier = nomadic_defense3
			has_province_modifier = defensive_measures2
		}
	}
	modifier = {
		factor = 1.2
		units_in_province = 1
	}
	modifier = {
		factor = 1.2
		units_in_province = 2
	}
	modifier = {
		factor = 1.2
		units_in_province = 3
	}
	modifier = {
		factor = 1.2
		units_in_province = 4
	}
	modifier = {
		factor = 1.2
		units_in_province = 5
	}
	modifier = { 
		factor = 0.8
		any_neighbor_province = {
			NOT = { owned_by = THIS }
			has_province_modifier = province_raided
			units_in_province = 1
			}
		}
	modifier = { 
		factor = 0.8
		any_neighbor_province = {
			NOT = { owned_by = THIS }
			has_province_modifier = province_raided
			units_in_province = 2
			}
		}
	modifier = { 
		factor = 0.8
		any_neighbor_province = {
			NOT = { owned_by = THIS }
			has_province_modifier = province_raided
			units_in_province = 3
			}
		}
	modifier = { 
		factor = 0.8
		any_neighbor_province = {
			NOT = { owned_by = THIS }
			has_province_modifier = province_raided
			units_in_province = 4
			}
		}
	modifier = { 
		factor = 0.8
		any_neighbor_province = {
			NOT = { owned_by = THIS }
			has_province_modifier = province_raided
			units_in_province = 5
			}
		}
	}

title = "EVTNAME820009"
desc = "EVTDESC820009"

immediate = { remove_province_modifier = province_being_raided }

option = {
	name = "EVTOPTA820007" #Terrible!
	ai_chance = { factor = 100 }
#	owner = { treasury = -5 }
	random_neighbor_province = {
		limit = {
			check_variable = { which = nomadic_lifestyle value = 1 }
			NOT = { owned_by = THIS }
			has_province_modifier = province_raided
			}
		province_event = 820014
		}
#  citysize = -50
  add_province_modifier = {
    name = "nomadic_raid"
    duration = 800
    }
  }
}

province_event = { #Protest against raiding

id = 820010

is_triggered_only = yes

title = "EVTNAME820010"
desc = "EVTDESC820010"

option = {
	name = "EVTOPTA820010" #It's not our business!(Will repeal raiding prohibition if already prohibited)
	ai_chance = { factor = 60 }
#	owner = { treasury = -5 }
	owner = {
		random_owned = {
			limit = {
				THIS = { has_province_modifier = raiding_prohibited }
				}
			THIS = {
				remove_province_modifier = raiding_prohibited
				}
			}
		}
	random_neighbor_province = {
		limit = {
			has_province_flag = protesting_raiding
			NOT = { owned_by = THIS }
			}
		province_event = 820032
		owner = { 
			relation = { who = THIS value = -15 }
			random = {
				chance = 10
				casus_belli = THIS
				}
			}
		}
  }
 option = {
	name = "EVTOPTB820010" #Prohibit raiding in the province
	ai_chance = { factor = 20 }
#	owner = { treasury = -5 }
	random_neighbor_province = {
		limit = {
			has_province_flag = protesting_raiding
			NOT = { owned_by = THIS }
			}
		province_event = 820011
		owner = {
			relation = { who = THIS value = 15 }	
			}
		}
  add_province_modifier = {
    name = "raiding_prohibited"
    duration = -1
    }
	add_province_modifier = {
		name = "tribal_distress"
		duration = 3650
    }
  }
}

province_event = { #Raiding Prohibited in a Neighboring Nomadic Province!

id = 820011

is_triggered_only = yes

title = "EVTNAME820011"
desc = "EVTDESC820011"

immediate = { clr_province_flag = protesting_raiding }

option = {
	name = "EVTOPTA820011" #That's a relief...
	ai_chance = { factor = 100 }
	owner = { prestige = 0.03 }
  }
}

province_event = { #Successful raid

id = 820012

is_triggered_only = yes

title = "EVTNAME820012"
desc = "EVTDESC820012"

immediate = { remove_province_modifier = province_raided }

option = {
  name = "EVTOPTA820012"
  ai_chance = { factor = 100 }
  add_province_modifier = {
				name = "successful_raid"
				duration = 365
			}
  random_neighbor_province = {
	limit = {
		has_province_modifier = participating_in_raid
		owned_by = THIS
		}
	province_event = 820026
	remove_province_modifier = participating_in_raid
	add_province_modifier = {
		name = "successful_raid"
		duration = 365
		}
	}
  citysize = +50
  }
}

province_event = { #Unsuccessful raid

id = 820013

is_triggered_only = yes

title = "EVTNAME820013" #Same
desc = "EVTDESC820013"

immediate = { remove_province_modifier = province_raided }

option = {
  name = "EVTOPTA820013"
  ai_chance = { factor = 100 }
  add_province_modifier = {
    name = "unsuccessful_raid"
    duration = 365
    }
  random_neighbor_province = {
	limit = {
		has_province_modifier = participating_in_raid
		owned_by = THIS
		}
	province_event = 820027
	add_province_modifier = {
    name = "unsuccessful_raid"
		duration = 365
		}
	}
  }
}

province_event = { #Great raid

id = 820014

is_triggered_only = yes

title = "EVTNAME820014" #Same
desc = "EVTDESC820014"

immediate = { remove_province_modifier = province_raided }

option = {
  name = "EVTOPTA820014"
  ai_chance = { factor = 100 }
  add_province_modifier = {
				name = "successful_raid"
				duration = 730
			}
  random_neighbor_province = {
	limit = {
		has_province_modifier = participating_in_raid
		owned_by = THIS
		}
	province_event = 820026
	remove_province_modifier = participating_in_raid
	add_province_modifier = {
    name = "successful_raid"
		duration = 730
		}
	}
  citysize = +100
  }
}

province_event = { #Disastrous raid

id = 820015

is_triggered_only = yes

title = "EVTNAME820015" #Same
desc = "EVTDESC820015"

immediate = { remove_province_modifier = province_raided }

option = {
  name = "EVTOPTA820005"
  ai_chance = { factor = 100 }
  add_province_modifier = {
    name = "unsuccessful_raid"
    duration = 730
    }
 random_neighbor_province = {
	limit = {
		has_province_modifier = participating_in_raid
		owned_by = THIS
		}
	province_event = 820027
	remove_province_modifier = participating_in_raid
	add_province_modifier = {
    name = "unsuccessful_raid"
		duration = 730
		}
	}
  }
}

province_event = { #Protest against raiding

id = 820016

is_triggered_only = yes

title = "EVTNAME820016" #Protest Against Raiding
desc = "EVTDESC820016" #

option = {
  name = "EVTOPTA820016" #Make a formal protest
  ai_chance = { factor = 60 }
  random_neighbor_province = {
	limit = {
		has_province_modifier = province_raided
		NOT = { owned_by = THIS }
		}
	province_event = 820010
	}
	set_province_flag = protesting_raiding
  }
option = {
  name = "EVTOPTB820016" #Save our breath
  ai_chance = { factor = 40 }
  }
}

province_event = { #Successful retaliatory raid

id = 820017

trigger = {
	controlled_by = THIS
	has_province_modifier = ongoing_retaliatory_raid
	any_neighbor_province = {
		has_province_modifier = sent_retaliatory_raid
		}
	}

mean_time_to_happen = {
	months = 1
	modifier = { 
		factor = 0.8
		any_neighbor_province = {
			NOT = { owned_by = THIS }
			has_province_modifier = sent_retaliatory_raid
			units_in_province = 1
			}
		}
	modifier = { 
		factor = 0.8
		any_neighbor_province = {
			NOT = { owned_by = THIS }
			has_province_modifier = sent_retaliatory_raid
			units_in_province = 2
			}
		}
	modifier = { 
		factor = 0.8
		any_neighbor_province = {
			NOT = { owned_by = THIS }
			has_province_modifier = sent_retaliatory_raid
			units_in_province = 3
			}
		}
	modifier = { 
		factor = 0.8
		any_neighbor_province = {
			NOT = { owned_by = THIS }
			has_province_modifier = sent_retaliatory_raid
			units_in_province = 4
			}
		}
	modifier = { 
		factor = 0.8
		any_neighbor_province = {
			NOT = { owned_by = THIS }
			has_province_modifier = sent_retaliatory_raid
			units_in_province = 5
			}
		}
	}

title = "EVTNAME820017"
desc = "EVTDESC820017"

immediate = {
	remove_province_modifier = ongoing_retaliatory_raid
	}

option = {
  name = "EVTOPTA820017"
  ai_chance = { factor = 100 }
  citysize = -50
#  owner = { treasury = -5 }
  add_province_modifier = {
    name = "retaliatory_raid"
    duration = 700
    }
	random_neighbor_province = {
		limit = { has_province_modifier = sent_retaliatory_raid }		
		province_event = 820021
		remove_province_modifier = sent_retaliatory_raid
		add_province_modifier = {
			name = "done_retaliatory_raid"
			duration = 365
			}
		}
  }
}

province_event = { #Unsuccessful retaliatory raid

id = 820018

trigger = {
	controlled_by = THIS
	has_province_modifier = ongoing_retaliatory_raid
	any_neighbor_province = { has_province_modifier = sent_retaliatory_raid }
	}

mean_time_to_happen = {
	months = 1
	modifier = {
		factor = 1.2
		owner = { has_country_flag = easy_difficulty }
		}
	modifier = { 
		factor = 0.8
		units_in_province = 1
		}
	modifier = { 
		factor = 0.8
		units_in_province = 2
		}
	modifier = { 
		factor = 0.8
		units_in_province = 3
		}
	modifier = { 
		factor = 0.8
		units_in_province = 4
		}
	modifier = { 
		factor = 0.8
		units_in_province = 5
		}
	}

title = "EVTNAME820018" #Same
desc = "EVTDESC820018"

immediate = {
	remove_province_modifier = ongoing_retaliatory_raid
	}

option = {
  name = "EVTOPTA820018"
  ai_chance = { factor = 100 }
  citysize = -25
  add_province_modifier = {
    name = "retaliatory_raid"
    duration = 365
    }
	random_neighbor_province = {
		limit = { has_province_modifier = sent_retaliatory_raid }
		province_event = 820022
		remove_province_modifier = sent_retaliatory_raid
		add_province_modifier = {
			name = "done_retaliatory_raid"
			duration = 365
			}
		}
  }
}

province_event = { #Devastating retaliatory raid

id = 820019

trigger = {
	controlled_by = THIS
	has_province_modifier = ongoing_retaliatory_raid
	any_neighbor_province = { has_province_modifier = sent_retaliatory_raid }
	}

mean_time_to_happen = {
	months = 1
	modifier = {
		factor = 0.8
		any_neighbor_province = {
			NOT = { owned_by = THIS }
			has_province_modifier = sent_retaliatory_raid
			units_in_province = 1
			}
		}
	modifier = { 
		factor = 0.8
		any_neighbor_province = {
			NOT = { owned_by = THIS }
			has_province_modifier = sent_retaliatory_raid
			units_in_province = 2
			}
		}
	modifier = { 
		factor = 0.8
		any_neighbor_province = {
			NOT = { owned_by = THIS }
			has_province_modifier = sent_retaliatory_raid
			units_in_province = 3
			}
		}
	modifier = { 
		factor = 0.8
		any_neighbor_province = {
			NOT = { owned_by = THIS }
			has_province_modifier = sent_retaliatory_raid
			units_in_province = 4
			}
		}
	modifier = { 
		factor = 0.8
		any_neighbor_province = {
			NOT = { owned_by = THIS }
			has_province_modifier = sent_retaliatory_raid
			units_in_province = 5
			}
		}
	modifier = { 
		factor = 1.2
		units_in_province = 1
		}
	modifier = { 
		factor = 1.2
		units_in_province = 2
		}
	modifier = { 
		factor = 1.2
		units_in_province = 3
		}
	modifier = { 
		factor = 1.2
		units_in_province = 4
		}
	modifier = { 
		factor = 1.2
		units_in_province = 5
		}
	}

title = "EVTNAME820019" #Same
desc = "EVTDESC820019"

immediate = {
	remove_province_modifier = ongoing_retaliatory_raid
	}

option = {
  name = "EVTOPTA820019"
  ai_chance = { factor = 100 }
  citysize = -100
#  owner = { treasury = -10 }
  add_province_modifier = {
    name = "retaliatory_raid"
    duration = 1000
    }
	random_neighbor_province = {
		limit = { has_province_modifier = sent_retaliatory_raid }
		province_event = 820023
		remove_province_modifier = sent_retaliatory_raid
		add_province_modifier = {
			name = "done_retaliatory_raid"
			duration = 365
			}
		}
  }
}

province_event = { #Failed retaliatory raid

id = 820020

trigger = {
	controlled_by = THIS
	has_province_modifier = ongoing_retaliatory_raid
	any_neighbor_province = { has_province_modifier = sent_retaliatory_raid }
	}

mean_time_to_happen = { 
	months = 1 
	modifier = { 
		factor = 1.2
		owner = { has_country_flag = easy_difficulty }
		}
	modifier = { 
		factor = 1.2
		any_neighbor_province = {
			NOT = { owned_by = THIS }
			has_province_modifier = sent_retaliatory_raid
			units_in_province = 1
			}
		}
	modifier = { 
		factor = 1.2
		any_neighbor_province = {
			NOT = { owned_by = THIS }
			has_province_modifier = sent_retaliatory_raid
			units_in_province = 2
			}
		}
	modifier = { 
		factor = 1.2
		any_neighbor_province = {
			NOT = { owned_by = THIS }
			has_province_modifier = sent_retaliatory_raid
			units_in_province = 3
			}
		}
	modifier = { 
		factor = 1.2
		any_neighbor_province = {
			NOT = { owned_by = THIS }
			has_province_modifier = sent_retaliatory_raid
			units_in_province = 4
			}
		}
	modifier = { 
		factor = 1.2
		any_neighbor_province = {
			NOT = { owned_by = THIS }
			has_province_modifier = sent_retaliatory_raid
			units_in_province = 5
			}
		}
	modifier = {
		factor = 0.8
		units_in_province = 1
		}
	modifier = { 
		factor = 0.8
		units_in_province = 2
		}
	modifier = { 
		factor = 0.8
		units_in_province = 3
		}
	modifier = { 
		factor = 0.8
		units_in_province = 4
		}
	modifier = { 
		factor = 0.8
		units_in_province = 5
		}
	}

title = "EVTNAME820020" #Same
desc = "EVTDESC820020"

immediate = {
	remove_province_modifier = ongoing_retaliatory_raid
	}

option = {
  name = "EVTOPTA820020"
  ai_chance = { factor = 100 }
  citysize = -10
  random_neighbor_province = {
		limit = { has_province_modifier = sent_retaliatory_raid }
		province_event = 820024
		remove_province_modifier = sent_retaliatory_raid
		add_province_modifier = {
			name = "done_retaliatory_raid"
			duration = 365
			}
		}
  }
}

province_event = { #Successful retaliatory raid

id = 820021

is_triggered_only = yes

title = "EVTNAME820021" #Successful retaliatory raid!
desc = "EVTDESC820021" #Our retaliation ended with a success, not only punishing the nomads but also brining some pillage!

option = {
  name = "EVTOPTA820021" #Great
  ai_chance = { factor = 100 }
  owner = {
	treasury = 3
#	army_tradition = 0.02
	}
  }
}

province_event = { #Unsuccessful retaliatory raid!

id = 820022

is_triggered_only = yes

title = "EVTNAME820022" #Unsuccessful retaliatory raid!
desc = "EVTDESC820022" #Although our retaliatory army was able to inflict some damage nomads, it was not able to achieve a clear victory over them.

option = {
  name = "EVTOPTA820022" #They learned a lesson nonetheless
  ai_chance = { factor = 100 }
#  owner = { army_tradition = -0.02 }
  }
}

province_event = { #Crushing retaliatory raid!

id = 820023

is_triggered_only = yes

title = "EVTNAME820023" #Crushing retaliatory raid!
desc = "EVTDESC820023" #Our retaliatory army gave the nomads a severe blow, destorying their bases and looting their villages!

option = {
  name = "EVTOPTA820023" #Excellent
  ai_chance = { factor = 100 }
  owner = {
	treasury = 6
#	army_tradition = 0.05
	}
  }
}

province_event = { #Failed retaliatory raid!

id = 820024

is_triggered_only = yes

title = "EVTNAME820024" #Failed retaliatory raid!
desc = "EVTDESC820024" #Our retaliation attempt ended with a disastrous result - the nomads remained virtually unscathed, and our army's reputation has been soundly wounded!

option = {
  name = "EVTOPTA820024" #Terrible!
  ai_chance = { factor = 100 }
  owner = {
	prestige = -0.03
	army_tradition = -0.05
	}
  }
}

province_event = { #Request for Participation in Raiding

id = 820025

trigger = {
	check_variable = { which = nomadic_lifestyle value = 1 }
	owner = {
		OR = {
			government = tribal_despotism-upper
			government = tribal_despotism
			government = tribal_despotism-lower
			government = tribal_despotism-lowest
			government = tribal_federation-upper
			government = tribal_federation
			government = tribal_federation-lower
			government = tribal_federation-lowest
			}
		}
	OR = {
		has_province_flag = organized_tribes
		NOT = {
			has_province_flag = disorganized_tribes
			has_province_flag = fragmented_tribes
			has_province_flag = independent_tribes
			}
		}
	NOT = { revolt_risk = 2 }
	NOT = { has_province_modifier = nomadic_raid }
	NOT = { has_province_modifier = successful_raid }
	NOT = { has_province_modifier = unsuccessful_raid }
	NOT = { has_province_modifier = receiving_tribute }
	NOT = { has_province_modifier = ongoing_retaliatory_raid }
	NOT = { has_province_modifier = retaliatory_raid }
	controlled_by = owner
	any_neighbor_province = {
		is_capital = yes
		owned_by = THIS
		controlled_by = THIS
		check_variable = { which = nomadic_lifestyle value = 1 }
		}
	any_neighbor_province = {
		NOT = { has_province_modifier = nomadic_raid }
		NOT = { owned_by = THIS }
		controlled_by = owner
		}
	OR = {
		NOT = { has_province_modifier = raiding_prohibited }
		AND = {
			has_province_modifier = raiding_prohibited
			OR = {
				has_province_modifier = tribal_distress
				revolt_risk = 10
				}
			}
		}
	}
	
immediate = {
	add_province_modifier = {
		name = "province_raided"
		duration = 550
		}
	}

mean_time_to_happen = {

	months = 60

	modifier = {
		has_province_modifier = raiding_prohibited
		factor = 3
		}
	modifier = {
		has_province_modifier = receiving_tribute
		owner = {
			is_bankrupt = no
			treasury = 150
			}
		factor = 0
		}
	modifier = {
		has_province_modifier = receiving_tribute
		owner = {
			is_bankrupt = yes
			treasury = 150
			}
		factor = 3
		}
	modifier = {
		has_province_modifier = receiving_tribute
		owner = {
			is_bankrupt = no
			NOT = { treasury = 150 }
			}
		factor = 3
		}
	modifier = {
		NOT = { base_tax = 2 }
		factor = 0.9
		}
	modifier = {
		NOT = { base_tax = 3 }
		factor = 0.9
		}
	modifier = {
		any_neighbor_province = {
			base_tax = 2
			check_variable = { which = nomadic_lifestyle value = 1 }
			NOT = { owned_by = THIS }
			}
		factor = 0.9
		}
	modifier = {
		any_neighbor_province = {
			base_tax = 4
			check_variable = { which = nomadic_lifestyle value = 1 }
			NOT = { owned_by = THIS }
			}
		factor = 0.9
		}
	modifier = {
		any_neighbor_province = {
			base_tax = 6
			check_variable = { which = nomadic_lifestyle value = 1 }
			NOT = { owned_by = THIS }
			}
		factor = 0.9
		}
	modifier = {
		any_neighbor_province = {
			base_tax = 8
			check_variable = { which = nomadic_lifestyle value = 1 }
			NOT = { owned_by = THIS }
			}
		factor = 0.9
		}
	modifier = {
		any_neighbor_province = {
			base_tax = 10
			check_variable = { which = nomadic_lifestyle value = 1 }
			NOT = { owned_by = THIS }
			}
		factor = 0.9
		}
	modifier = {
		owner = {
			is_bankrupt = yes
			}
		factor = 0.5
		}
	modifier = {
		owner = {
			NOT = { treasury = 150 }
			}
		factor = 0.8
		}
	modifier = {
			owner = {
				NOT = { treasury = 100 }
			}
		factor = 0.8
		}
	modifier = {
			owner = {
				NOT = { treasury = 50 }
				}
		factor = 0.8
		}
	modifier = { 
		any_neighbor_province = {
			check_variable = { which = nomadic_lifestyle value = 1 }
			owner = {
				NOT = { stability = 0 }
				}
			}	
		factor = 0.9
		}
	modifier = { 
		any_neighbor_province = {
			check_variable = { which = nomadic_lifestyle value = 1 }
			owner = {
				NOT = { stability = -1 }
				}
			}	
		factor = 0.9
		}	
	modifier = { 
		any_neighbor_province = {
			check_variable = { which = nomadic_lifestyle value = 1 }
			owner = {
				NOT = { stability = -2 }
				}
			}	
		factor = 0.9
		}	
	modifier = { 
			owner = { has_country_flag = easy_difficulty }
		factor = 1.2
		}
	modifier = {
		has_province_modifier = unsuccessful_raid
		factor = 2
		}
#	modifier = {
#		any_neighbor_province = {
#			has_province_modifier = horse_market_civilized
#			}
#			factor = 1.5
#		}		
#	modifier = {
#			has_province_modifier = nomadic_defense1
#		factor = 1.5
#		}
#	modifier = {
#		has_province_modifier = nomadic_defense2
#		factor = 1.5
#		}
#	modifier = {
#		has_province_modifier = nomadic_defense3
#		factor = 2
#		}
#	modifier = {
#		has_province_modifier = defensive_measures1
#		factor = 1.5
#		}
#	modifier = {
#		has_province_modifier = defensive_measures2
#		factor = 2
#		}
	modifier = {
		any_neighbor_province = {
			check_variable = { which = nomadic_lifestyle value = 1 }
			units_in_province = 1
			NOT = { owned_by = THIS }
			}
		factor = 1.2
		}
	modifier = {
		any_neighbor_province = {
			check_variable = { which = nomadic_lifestyle value = 1 }
			units_in_province = 2
			NOT = { owned_by = THIS }
			}
		factor = 1.2
		}
	modifier = {
		any_neighbor_province = {
			check_variable = { which = nomadic_lifestyle value = 1 }
			units_in_province = 3
			NOT = { owned_by = THIS }
			}
		factor = 1.2
		}
	modifier = {
		any_neighbor_province = {
			check_variable = { which = nomadic_lifestyle value = 1 }
			units_in_province = 4
			NOT = { owned_by = THIS }
			}
		factor = 1.2
		}
	modifier = {
		any_neighbor_province = {
			check_variable = { which = nomadic_lifestyle value = 1 }
			units_in_province = 5
			NOT = { owned_by = THIS }
			}
		factor = 1.2
		}
	modifier = { 
			owner = { war_exhaustion = 3 }
		factor = 1.1
		}
	modifier = { 
			owner = { war_exhaustion = 6 }
		factor = 1.1
		}
	modifier = { 
			owner = { war_exhaustion = 9 }
		factor = 1.1
		}
	modifier = { 
			owner = { war_exhaustion = 12 }
		factor = 1.1
		}
	modifier = { 
			owner = { war_exhaustion = 15 }
		factor = 1.1
		}
	modifier = {
		any_neighbor_province = {
			NOT = { owned_by = THIS }
			check_variable = { which = nomadic_lifestyle value = 1 }
			relation = { who = THIS value = 0 }
			}
		factor = 1.2
		}
	modifier = {
		any_neighbor_province = {
			NOT = { owned_by = THIS }
			check_variable = { which = nomadic_lifestyle value = 1 }
			owner = { relation = { who = THIS value = 30 } }
			}
		factor = 1.2
		}
	modifier = {
		any_neighbor_province = {
			NOT = { owned_by = THIS }
			check_variable = { which = nomadic_lifestyle value = 1 }
			owner = { relation = { who = THIS value = 60 } }
			}
		factor = 1.2
		}
	modifier = {
		any_neighbor_province = {
			NOT = { owned_by = THIS }
			check_variable = { which = nomadic_lifestyle value = 1 }
			owner = { relation = { who = THIS value = 90 } }
			}
		factor = 1.2
		}
	modifier = {
		any_neighbor_province = {
			NOT = { owned_by = THIS }
			check_variable = { which = nomadic_lifestyle value = 1 }
			owner = { relation = { who = THIS value = 120 } }
			}
		factor = 1.2
		}
	modifier = {
		any_neighbor_province = {
			NOT = { owned_by = THIS }
			check_variable = { which = nomadic_lifestyle value = 1 }
			owner = { relation = { who = THIS value = 150 } }
			}
		factor = 1.2
		}
	modifier = {
		any_neighbor_province = {
			NOT = { owned_by = THIS }
			check_variable = { which = nomadic_lifestyle value = 1 }
			owner = { relation = { who = THIS value = 180 } }
			}
		factor = 1.2
		}
	}

title = "EVTNAME820025" #Request for Participation in Raiding
desc = "EVTDESC820025"

option = {
  name = "EVTOPTA820025" #Participate in raiding
  ai_chance = { factor = 70 }
  random_neighbor_province = {
	limit = {
		is_capital = yes
		owned_by = THIS
		}
	add_province_modifier = {
		name = "participating_in_raid"
		duration = 550
		}
	}
  owner = {
		random_owned = {
			limit = {
				THIS = {
					OR = {
						owner = {
							NOT = {
								government = tribal_despotism-upper
								government = tribal_despotism
								government = tribal_despotism-lower
								government = tribal_despotism-lowest
								government = tribal_federation-upper
								government = tribal_federation
								government = tribal_federation-lower
								government = tribal_federation-lowest
								}
							}
							has_province_flag = organized_tribes
							NOT = {
								has_province_flag = organized_tribes
								has_province_flag = disorganized_tribes
								has_province_flag = fragmented_tribes
								has_province_flag = independent_tribes
								}
							}
						}
					}
			THIS = {
					random_neighbor_province = {
					limit = {
						NOT = { has_province_modifier = nomadic_raid }
						NOT = { owned_by = THIS }
						controlled_by = owner
						}
					owner = {
						relation = { who = THIS value = -5 }	
						}
					add_province_modifier = {
						name = "province_being_raided"
						duration = 550
						}
					province_event = 820016
				}
			}
		}
	random_owned = {
			limit = {
				THIS = {
						owner = {
							OR = {
								government = tribal_despotism-upper
								government = tribal_despotism
								government = tribal_despotism-lower
								government = tribal_despotism-lowest
								government = tribal_federation-upper
								government = tribal_federation
								government = tribal_federation-lower
								government = tribal_federation-lowest
								}
							}
							NOT = { has_province_flag = organized_tribes }
							OR = {
								has_province_flag = disorganized_tribes
								has_province_flag = fragmented_tribes
								has_province_flag = independent_tribes
							}
						}
					}
			THIS = {
					random_neighbor_province = {
					limit = {
						NOT = { has_province_modifier = nomadic_raid }
						NOT = { owned_by = THIS }
						controlled_by = owner
						}
					owner = {
						relation = { who = THIS value = -5 }	
						}
					add_province_modifier = {
						name = "province_being_raided"
						duration = 550
					}
				}
			}
		}
	}
  }
option = {
  name = "EVTOPTB820025" #Decline the request
  ai_chance = { factor = 30 }
  owner = {
		random_owned = {
			limit = {
				THIS = {
					OR = {
						owner = {
							NOT = {
								government = tribal_despotism-upper
								government = tribal_despotism
								government = tribal_despotism-lower
								government = tribal_despotism-lowest
								government = tribal_federation-upper
								government = tribal_federation
								government = tribal_federation-lower
								government = tribal_federation-lowest
								}
							}
							has_province_flag = organized_tribes
							NOT = {
								has_province_flag = organized_tribes
								has_province_flag = disorganized_tribes
								has_province_flag = fragmented_tribes
								has_province_flag = independent_tribes
								}
							}
						}
					}
			THIS = {
					random_neighbor_province = {
					limit = {
						NOT = { has_province_modifier = nomadic_raid }
						NOT = { owned_by = THIS }
						controlled_by = owner
						}
					owner = {
						relation = { who = THIS value = -5 }	
						}
					add_province_modifier = {
						name = "province_being_raided"
						duration = 550
						}
					province_event = 820016
				}
			}
		}
	random_owned = {
			limit = {
				THIS = {
						owner = {
							OR = {
								government = tribal_despotism-upper
								government = tribal_despotism
								government = tribal_despotism-lower
								government = tribal_despotism-lowest
								government = tribal_federation-upper
								government = tribal_federation
								government = tribal_federation-lower
								government = tribal_federation-lowest
								}
							}
							NOT = { has_province_flag = organized_tribes }
							OR = {
								has_province_flag = disorganized_tribes
								has_province_flag = fragmented_tribes
								has_province_flag = independent_tribes
							}
						}
					}
			THIS = {
					random_neighbor_province = {
					limit = {
						NOT = { has_province_modifier = nomadic_raid }
						NOT = { owned_by = THIS }
						controlled_by = owner
						}
					owner = {
						relation = { who = THIS value = -5 }	
						}
					add_province_modifier = {
						name = "province_being_raided"
						duration = 550
					}
				}
			}
		}
	}
  }
}

province_event = { #A Successful Joint Action

id = 820026

is_triggered_only = yes

title = "EVTNAME820026" #A Successful Joint Action!
desc = "EVTDESC820026"

option = {
  name = "EVTOPTA820026" #Excellent
  ai_chance = { factor = 100 }
  }
}

province_event = { #Joint Action Ends in Faliure

id = 820027

is_triggered_only = yes

title = "EVTNAME820027"
desc = "EVTDESC820027"

option = {
  name = "EVTOPTA820027" #Horrible!
  ai_chance = { factor = 100 }
  }
}

province_event = {

id = 820028

trigger = {
	OR = {
		has_province_flag = fragmented_tribes
		has_province_flag = disorganized_tribes
		has_province_flag = organized_tribes
		}
	NOT = { controlled_by = owner }
	NOT = { has_province_modifier = intertribal_conflict }
	NOT = { has_province_modifier = collapsing_leadership }
#	NOT = { controlled_by = REB }
	}
	
mean_time_to_happen = {
	months = 2
	
	modifier = {
		looted = yes
		factor = 0.5
	}
}

immediate = {
	add_province_modifier = {
		name = "collapsing_leadership"
		duration = 60
		}
	}

title = "EVTNAME820028" #$PROVINCENAME$ in Chaos!
desc = "EVTDESC820028" #$PROVINCENAME$ has been overrun by the enemy, and we are no longer able to support the tribes that had been under our influence. We are losing our grip over our allies!

option = {
	name = "EVTOPTA820027" #Horrible!
	ai_chance = { factor = 100 }
	remove_province_modifier = tribal_tribute
	remove_province_modifier = outside_support
	owner = {
		random_owned = {
			limit = {
				THIS = { has_province_flag = fragmented_tribes }
				}
			THIS = {
				clr_province_flag = fragmented_tribes
				remove_province_modifier = fragmented_tribes
				set_province_flag = independent_tribes
				add_province_modifier = {
					name = "independent_tribes"
					duration = -1
					}
				}
			}
		random_owned = {
			limit = {
				THIS = { has_province_flag = disorganized_tribes }
				}
			THIS = {
				clr_province_flag = disorganized_tribes
				remove_province_modifier = disorganized_tribes
				set_province_flag = fragmented_tribes
				add_province_modifier = {
					name = "fragmented_tribes"
					duration = -1
					}
				}
			}
		random_owned = {
			limit = {
				THIS = { has_province_flag = organized_tribes }
				}
			THIS = {
				clr_province_flag = organized_tribes
				remove_province_modifier = organized_tribes
				set_province_flag = disorganized_tribes
				add_province_modifier = {
					name = "disorganized_tribes"
					duration = -1
					}
				}
			}
		}
	}
}

country_event = {

id = 820029

trigger = {
	OR = {
		has_country_flag = horse_nomad
		has_country_modifier = horse_nomad
		has_country_flag = semi_nomadic
		has_country_modifier = semi_nomadic
		}
	NOT = {
		any_owned_province = {
			check_variable = { which = nomadic_lifestyle value = 1 }
			}
		}
	NOT = { has_country_flag = nomadic_by_choice }
	}
	
mean_time_to_happen = {
	months = 60
}

title = "EVTNAME820029" #Loss of Nomadic Heritage
desc = "EVTDESC820029"

option = {
	name = "EVTOPTA820029"
	ai_chance = { factor = 100 }
	prestige = -0.5
	any_owned = {
		limit = { has_province_modifier = guaranteed_autonomy }
		remove_province_modifier = guaranteed_autonomy
		}
	random_owned = {
		limit = {
			owner = {
				has_country_flag = horse_nomad
				has_country_modifier = horse_nomad
				}
			}
		owner = {
			clr_country_flag = horse_nomad
			remove_country_modifier = horse_nomad
			set_country_flag = hierarchial_society
			add_country_modifier = {
				name = "hierarchial_society"
				duration = -1
				}
			}
		}
	random_owned = {
		limit = {
			owner = {
				has_country_flag = semi_nomadic
				has_country_modifier = semi_nomadic
				}
			}
		owner = {
			clr_country_flag = semi_nomadic
			remove_country_modifier = semi_nomadic
			set_country_flag = hierarchial_society
			add_country_modifier = {
				name = "hierarchial_society"
				duration = -1
				}
			}
		}
	random_owned = { 
				limit = {
					owner = {
						OR = {
							government = tribal_despotism-upper
							government = tribal_democracy-upper
							government = tribal_federation-upper
							}
						}
					}
				owner = { government = early_feudal_monarchy-upper }
				}
			random_owned = { 
				limit = {
					owner = {
						OR = {
							government = tribal_despotism
							government = tribal_democracy
							government = tribal_federation
							}
						}
					}
				owner = { government = early_feudal_monarchy }
				}
			random_owned = { 
				limit = {
					owner = {
						OR = {
							government = tribal_despotism-lower
							government = tribal_democracy-lower
							government = tribal_federation-lower
							}
						}
					}
				owner = { government = early_feudal_monarchy-lower }
				}
			random_owned = { 
				limit = {
					owner = {
						OR = {
							government = tribal_despotism-lowest
							government = tribal_democracy-lowest
							government = tribal_federation-lowest
							}
						}
					}
				owner = { government = early_feudal_monarchy-lowest }
			}
	}
}

province_event = {

id = 820030

trigger = {
	has_province_modifier = surveying_nomads
	has_province_flag = independent_tribes
	}
	
mean_time_to_happen = {
	months = 24
	
	modifier = {
		units_in_province = 1
		factor = 0.9
	}
	modifier = {
		units_in_province = 2
		factor = 0.9
	}
	modifier = {
		units_in_province = 3
		factor = 0.9
	}
	modifier = {
		units_in_province = 4
		factor = 0.9
	}
	modifier = {
		units_in_province = 5
		factor = 0.9
	}
	modifier = {
		revolt_risk = 3
		factor = 1.1
	}
	modifier = {
		revolt_risk = 6
		factor = 1.1
	}
	modifier = {
		revolt_risk = 9
		factor = 1.1
	}
	modifier = {
		revolt_risk = 12
		factor = 1.1
	}
	modifier = {
		revolt_risk = 15
		factor = 1.1
	}
}

immediate = { remove_province_modifier = surveying_nomads }

title = "EVTNAME820030" #A Successful Survey of $PROVINCENAME$
desc = "EVTDESC820030" #After months of effort, our survey team was able to identify some of the tribes that are willing to cooperate with our administration. This should stabilize our control over the area!

option = {
	name = "EVTOPTA820021"
	ai_chance = { factor = 100 }
	clr_province_flag = independent_tribes
	remove_province_modifier = independent_tribes
	set_province_flag = fragmented_tribes
	add_province_modifier = {
		name = "fragmented_tribes"
		duration = -1
		}
	}
}

province_event = {

id = 820031

trigger = {
	has_province_modifier = surveying_nomads
	}
	
mean_time_to_happen = {
	months = 24
	
	modifier = {
		units_in_province = 1
		factor = 1.1
	}
	modifier = {
		units_in_province = 2
		factor = 1.1
	}
	modifier = {
		units_in_province = 3
		factor = 1.1
	}
	modifier = {
		units_in_province = 4
		factor = 1.1
	}
	modifier = {
		units_in_province = 5
		factor = 1.1
	}
	modifier = {
		revolt_risk = 5
		factor = 0.9
	}
	modifier = {
		revolt_risk = 10
		factor = 0.9
	}
	modifier = {
		revolt_risk = 15
		factor = 0.9
	}
	
}

immediate = { remove_province_modifier = surveying_nomads }

title = "EVTNAME820031" #Difficulty in Surveying Nomads
desc = "EVTDESC820031" #Despite months of effort, our survey team's attempt at improving our relations with nomadic leaders did not produce anything productive. Perhaps they will approach our administration more favorably once we show them that we mean no harm.

option = {
	name = "EVTOPTA820031"
	ai_chance = { factor = 100 }
	}
}

province_event = {

id = 820032

is_triggered_only = yes

title = "EVTNAME820032" #Diplomatic Proposal Ignored!
desc = "EVTDESC820032"

immediate = { clr_province_flag = protesting_raiding }

option = {
	name = "EVTOPTA820032" #We will remember this
	ai_chance = { factor = 100 }
	owner = { prestige = -0.03 }
#	random = {
#		chance = 10
#		add_casus_belli = FROM
#	}
  }
}

province_event = { #The Horde Gathers in $PROVINCENAME$

id = 820050

trigger = {
	has_building = guardia_real
	owner = { 
		war = yes
		NOT = { has_country_flag = nomadic_horde }
		has_country_modifier = horse_nomad
		}
	}

mean_time_to_happen = { months = 1 }

title = "EVTNAME820050"
desc = "EVTDESC820050"

option = {
	name = "EVTOPTA820050"
	owner = {
		cavalry = THIS
		cavalry = THIS
		cavalry = THIS
		infantry = THIS 
		infantry = THIS 
		set_country_flag = nomadic_horde
		}
	}
}