brandenburg_prussia_desc;According to the rules of the Holy Roman Empire, no ruler within the empire could claim the title of king except by special permission of the emperor - and no new kingdoms had been created for hundreds of years. For a ruler seeking power this was unacceptable, and a way around the rules was sought. When the duchy of Prussia fell into his hands an opportunity came to claim a title that the emperor did not control, while remaining part of the empire. The emperor would still need to give his permission, but after this fait accompli it was certain to come.;;;;;;;;;;;;;x
brandenburg_prussia_title;Claim the title of King in Prussia;;;;;;;;;;;;;x
duchy_of_prussia_desc;The transformation of a religious order to a secular country was accomplished nearly overnight, but not without opposition. Some within the Order remained faithful to the cause. Meanwhile, to signal this break from the past, the grandmaster declared the lands of the order to be a new duchy of Prussia, and himself its first duke. A short while later, this change of hands was acknowledged by the king of Poland and the Holy Roman Emperor, and the remnants of the Order could do little about the fait accompli.;;;;;;;;;;;;;x
duchy_of_prussia_title;Become the Duchy of Prussia;;;;;;;;;;;;;x
EVTDESC881001;A national sentiment is flowing across our Prussian population. They may rise against us if given the chance and form the Duchy of Prussia.;;;;;;;;;;;;;x
EVTDESC881002;The transformation of a religious order to a secular country was accomplished nearly overnight, but not without opposition. Some within the Order remained faithful to the cause. Meanwhile, to signal this break from the past, Grandmaster $MONARCH$ declared the lands of the order to be a new duchy of Prussia, and himself its first duke. A short while later, this change of hands was acknowledged by the king of Poland and the Holy Roman Emperor, and the remnants of the Order could do little about the fait accompli.;;;;;;;;;;;;;x
EVTDESC881003;Although it was ruled by the Hohenzollern family that had secularized it, Prussia came to be inherited by the Margrave of Brandenburg in $YEAR$, but because it was a vassal of Poland, the two territories were kept separate until Poland, in a moment of weakness, agreed to sign over full sovereignty to Brandenburg. This allowed the Margrave to claim the title 'King of Prussia', since the domain was technically beyond the scope of the Holy Roman Empire, and gave him a title few could match.;;;;;;;;;;;;;x
EVTDESC881004;According to the rules of the Holy Roman Empire, no ruler within the empire could claim the title of king except by special permission of the emperor - and no new kingdoms had been created for hundreds of years. For a ruler seeking power such as $MONARCH$ this was unacceptable. Soon he found a way around the rules. When the duchy of Prussia fell into the hands of $COUNTRY$ the opportunity came to claim a title that the emperor did not control...yet $COUNTRY$ was still part of the empire, and doing so would upset the delicate balance of power there.;;;;;;;;;;;;;x
EVTDESC881005;Permission from the emperor came reluctantly and only after months of negotiation, but the outcome was never in doubt: the annexation of Prussia was a fait accompli. To save face, $MONARCH$ was forbidden from using the title 'King of $COUNTRY$' or even 'King of Prussia', since that would place him above the other lords of the empire. Instead, he was only allowed to claim 'King in Prussia'. As Margrave of $COUNTRY$ but King in Prussia, $MONARCH$ was an enigmatic figure in the empire. His ambitions were apparent, but so was his strength! From this point onwards, the kingdom of Prussia became a power both within and beyond the empire...;;;;;;;;;;;;;x
EVTDESC881006;Baltic Prussia was a thorn in the side of $COUNTRY$ for many years. Seeking help in Christianizing the Old Prussians, the Duke of Mazovia invited the crusading Teutonic Order to move to the region from their home in Germany, but the militant Order proved to have greater ambitions and warred repeatedly with the Poles. After a series of wars, the Order lost much of its strength and suffered repeatedly from Prussian nationalism - but they were still a member of the Holy Roman Empire and a monastic order, which made them a political problem. Prussian complaints gave $MONARCH$ the chance to create 'Royal Prussia' as a compromise solution - as a vassal, the Prussians would not be a problem for $COUNTRY$.;;;;;;;;;;;;;x
EVTNAME881001;Prussian Nationalism;;;;;;;;;;;;;x
EVTNAME881002;The Duchy of Prussia;;;;;;;;;;;;;x
EVTNAME881003;Brandenburg-Prussia;;;;;;;;;;;;;x
EVTNAME881004;$COUNTRY$-Prussia;;;;;;;;;;;;;x
EVTNAME881005;The Kingdom of Prussia;;;;;;;;;;;;;x
EVTNAME881006;The Question of Prussia;;;;;;;;;;;;;x
EVTOPTA881001;So be it;;;;;;;;;;;;;x
EVTOPTA881002;Ask the emperor for permission;;;;;;;;;;;;;x
EVTOPTA881004;Ask the emperor for permission;;;;;;;;;;;;;x
EVTOPTA881005;Henceforth we shall be king in Prussia;;;;;;;;;;;;;x
EVTOPTA881006;Create the duchy of Royal Prussia;;;;;;;;;;;;;x
EVTOPTB881004;Prussia is but one of our many domains;;;;;;;;;;;;;x
EVTOPTB881006;The Baltic belongs to $COUNTRY$;;;;;;;;;;;;;x
