stolen_election;Stolen Election;;;;;;;;;;;;;x
desc_stolen_election;Because voting was done openly, elections could be fraught with violence if one side decided to use force or intimidation to prevent their opponents from voting. Accusations of this and other acts of treachery have marred the victory, and it is now widely believed that the election was won through dishonest means. This has hurt the legitimacy of the government considerably.;;;;;;;;;;;;;x
election_honeymoon;Honeymoon Period;;;;;;;;;;;;;x
desc_election_honeymoon;The recent election was decisive, giving the incoming government a clear mandate to rule. With firm control of the offices of state and the support of the masses, the government has the wherewithal to make great changes without much opposition...at least, until the honeymoon is over.;;;;;;;;;;;;;x
cleaning_house;Change of Guard;;;;;;;;;;;;;x
desc_cleaning_house;After the recent election the government is in an uproar. The incoming government has broken with the previous regime, repudiating their policies and replacing their appointees. These reforms show a clear break with the mistakes of the past, but at the cost of making enemies.;;;;;;;;;;;;;x
