EVTTEXT295000;ai;;;;;;;;;;;;;x
EVTNAME295000;Seeking Peace;;;;;;;;;;;;;x
EVTNAME295001;Alarming Developments;;;;;;;;;;;;;x
EVTNAME295002;Concerns for our Friends & Allies;;;;;;;;;;;;;x
EVTNAME295003;A Sense of Peace;;;;;;;;;;;;;x
EVTNAME295004;Reassurances from our Friends;;;;;;;;;;;;;x
EVTNAME295005;The Foreign Service Shrinks;;;;;;;;;;;;;x
EVTNAME295006;Mutual Enemies make good Friends;;;;;;;;;;;;;x
EVTNAME2950060;A Reliable Friend & Ally;;;;;;;;;;;;;x
EVTNAME295007;Our Sphere of Interest;;;;;;;;;;;;;x
EVTNAME295008;A Marriage of Convenience Ends;;;;;;;;;;;;;x
EVTNAME295009;An Ambassador Shown the Door;;;;;;;;;;;;;x
EVTNAME295010;The Council of Ministers Meets;;;;;;;;;;;;;x
EVTNAME295050;Colonial Ambitions;;;;;;;;;;;;;x
EVTNAME295071;The Balance of Power in Europe;;;;;;;;;;;;;x
EVTNAME295072;A Threat to the Balance of Power;;;;;;;;;;;;;x
EVTNAME295090;Economic Opportunities Await;;;;;;;;;;;;;x
EVTNAME2950954;An Ultimatum;;;;;;;;;;;;;x
EVTDESC2950954;For quite some time, our neighbors and rivals - and even some of our friends - have been watching the growth of our nation's power with concern. In foreign courts, our name has become synonymous with ruthless expansion, aggression, and broken agreements. A great number of nations have formed a protective alliance against us. Their leader has now approached us with an ultimatum: release all occupied nations, or suffer the consequences. What shall be our reply?;;;;;;;;;;;;;x
EVTOPTA2950954;Accept their terms for peace;;;;;;;;;;;;;x
EVTOPTB2950954;Reject this dictate!;;;;;;;;;;;;;x
EVTNAME2950690;The World Turned Right Side Up;;;;;;;;;;;;;x
EVTDESC2950690;Our country has taken up the torch of liberty. Its shining light is illuminating the recesses of oppression, bringing hope to the downtrodden of the earth. But less savory creatures have also been stirred up by the beacon of enlightenment, bent on destruction and reaction. We must take our new leadership role seriously!;;;;;;;;;;;;;x
EVTNAME2950691;Friends of Liberty;;;;;;;;;;;;;x
EVTDESC2950691;In its pursuit of universal liberty for all mankind, our country is not alone. There are friends of liberty in many places, and there are even some other countries where they have taken the reins of government. The concert of powers is being reshaped along the lines of revolution and reaction.;;;;;;;;;;;;;x
EVTNAME2950692;The Torch of Liberty Passes;;;;;;;;;;;;;x
EVTDESC2950692;As the reaction has quieted - for now - some of the staunchest friends of liberty, our country has become the hope of revolutionaries everywhere. We must carry the torch of liberty to victory!;;;;;;;;;;;;;x
EVTNAME295069;Return to Normalcy;;;;;;;;;;;;;x
EVTDESC295069;After the turmoil and excesses of the recent years, the fate of our nation rests again in the hands of wise and responsible men. The enmity between us and our old friends in the region was a temporary disturbance caused by the radical elements who had taken over our nation. Now we can return to normal and healthy diplomatic relations.;;;;;;;;;;;;;x
EVTNAME2950694;The Defense of Legitimacy;;;;;;;;;;;;;x
EVTDESC2950694;That despicable camarilla of thugs and demagogues who have misled the good people of a European nation into a frenzy of blood-shed and rebellion will stop at nothing in their quest to spread their 'liberty' to foreign lands. In defense of legitimate rule, and in defense of the true liberty that comes with a regular system of laws and their equitable and orderly enforcement, our nation is called upon to put aside its differences with other, like-minded governments. Whatever our past grievances may have been, now is the time to stand side by side to repel the attack of savagery from abroad.;;;;;;;;;;;;;x
EVTNAME2950695;The Holy Counter-Revolution;;;;;;;;;;;;;x
EVTDESC2950695;As more countries have fallen to the atrocious regime of 'liberty', the remaining bastions of legitimate rule must stand all the more firm in their resolve to end the nightmare of this revolution. To that end, many heads of state have sworn a Holy Oath to defend their joint and mutual rights against the Godless enemy. May we prevail!;;;;;;;;;;;;;x
EVTNAME295101;A Conference is in Order;;;;;;;;;;;;;x
EVTNAME295102;The European Powers Convene;;;;;;;;;;;;;x
EVTNAME295103;A Cordial Bond of Nations;;;;;;;;;;;;;x
EVTNAME295105;Shared Interests make Good Allies;;;;;;;;;;;;;x
EVTNAME295107;United for Our Mutual Protection;;;;;;;;;;;;;x
EVTNAME295200;Champagne at the Foreign Office;;;;;;;;;;;;;x
EVTNAME296000;Directives to our Envoys;;;;;;;;;;;;;x
EVTNAME296002;Maturation of Colonial Society;;;;;;;;;;;;;x
EVTNAME296003;A Diplomatic Note;;;;;;;;;;;;;x
EVTDESC296003;We have been informed by the envoy from another nation that his government has changed its views of our intentions. They will now follow a slightly different policy towards us.\n\nIn the concert of powers in the region, these kinds of subtle changes in diplomatic relations may occur at any time, even without our direct contribution. Other countries re-evaluate their interests, and as they do so, their view of our foreign policy may change.;;;;;;;;;;;;;x
EVTOPTA296003;I see;;;;;;;;;;;;;x
EVTNAME296004;Diplomatic Reactions;;;;;;;;;;;;;x
EVTDESC296004;Other countries observe our actions closely. They might consider us as a rival or a threat, they might consider us as a friend, or they might even take us to be an easy victim. In either case, their view of our nation is informed by our behavior in the concert of powers.;;;;;;;;;;;;;x
caucasus_caspian;Crimea-Caucasus-Caspian;;;;;;;;;;;;;x
arabia;Arabian Peninsula;;;;;;;;;;;;;x
cape;Cape of Good Hope;;;;;;;;;;;;;x
EVTNAME2950890;Our claim to $PROVINCENAME$;;;;;;;;;;;;;x
EVTDESC2950890;For much of the Early Modern Era, the Holy Roman Empire was a collection of small states. Neighboring great powers were often tempted to help themselves to their territory. Sometimes they succeeded. For the most part, however, the great powers of Europe watched jealously to make sure that a fragmented Germany remained a buffer zone between them. Either with his own domestic power, or with the help of such neighbors, the Holy Roman Emperor safeguarded the independence of the small member states. We must be prepared for a reaction from the Empire!;;;;;;;;;;;;;x
EVTOPTA2950890;It is rightfully ours;;;;;;;;;;;;;x
EVTDESC2950891;The Empire now recognizes our claim to $PROVINCENAME$. The Emperor will no longer be quite as hostile to our nation.;;;;;;;;;;;;;x
EVTOPTA2950891;Good to know;;;;;;;;;;;;;x
EVTNAME2950892;The Imperial Crown;;;;;;;;;;;;;x
EVTDESC2950892;Congratulations, My Liege! You have been elected Emperor of the Romans and King of the Germans. It is a great day for our nation.;;;;;;;;;;;;;x
EVTOPTA2950892;Indeed, it is;;;;;;;;;;;;;x
restore_to_owner_title;Restitution of $PROVINCENAME$;;;;;;;;;;;;;x
EVTNAME295087;Restitution of a Province;;;;;;;;;;;;;x
EVTDESC295087;The Emperor has decided to restore to out country a province he considers to be rightfully ours. This is a great day for our nation!;;;;;;;;;;;;;x
beachhead_mission_title;Establish a Colonial Beachhead;;;;;;;;;;;;;x
beachhead_mission_desc;We must gain a foothold on this continent to serve as a center for future expeditions into the interior. Station troops in this province for that purpose!;;;;;;;;;;;;;x
time_for_qftnw_title;A Promised Land;;;;;;;;;;;;;x
time_for_qftnw_desc;Our rivals are busy exploiting the riches of a new world - we must secure our own place in the sun!;;;;;;;;;;;;;x
westward_the_course_of_empire_title;Our Manifest Destiny;;;;;;;;;;;;;x
westward_the_course_of_empire_desc;The future of our nation lies overseas! Plant our flag firmly on virgin soil, and establish our nation as a country of explorers and adventurers.;;;;;;;;;;;;;x
conquer_incas_ai_title;The Incas have Gold!;;;;;;;;;;;;;x
conquer_aztecs_ai_title;The Aztecs need to be saved!;;;;;;;;;;;;;x
colonial_conquer_neighbour_title;Colonial Rivalry;;;;;;;;;;;;;x
colonial_conquer_neighbour_desc;Our colonists have long been complaining that our arch-rival incites natives against our own settlers. Conquer $PROVINCENAME$ to end this threat, once and for all!;;;;;;;;;;;;;x
conquer_zapotecs_ai_title;The Savage Zapotecs must be destroyed!;;;;;;;;;;;;;x
indian_sea_route_part_one_title;Explore the Coast of Africa!;;;;;;;;;;;;;x
indian_sea_route_part_one_desc;If Christendom is ever to cut out the Muslim middleman in trading with India, we had better find another way of getting to that far-away land, directly. Who knows what riches and glory may await us!;;;;;;;;;;;;;x
indian_sea_route_part_two_title;Venture Further South!;;;;;;;;;;;;;x
indian_sea_route_part_two_desc;On our quest to establish a direct trade route with India, we have discovered many a thing. But India was not one of them. Let us attempt to explore the far southern reaches of the vast African continent.;;;;;;;;;;;;;x
indian_sea_route_part_three_title;Explore Africa's East Coast;;;;;;;;;;;;;x
indian_sea_route_part_three_desc;We have rounded the Cape of Good Hope. And what an uplifting moment it was! We now must find out whether there are ports on the African coast to serve as bases for or explorations.;;;;;;;;;;;;;x
indian_sea_route_part_four_title;Across the Sea to India;;;;;;;;;;;;;x
indian_sea_route_part_four_desc;Now that we have reached Zanzibar, we have found the outer limits of the trading networks of the Arabs and Hindus. Let us venture forth to find their nodes and hubs!;;;;;;;;;;;;;x
east_asian_trade_part_one_title;Establish Trade in India;;;;;;;;;;;;;x
east_asian_trade_part_one_desc;Their senses filled with the scents of the bazaars of the cities, our explorers have had a taste of the limitless possibilities that beckon from these shores. Venture on to the centers of trade in this land to realize this potential!;;;;;;;;;;;;;x
east_asian_trade_part_two_title;To the Straits of Malacca;;;;;;;;;;;;;x
east_asian_trade_part_two_desc;India is the center of exchange between the Middle East and the Far East. Where the merchants of China meet those of India, we should also pitch our tents.;;;;;;;;;;;;;x
east_asian_trade_part_three_A_title;Capture a Base in the Spice Islands;;;;;;;;;;;;;x
east_asian_trade_part_three_A_desc;By committing land forces to our East Asian Expedition, we can establish a solid base for trade in that region.;;;;;;;;;;;;;x
east_asian_trade_part_three_B_title;Make Contact with China;;;;;;;;;;;;;x
east_asian_trade_part_three_B_desc;Tales of grand palaces and a mighty Empire have reached our ears. Much have we seen in the East, but nothing compares to the wealth of mighty China. Let us find her shores!;;;;;;;;;;;;;x
east_asian_trade_part_four_A_title;Land of Cherry Blossoms;;;;;;;;;;;;;x
east_asian_trade_part_four_A_desc;The final gem in the crown of our explorations shall be Japan. If we can reach this land and convince its Princes to give us access to its markets, we shall truly be the first among the nations of Christendom!;;;;;;;;;;;;;x
east_asian_trade_part_four_B_title;Take Macao from China;;;;;;;;;;;;;x
east_asian_trade_part_four_B_desc;To further our trading interests in the Far East, we require a naval base and entrepot. What better port could there be than this?;;;;;;;;;;;;;x
pacific_exploration_part_one_title;Venture South along the Coast;;;;;;;;;;;;;x
pacific_exploration_part_one_desc;The lush and fertile land we have have discovered is still largely uncharted. To make the fullest use of its bounties, let us explore its full extent.;;;;;;;;;;;;;x
pacific_exploration_part_two_title;Beyond Cape Horn;;;;;;;;;;;;;x
pacific_exploration_part_two_desc;Beyond the rough seas of the cape, a whole ocean waits for human eyes to survey its lengths and depths. Sail along the coast to establish bases for further explorations.;;;;;;;;;;;;;x
pacific_exploration_part_three_title;Chart the Length of the Coast;;;;;;;;;;;;;x
pacific_exploration_part_three_desc;The land of riches and strange native peoples that we have found remains to be fully subdued. Knowledge of the waters off its coast will aid us in this divinely ordained task.;;;;;;;;;;;;;x
pacific_exploration_part_four_title;The Quiet Ocean;;;;;;;;;;;;;x
pacific_exploration_part_four_desc;The pacific depths of this vast sea beckon our mariners to steer their vessels across the sublime azure to new, as yet unknown shores. Will cyclops and sirens greet them?;;;;;;;;;;;;;x
pacific_exploration_part_five_title;To the Shores of India;;;;;;;;;;;;;x
pacific_exploration_part_five_desc;Having at long last reached a haven in the midst of the not-so-pacific Ocean, we may be poised to realize the dream of the earliest European explorers: Reach India by sailing West.;;;;;;;;;;;;;x
pacific_exploration_part_six_title;The Last Empire;;;;;;;;;;;;;x
pacific_exploration_part_six_desc;The stories by Marco Polo, so long taken to be mere lore, seem to be true after all: There is another Empire at the edges of the world. And it is hungry for trade with the rest of that world.;;;;;;;;;;;;;x
