EVTNAME820100;Control Established over $PROVINCENAME$;;;;;;;;;;;;;x
EVTDESC820100;Our effort to pacify the tribes of $PROVINCENAME$ was a success, and more tribes are now under our control.;;;;;;;;;;;;;x
EVTOPTA820100;Excellent;;;;;;;;;;;;;x
EVTNAME820101;$COUNTRY$: A Tribal Nation;;;;;;;;;;;;;x
EVTDESC820101;For a tribal nation in MMP2, consolidating power is the first goal that needs to be accomplished to transform its administration. This will not come without a cost, however. In order to move on to a more advanced form of government, you must take control of all tribal provinces under your rule in such a way that they recognize your rule. An able monarch may be able to extend his control in a relatively short amount of time, but will his successor live to see the conquest intact?;;;;;;;;;;;;;x
EVTOPTA820101;Thus begins the tale of $COUNTRY$!;;;;;;;;;;;;;x
EVTNAME820102;Recognizing the Autonomy of $PROVINCENAME$;;;;;;;;;;;;;x
EVTDESC820102;We have suffered a bitter defeat against the tribes of $PROVINCENAME$ and were forced to make peace with them. The price of the defeat was the recognition of autonomy of $PROVINCENAME$, which shall be respected indefinitely.;;;;;;;;;;;;;x
EVTOPTA820102;We shall wait for the right time to come;;;;;;;;;;;;;x
EVTNAME820103;Recognizing the Autonomy of $PROVINCENAME$;;;;;;;;;;;;;x
EVTDESC820103;Our armies were unable to put down the revolt led by nomadic leaders of $PROVINCENAME$, and a peace agreement was reached, which concluded that autonomy of the nomads of $PROVINCENAME$ shall be guaranteed.;;;;;;;;;;;;;x
EVTOPTA820103;This is a temporary setback;;;;;;;;;;;;;x
EVTNAME820104;Negotiation with Nomadic Raiders;;;;;;;;;;;;;x
EVTDESC820104;With parts of our realm overrun by nomadic raiders, the only way to convince them to leave was by paying them off. This was not a cheap solution, of course, and it hurt our nation's standing as much as it did its treasury.;;;;;;;;;;;;;x
EVTOPTA820104;What a disgrace!;;;;;;;;;;;;;x
EVTNAME820105;Our Raiders Return with Booty!;;;;;;;;;;;;;x
EVTDESC820105;Due to its inability to cope with nomadic raiders, a province neighboring $PROVINCENAME$ became a haven of raiders, and the nomads of $PROVINCENAME$ did not hesitate to take advantage of the situation. Now they have returned with a large sum of booty!;;;;;;;;;;;;;x
EVTOPTA820105;Let's celebrate this success!;;;;;;;;;;;;;x
EVTNAME820106;Overwhelmed by Nomadic Raiders;;;;;;;;;;;;;x
EVTDESC820106;$COUNTRY$ was unable to respond to nomadic raiders who gradually devastated border provinces until it was too late. In the end, the raiders were convinced to return - not without a payment, of course. The incident hurt us both diplomatically and financially.;;;;;;;;;;;;;x
EVTOPTA820106;What a disgrace!;;;;;;;;;;;;;x
EVTNAME820107;Concession from a Sedentary Neighbor;;;;;;;;;;;;;x
EVTDESC820107;As a part of a peace settlement between nomadic raiders and the people of the city, the ruler of $PROVINCENAME$ has agreed to pay the nomads of $PROVINCENAME$ a regular tribute for the next ten years.;;;;;;;;;;;;;x
EVTOPTA820107;They shall not take us lightly;;;;;;;;;;;;;x
EVTNAME820108;Leaders of $PROVINCENAME$ Ask for Aid;;;;;;;;;;;;;x
EVTDESC820108;Nomads of $PROVINCENAME$ have recently been attacked by neighboring people and are suffering the effects of devastation. The tribes are greatly weakened, and as members of $COUNTRY$, they may deserve our aid. The situation, however, is offering us an opportunity to strike them now that they are temporarily weakened, but such an attack might appear too treacherous to other tribes. What should we do with them?;;;;;;;;;;;;;x
EVTOPTA820108;Support the attacked tribes;;;;;;;;;;;;;x
EVTOPTB820108;Take them out while they are weak!;;;;;;;;;;;;;x
EVTOPTC820108;Leave them be;;;;;;;;;;;;;x
EVTNAME820109;Autonomy Threatened!;;;;;;;;;;;;;x
EVTDESC820109;By attacking tribes whose autonomy had been guaranteed, we have dishonored our own words and initiated an aggression. There may be some who are alarmed by this course of action...;;;;;;;;;;;;;x
EVTOPTA820109;This is a small sacrifice;;;;;;;;;;;;;x
EVTDESC820110;By attacking a city whose autonomy had been guaranteed, we have dishonored our own words and initiated an aggression. There may be some who are alarmed by this course of action...;;;;;;;;;;;;;x
EVTNAME820117;Horse Market Available in the Chinese border;;;;;;;;;;;;;x
EVTDESC820117;The Chinese have decided to open markets for us, where we may exchange our animals and goods with Chinese valuables!;;;;;;;;;;;;;x
EVTOPTA820117;Great!;;;;;;;;;;;;;x
EVTNAME820118;Exchanging goods at the horse market;;;;;;;;;;;;;x
EVTDESC820118;Horse market was a Chinese attempt to appease the nomadic tribes north of the Great Wall by allowing them to exchange livestocks and other valuables with such animals as horses brought by the nomadic traders. It is time for us to make use of this opportunity - how much should we invest in this trade?;;;;;;;;;;;;;x
EVTOPTA820118;Bring a minimum amount of goods;;;;;;;;;;;;;x
EVTOPTB820118;Bring an adequate amount of goods;;;;;;;;;;;;;x
EVTOPTC820118;Bring a huge amount of goods;;;;;;;;;;;;;x
EVTOPTD820118;Don't trade with the Chinese this time;;;;;;;;;;;;;x
EVTNAME820119;Goods exchange at one of our horse markets;;;;;;;;;;;;;x
EVTDESC820119;Horse market was a Chinese attempt to appease the nomadic tribes north of the Great Wall by allowing them to exchange livestocks and other valuables with such animals as horses brought by the nomadic traders. Nomadic traders have just arrived in one of our horse markets and wish to trade their goods - how should we trade with them?;;;;;;;;;;;;;x
EVTOPTA820119;Exchange with livestocks;;;;;;;;;;;;;x
EVTOPTB820119;Exchange with agricultural equipments;;;;;;;;;;;;;x
EVTOPTC820119;Exchange with luxuries;;;;;;;;;;;;;x
EVTOPTD820119;Don't trade with them this time;;;;;;;;;;;;;x
EVTNAME820120;We got livestocks!;;;;;;;;;;;;;x
EVTDESC820120;Our recent exchange at a horse market provided us with enough livestocks to invest in agricultural activity. How should we use them?;;;;;;;;;;;;;x
EVTOPTA820120;Use them to support our agriculture;;;;;;;;;;;;;x
EVTOPTB820120;Keep some livestocks to trade elsewhere;;;;;;;;;;;;;x
EVTOPTC820120;Invest in trade with China;;;;;;;;;;;;;x
EVTNAME820121;We got agricultural equipments!;;;;;;;;;;;;;x
EVTDESC820121;Our recent exchange at a horse market provided us with enough agricultural equipments to plow our lands. How should we use them?;;;;;;;;;;;;;x
EVTOPTA820121;Use them to plow our lands;;;;;;;;;;;;;x
EVTOPTB820121;Invest in agricultural methods;;;;;;;;;;;;;x
EVTOPTC820121;Melt the metal and convert them into weapons;;;;;;;;;;;;;x
EVTNAME820122;We got luxuries!;;;;;;;;;;;;;x
EVTDESC820122;Our recent exchange at a horse market provided us with enough Chinese luxuries. What should we do with them?;;;;;;;;;;;;;x
EVTOPTA820122;Put them into our treasury;;;;;;;;;;;;;x
EVTOPTB820122;Trade some of them elsewhere;;;;;;;;;;;;;x
EVTOPTC820122;Invest in trade with China;;;;;;;;;;;;;x
EVTNAME820123;Exchange rejected!;;;;;;;;;;;;;x
EVTDESC820123;Our traders have been rejected to exchange goods by Chinese officials in charge of the horse market!;;;;;;;;;;;;;x
EVTOPTA820123;Outrageous!;;;;;;;;;;;;;x
EVTNAME820124;An Envoy Asking to Pay Tribute;;;;;;;;;;;;;x
EVTDESC820124;Fearing our plunders, the lord of one of our neighbors is offering a tribute for $COUNTRY$. Should we accept this offer?;;;;;;;;;;;;;x
EVTOPTA820124;Accept the tribute;;;;;;;;;;;;;x
EVTOPTB820124;Reject the tribute;;;;;;;;;;;;;x
EVTNAME820125;Raiding Bands Accept our Tribute;;;;;;;;;;;;;x
EVTDESC820125;The leader of the nomadic raiding band has accepted our offer of tribute. We will continue to pay him an annual tribute.;;;;;;;;;;;;;x
EVTOPTA820125;Ok;;;;;;;;;;;;;x
EVTNAME820126;Tribute Rejected!;;;;;;;;;;;;;x
EVTDESC820126;Our offers of friendship to the leader of the nomadic raiding band was rejected and our ambassador sent home in pieces. This bodes ill for the future! Our only consolation is that we have retained the gifts that would have gone to waste on those barbarians...;;;;;;;;;;;;;x
EVTOPTA820126;Terrible!;;;;;;;;;;;;;x
EVTNAME820127;War with Nomads!;;;;;;;;;;;;;x
EVTDESC820127;We are now at war with a neighboring nomadic peoples - state of war no longer requires us to pay tribute to them any more!;;;;;;;;;;;;;x
EVTOPTA820127;On to war!;;;;;;;;;;;;;x
EVTNAME820128;Disaffected Nomads;;;;;;;;;;;;;x
EVTDESC820128;It seems that the nomadic people of $PROVINCENAME$ are disgruntled by the oppressive rule of $COUNTRY$ and are rallying under influential individuals. Perhaps we should do something about this before it is too late?;;;;;;;;;;;;;x
EVTOPTA820128;Grant titles to influential $PROVINCECULTURE$ figures;;;;;;;;;;;;;x
EVTOPTB820128;There is no need for that;;;;;;;;;;;;;x
EVTNAME820129;Non-Tribal Cultural Shift;;;;;;;;;;;;;x
EVTDESC820129;Cultural shift often meant a political shift in many occasions. At times a few foreigners would be a dominant force, becoming a political majority. This process could also be strengthened by such factors as assimilation to the dominant culture or migration, which could potentially change the cultural composition of an area. Such a process had taken place in $PROVINCENAME$, and tribal cultures became an insignificant factor as a result.;;;;;;;;;;;;;x
EVTOPTA820129;Let's move on from tribal past;;;;;;;;;;;;;x
EVTNAME820130;Nomadic Leaders Revolt!;;;;;;;;;;;;;x
EVTDESC820130;Discontent with our rule, nomadic leaders in $PROVINCENAME$ decided to rise up against us, leading their own men into battle!;;;;;;;;;;;;;x
EVTOPTA820130;They will regret this;;;;;;;;;;;;;x
EVTNAME820131;No More Sending Tribute!;;;;;;;;;;;;;x
EVTDESC820131;The nomadic bands to whom we were paying tribute have retreated deep into their territory, and we will not have to be paying them tribute any more - for now, at least.;;;;;;;;;;;;;x
EVTOPTA820131;Ok;;;;;;;;;;;;;x
EVTNAME820132;No More Tribute!;;;;;;;;;;;;;x
EVTDESC820132;Some nomadic bands retreated back to $PROVINCENAME$, far from their original territory, and they will not be able to receive tribute from their former subjects any more.;;;;;;;;;;;;;x
EVTOPTA820132;Ok;;;;;;;;;;;;;x
EVTNAME820133;Conflicting Nomadic Policy;;;;;;;;;;;;;x
EVTDESC820133;We are following the policy of encouraging sedentary lifestyle in $PROVINCENAME$, but the nomadic leaders, who received our guarantee of military privilege in the past, are feeling threatened by such a policy. We cannot overlook this issue any longer and must come up with an answer now.;;;;;;;;;;;;;x
EVTOPTA820133;Attempt to disarm them peacefully;;;;;;;;;;;;;x
EVTOPTB820133;Provide them compensation and seek cooperation;;;;;;;;;;;;;x
EVTOPTC820133;Crush them!;;;;;;;;;;;;;x
EVTNAME820134;A Bitter Victory over Nomadic Leaders;;;;;;;;;;;;;x
EVTDESC820134;Although our army crushed the nomadic insurgence, the victory was not without a cost. Before we mourn for the dead, however, we must decide how to take care of the nomadic leaders who had risen against us.;;;;;;;;;;;;;x
EVTOPTA820134;Execute them all!;;;;;;;;;;;;;x
EVTOPTB820134;Send them into exile;;;;;;;;;;;;;x
EVTOPTC820134;Compensate nomads of their loss;;;;;;;;;;;;;x
EVTNAME820135;A Complete Conversion of a Nomadic Province;;;;;;;;;;;;;x
EVTDESC820135;As a result of years of our effort to settle the nomadic tribes of $PROVINCENAME$, the province is now home to thousands of urban inhabitants. Nomadic lifestyle is a thing of the past now...;;;;;;;;;;;;;x
EVTOPTA820135;This is a day worthy of celebration!;;;;;;;;;;;;;x
EVTNAME820136;A Successful Sedentarization;;;;;;;;;;;;;x
EVTDESC820136;As a result of years of our effort to settle the nomadic tribes of the province, inhabitants of $PROVINCENAME$ is seeing a more sedentary lifestyle now.;;;;;;;;;;;;;x
EVTNAME820137;Conflicting Lifestyle;;;;;;;;;;;;;x
EVTDESC820137;Transformation of a nomadic lifestyle into an agricultural lifestyle was never a rapid process, and such a process, if enforced, was apt to cause discontent among a group of nomads whose traditional lifestyle has been disturbed by a forceful attempt to introduce agriculture. Such is the case with $PROVINCENAME$ - Should we continue our effort to encourage agriculture there?;;;;;;;;;;;;;x
EVTOPTA820137;Continue our effort;;;;;;;;;;;;;x
EVTOPTB820137;Give up;;;;;;;;;;;;;x
EVTNAME820138;A Futile Attempt;;;;;;;;;;;;;x
EVTDESC820138;Transformation of a nomadic lifestyle into an agricultural lifestyle was neither a rapid nor an easy process. Such an effort could easily be hampered by the lack of rich soil, a stubborn resistance from the native inhabitants, or even the relative ease with which people could lead a nomadic lifestyle. It appears that nomadic lifestyle in $PROVINCENAME$ is greatly being disturbed by our agricultural policy, which has not been able to offer an attractive alternative to the nomads. It is still possible to encourage agriculture, but it will surely produce a side effect.;;;;;;;;;;;;;x
EVTOPTA820138;Better luck next time;;;;;;;;;;;;;x
EVTNAME820139;Agriculture on the Rise;;;;;;;;;;;;;x
EVTDESC820139;Following our policy to encourage agriculture, agricultural products are rapidly becoming the main products of $PROVINCENAME$. The province was formerly known for its rare non-crop products, but that situation is starting to change. Should agricultural goods replace them as the main products of the province?;;;;;;;;;;;;;x
EVTOPTA820139;Encourage exporting agricultural products;;;;;;;;;;;;;x
EVTOPTB820139;Non-agricultural product has its place, too;;;;;;;;;;;;;x
EVTNAME820140;Changing Trade Resources;;;;;;;;;;;;;x
EVTDESC820140;We are pleased to inform you that $PROVINCENAME$ has become a reliable source of agricultural products! This truly is a fruit of our agricultural policy.;;;;;;;;;;;;;x
EVTOPTA820140;Excellent news!;;;;;;;;;;;;;x
EVTNAME820141;War Against Tribes in $PROVINCENAME$;;;;;;;;;;;;;x
EVTDESC820141;There still are individual tribes that are not under $COUNTRY$'s effective rule. In order to truly control the province, these tribes must be subdued and organized by the ruler of $COUNTRY$. Be warned, however, that a defeat in the campaign will result in a disintegration of $COUNTRY$'s rule in the province if already partially controlled.;;;;;;;;;;;;;x
EVTOPTA820141;To arms!;;;;;;;;;;;;;x
EVTOPTB820141;Back down;;;;;;;;;;;;;x
EVTNAME820142;Diplomacy Fails;;;;;;;;;;;;;x
EVTDESC820142;The leaders of $PROVINCENAME$ refused to listen to our request of submission. This is an open challenge to our rule and must be dealt with force. We now have a casus belli against them.;;;;;;;;;;;;;x
EVTOPTA820142;They shall pay for this;;;;;;;;;;;;;x
EVTNAME820143;Tribal Leaders Succumb to Our Rule;;;;;;;;;;;;;x
EVTDESC820143;Fearing our might, the leaders of $PROVINCENAME$ have wisely chosen to succumb to our rule rather than face our military. This is a diplomatic success!;;;;;;;;;;;;;x
EVTOPTA820143;Excellent;;;;;;;;;;;;;x
EVTNAME820144;Campaign Ends in Defeat;;;;;;;;;;;;;x
EVTDESC820144;Our army was defeated by the tribes of $PROVINCENAME$, and we have lost contact with allied tribes following the defeat.;;;;;;;;;;;;;x
EVTOPTA820144;Ok;;;;;;;;;;;;;x
EVTNAME820145;Old Privilege;;;;;;;;;;;;;x
EVTDESC820145;It appears that the leaders of $PROVINCENAME$ had enjoyed a considerable degree of autonomy under their previous overlord. It may be a good idea to honor the autonomy to please them, but the choice is yours to make.;;;;;;;;;;;;;x
EVTOPTA820145;Respect their former privilege;;;;;;;;;;;;;x
EVTOPTB820145;Revoke their privilege;;;;;;;;;;;;;x
EVTNAME820146;An Urban Province;;;;;;;;;;;;;x
EVTDESC820146;Controlling an urban area was always a challenge for a nomadic conqueror. Due to the lack of a political body that could employ officials to govern cities, a nomadic overlord often imposed a nominal rule over urban areas, who in turn enjoyed a considerable degree of political autonomy.;;;;;;;;;;;;;x
EVTOPTA820146;Establish a nominal rule;;;;;;;;;;;;;x
EVTNAME820150;Nomadic Tribes of $COUNTRY$;;;;;;;;;;;;;x
EVTDESC820150;Taking control over tribes has always been a challenging problem for a ruler, whether he be the ruler of a tribe himself or not. For now, a trace of tribal remains in $COUNTRY$, and provinces that are tribal or nomadic will continue to be affected by their inhabitants' lifestyle.;;;;;;;;;;;;;x
EVTOPTA820150;We still have a long way to go;;;;;;;;;;;;;x
nomadic_rebels_army;Nomadic Regiment;;;;;;;;;;;;;x
nomadic_rebels_desc;Nomadic Rebels represent those nomads that are discontent with the current overlord's rule. They are led by their own leaders and will fight for what it takes to repulse what they see as an oppressive rule.;;;;;;;;;;;;;x
nomadic_rebels_name;Nomadic Warriors;;;;;;;;;;;;;x
nomadic_rebels_title;Nomadic Rebels;;;;;;;;;;;;;x
nomadic_raiders_army;Raiding Army;;;;;;;;;;;;;x
nomadic_raiders_desc;Nomadic Raiders are nomadic warriors who infiltrated into a faraway territory in search of booty. They are a mobile force and are a force to be reckoned with if not handled properly.;;;;;;;;;;;;;x
nomadic_raiders_name;Raiding Bands;;;;;;;;;;;;;x
nomadic_raiders_title;Nomadic Raiders;;;;;;;;;;;;;x
rivaling_nomads_army;Rivaling Nomadic Army;;;;;;;;;;;;;x
rivaling_nomads_desc;Rivaling Nomads belong to tribes that do not formally recognize $COUNTRY$'s authority.;;;;;;;;;;;;;x
rivaling_nomads_name;Rivaling Nomads;;;;;;;;;;;;;x
rivaling_nomads_title;Rivaling Nomads;;;;;;;;;;;;;x
rivaling_tribes_army;Rivaling Tribal Army;;;;;;;;;;;;;x
rivaling_tribes_desc;Rivaling Tribes belong to tribes that do not formally recognize $COUNTRY$'s authority.;;;;;;;;;;;;;x
rivaling_tribes_name;Rivaling Tribes;;;;;;;;;;;;;x
rivaling_tribes_title;Rivaling Tribes;;;;;;;;;;;;;x
