TIME_AHEAD;This technology is $NUMBER$ years ahead of its time, so it is more difficult to reach.;;;;;;;;;;;;;x
CHAT_NONE;None;;;;;;;;;;;;;x
ABANDON_GAME;Abandon Game;;;;;;;;;;;;;x
LOCAL_TRADE_INCOME_MODIFIER;Local Trade Income Modifier;;;;;;;;;;;;;x
GLOBAL_TRADE_INCOME_MODIFIER;National Trade Income Modifier;;;;;;;;;;;;;x
UV_MANPOWER;Men:;;;;;;;;;;;;;x
UV_REGIMENTS;Regiments:;;;;;;;;;;;;;x
CONVERT_RULER_NOT_POSSIBLE_4_IRO;You are lesser partner of a union.;;;;;;;;;;;;;x
CONVERT_RULER_NOT_POSSIBLE_4_DRO;Only the major partner of the union has full control of the monarch and will be able to make a ruler out of him.;;;;;;;;;;;;;x
NOT_BROKEN;Their armies are not beaten yet though.;;;;;;;;;;;;;x
conquer_sicily_title;Conquer Sicily;;;;;;;;;;;;;x
conquer_sicily_desc;Ever since Peter III drove the Duke of Anjou out of Sicily, the Kingdom has been in our eyes a rightful part of Aragon. It is time now to reassert those rights.;;;;;;;;;;;;;x
EVTDESC6337;One of our provincial governors has figured out, that under our current decentralised policies he could go into business for himself. The fact that the army he has managed to raise is way too small to support such a claim doesn't seem to worry him much.;;;;;;;;;;;;;x
EVTOPTA6337;A rebel army or two is merely a nuisance;;;;;;;;;;;;;x
PW_OUR_SPY_EFF;Our Eff:;;;;;;;;;;;;;x
PW_OUR_SPY_DEF;Our Def:;;;;;;;;;;;;;x
PW_THEIR_SPY_EFF;Their Eff:;;;;;;;;;;;;;x
PW_THEIR_SPY_DEF;Their Def:;;;;;;;;;;;;;x
COTLEDGER_COT_STAGNATION_S;Stagnation;;;;;;;;;;;;;x
COTLEDGER_COT_STAGNATION_L;Centers of Trade grow stagnant if the total value of trade is too low, or too few countries have sent merchants there. Eventually, stagnant CoTs will be destroyed.;;;;;;;;;;;;;x
IS_NOT_OVERLORD_OF;Is NOT the overlord of ;;;;;;;;;;;;;x
IS_OVERLORD_OF;Is the overlord of ;;;;;;;;;;;;;x
TRIGGER_COUNTRY;Country;;;;;;;;;;;;;x
