# # # # # # # # # # # # # # # # # # #                                            
#1025 - Dewa                                                            
                                                              
owner = JAP                                                            
controller = JAP                                                            
culture = azuma                                                            
religion = shinto                                                            
capital = "Yamagata"                                                            
trade_goods = fish                                                            
hre = no                                                            
base_tax = 3                                                            
manpower = 2                                                            
citysize = 3300 #23000 in 1884                                                         
add_core = MGM                                                            
add_core = JAP                                                            
#Asia
discovered_by = AKG
discovered_by = AKM
discovered_by = ANG
discovered_by = ANN
discovered_by = ARK
discovered_by = ASK
discovered_by = ASN
discovered_by = ASS
discovered_by = AYU
discovered_by = BHU
discovered_by = CHU
discovered_by = CSK
discovered_by = DAI
discovered_by = DAL
discovered_by = DTE
discovered_by = HJO
discovered_by = HKW
discovered_by = HTK
discovered_by = IGW
discovered_by = JAP
discovered_by = JIN
discovered_by = JTG
discovered_by = KHM
discovered_by = KNO
discovered_by = KOR
discovered_by = LNA
discovered_by = LUA
discovered_by = LXA
discovered_by = MCH
discovered_by = MGM
discovered_by = MIN
discovered_by = MIY
discovered_by = MNG
discovered_by = MRI
discovered_by = NHN
discovered_by = NNB
discovered_by = ODA
discovered_by = OTM
discovered_by = OUC
discovered_by = PEG
discovered_by = QII
discovered_by = QIN
discovered_by = QNG
discovered_by = RYU
discovered_by = RZJ
discovered_by = SHN
discovered_by = SHU
discovered_by = SMZ
discovered_by = SST
discovered_by = STM
discovered_by = STO
discovered_by = SUK
discovered_by = TAU
discovered_by = TGW
discovered_by = TIB
discovered_by = TKD
discovered_by = TKI
discovered_by = USG
discovered_by = VIE
discovered_by = WUU
discovered_by = WYU
discovered_by = XIA
discovered_by = YMN                                                           
temple = yes #Dewa Sanzan                                                          
fort1 = yes                                                            
                                                              
1392.1.1 = { #Ashikaga deputies appointed in charge of the north                                                    
 owner = AKG                                                           
 controller = AKG                                                           
 add_core = AKG                                                           
 }                                                             
1438.1.1 = { #The Eikyo War: Ashikaga Mochiuji murders his deputy and rebels against the shogun                                               
 controller = REB                                                           
 revolt = { type = pretender_rebels size = 1 }                                                    
 }                                                             
1439.1.1 = { #Defeat of Ashikaga Mochiuji's rebellion                                                       
 revolt = { }                                                          
 controller = AKG                                                           
 }                                                             
1440.1.1 = { #Ashikaga Mitsukane, Sasagawa Kubo in Mutsu, is killed                                                    
 owner = MGM                                                           
 controller = MGM                                                           
 remove_core = AKG                                                           
 }                                                             
1450.1.1 = { citysize = 4000 }                                                        
#1455.1.1 = { #Meitoku War: the Kanto Kubo is dissolved                                                     
# owner = MGM                                                           
# controller = MGM                                                           
# remove_core = AKG                                                           
# }                                                             
