# # # # # # # # # #                                                     
#1047 - Jugjur                                                            
                                                              
culture = yakut                                                            
religion = shamanism                                                            
capital = "Jugjur"                                                            
trade_goods = unknown #naval_supplies                                                           
hre = no                                                            
base_tax = 2                                                            
manpower = 1                                                            
native_size = 10                                                            
native_ferocity = 1                                                            
native_hostileness = 3                                                            
                                                              
