# # # # # # # # # # # # # # # # #                                              
#1098 - St. Helena                                                           
                                                              
culture = patagonian                                                            
religion = animism                                                            
hre = no                                                            
base_tax = 1                                                            
trade_goods = unknown #fish                                                           
manpower = 1                                                            
                                                              
1000.1.1   = { Defendable_Position = yes }                                                      
