# # # # # # # # # #                                                     
#1109 - Timaru                                                            
                                                              
culture = polynesian                                                            
religion = animism                                                            
hre = no                                                            
trade_goods = unknown #wool                                                           
manpower = 1                                                            
base_tax = 3                                                            
capital = "Christchurch"                                                            
native_size = 10                                                            
native_ferocity = 4                                                            
native_hostileness = 9                                                            
                                                              
