# # # # # # # # # # # # # # # # # # #                                            
#1181 - Natal                                                            
                                                              
culture = bantu #Nguni                                                           
religion = fetishist                                                            
capital = "Magulu"                                                            
native_size = 50                                                            
trade_goods = unknown #grain                                                           
hre = no                                                            
base_tax = 1                                                            
native_ferocity = 4.5                                                            
native_hostileness = 9                                                            
                                                              
