# # # # # # # # # #                                                     
#1236 - Rabaul                                                            
                                                              
culture = papuan                                                            
religion = animism                                                            
capital = "Rabaul"                                                            
trade_goods = unknown #nutmeg                                                           
hre = no                                                            
base_tax = 1                                                            
manpower = 1                                                            
native_size = 30                                                            
native_ferocity = 4                                                            
native_hostileness = 9                                                            
                                                              
