# # # # # # #                                                        
discovered_by = INC                                                            
discovered_by = CUZ                                                            
discovered_by = QTO                                                            
discovered_by = ICA                                                            
discovered_by = CHM                                                            
discovered_by = HUA                                                            
discovered_by = AYM                                                            
