# # # # # # #                                                        
discovered_by = MAY                                                            
discovered_by = CHC                                                            
discovered_by = MHC                                                            
discovered_by = TLA                                                            
discovered_by = AZT                                                            
