# # # # # # #                                                        
discovered_by = indian discovered_by = india                                                           
discovered_by = MNG                                                            
