# # # # # # #                                                        
discovered_by = HAU
discovered_by = KBO                                                            
discovered_by = SOK
discovered_by = YAO
