# # # # # # # # # # # # # # #                                                
#282 - Cherson                                                            
                                                              
owner = GOL                                                            
controller = GOL                                                            
culture = ukrainian                                                            
religion = orthodox                                                            
hre = no                                                            
base_tax = 5                                                            
trade_goods = hemp                                                            
manpower = 5                                                            
capital = "Ochakiv"                                                            
citysize = 8900                                                            
fort1 = yes                                                            
add_core = GOL                                                            
discovered_by = latin discovered_by = western_europe                                                            
#Eastern Europe
discovered_by = ACH
discovered_by = ALB
discovered_by = ARM
discovered_by = ATH
discovered_by = BOS
discovered_by = BUL
discovered_by = BYZ
discovered_by = CRO
discovered_by = CYP
discovered_by = GEO
discovered_by = GRE
discovered_by = HCD
discovered_by = HUN
discovered_by = LIT
discovered_by = MAZ
discovered_by = MOE
discovered_by = MOL
discovered_by = MON
discovered_by = MOS
discovered_by = NAX
discovered_by = NOV
discovered_by = POL
discovered_by = PSK
discovered_by = RAG
discovered_by = RIG
discovered_by = RUS
discovered_by = RYA
discovered_by = SER
discovered_by = TRA
discovered_by = TRE
discovered_by = TVE
discovered_by = WAL
discovered_by = YAR
discovered_by = ZAZ                                                            
#Near East
discovered_by = ADE
discovered_by = ALG
discovered_by = ALH
discovered_by = ARB
discovered_by = DUR
discovered_by = GRA
discovered_by = HED
discovered_by = MAM
discovered_by = MOR
discovered_by = NAJ
discovered_by = OMA
discovered_by = SHI
discovered_by = SHR
discovered_by = TRP
discovered_by = TUN

#Ottomans
discovered_by = AYD
discovered_by = CND
discovered_by = DUL
discovered_by = KAR
discovered_by = TUR                                                            
                                                              
#Nomads
discovered_by = AKK
discovered_by = AST
discovered_by = CHG
discovered_by = CRI
discovered_by = FGA
discovered_by = GOL
discovered_by = KAB
discovered_by = KAZ
discovered_by = KHA
discovered_by = KHI
discovered_by = KHO
discovered_by = KOK
discovered_by = KZH
discovered_by = NOG
discovered_by = OIR
discovered_by = PER
discovered_by = QAR
discovered_by = SHY
discovered_by = SIB
discovered_by = TIM
discovered_by = TOX
                                                              
1237.1.1 = {                                                            
 owner = GOL                                                           
 controller = GOL                                                           
 }                                                             
1392.1.1 = {                                                            
 owner = LIT                                                           
 controller = LIT                                                           
 }                                                             
1399.9.12 = { #Battle of the Vorska river                                                       
 owner = GOL                                                           
 controller = GOL                                                           
 }                                                             
1441.1.1 = { #The Crimean Khanate secedes from the Golden Horde                                                    
 owner = CRI                                                           
 controller = CRI                                                           
 add_core = CRI
 remove_core = GOL                                                           
 }                                                             
1475.6.1  = { add_core = TUR } # Vassal                                                     
