# # # # # # # # # # # # # # # # # # #                                            
#463 - Alania                                                            
                                                              
owner = GEO                                                            
controller = GEO                                                            
culture = georgian                                                            
religion = orthodox                                                            
capital = "Alania"                                                            
trade_goods = gold                                                            
hre = no                                                            
base_tax = 4                                                            
manpower = 5                                                            
citysize = 5680                                                            
add_core = GEO                                                            
#Near East
discovered_by = ADE
discovered_by = ALG
discovered_by = ALH
discovered_by = ARB
discovered_by = DUR
discovered_by = GRA
discovered_by = HED
discovered_by = MAM
discovered_by = MOR
discovered_by = NAJ
discovered_by = OMA
discovered_by = SHI
discovered_by = SHR
discovered_by = TRP
discovered_by = TUN

#Ottomans
discovered_by = AYD
discovered_by = CND
discovered_by = DUL
discovered_by = KAR
discovered_by = TUR                                                            
#Eastern Europe
discovered_by = ACH
discovered_by = ALB
discovered_by = ARM
discovered_by = ATH
discovered_by = BOS
discovered_by = BUL
discovered_by = BYZ
discovered_by = CRO
discovered_by = CYP
discovered_by = GEO
discovered_by = GRE
discovered_by = HCD
discovered_by = HUN
discovered_by = LIT
discovered_by = MAZ
discovered_by = MOE
discovered_by = MOL
discovered_by = MON
discovered_by = MOS
discovered_by = NAX
discovered_by = NOV
discovered_by = POL
discovered_by = PSK
discovered_by = RAG
discovered_by = RIG
discovered_by = RUS
discovered_by = RYA
discovered_by = SER
discovered_by = TRA
discovered_by = TRE
discovered_by = TVE
discovered_by = WAL
discovered_by = YAR
discovered_by = ZAZ                                                            
                                                              
#Nomads
discovered_by = AKK
discovered_by = AST
discovered_by = CHG
discovered_by = CRI
discovered_by = FGA
discovered_by = GOL
discovered_by = KAB
discovered_by = KAZ
discovered_by = KHA
discovered_by = KHI
discovered_by = KHO
discovered_by = KOK
discovered_by = KZH
discovered_by = NOG
discovered_by = OIR
discovered_by = PER
discovered_by = QAR
discovered_by = SHY
discovered_by = SIB
discovered_by = TIM
discovered_by = TOX
                                                              
1000.1.1   = { Defendable_Position = yes }                                                      
1450.1.1  = { citysize = 6100 }                                                       
1458.1.1  = { revolt_risk = 5 } # Safavid campaign against Georgia                                                  
1460.1.1  = { revolt_risk = 0 } # Defeated by Shirwan Shah                                                  
