# # # # # # # # # # # # # # # # # # # # # # # #                                       
#488 - Les Cayes                                                           
                                                              
culture = arawak                                                            
religion = animism                                                            
capital = "Les Cayes"                                                           
trade_goods = unknown #sugar                                                           
hre = no                                                            
base_tax = 6                                                            
manpower = 1                                                            
native_size = 5                                                            
native_ferocity = 2                                                            
native_hostileness = 3                                                            
                                                              
