# # # # # # # # # # # # # # # #                                               
#491 - Curacao                                                            
                                                              
culture = arawak                                                            
religion = animism                                                            
capital = "Curacao"                                                            
trade_goods = unknown #sugar                                                           
hre = no                                                            
base_tax = 4                                                            
manpower = 1                                                            
native_size = 5                                                            
native_ferocity = 1                                                            
native_hostileness = 6                                                            
                                                              
