# # # # # # # # # # # # # # # # # # # # # # # # # # # # # # # # # # # # # # # #                       
#610 - Binh Tri Thien                                                          
                                                              
owner = DAI                                                            
controller = DAI                                                            
culture = vietnamese                                                            
religion = shinto #Mahayana Buddhism                                                          
capital = "Hue"                                                            
trade_goods = fish                                                            
hre = no                                                            
base_tax = 5                                                            
manpower = 3                                                            
citysize = 5400                                                            
add_core = DAI                                                            
#Asia
discovered_by = AKG
discovered_by = AKM
discovered_by = ANG
discovered_by = ANN
discovered_by = ARK
discovered_by = ASK
discovered_by = ASN
discovered_by = ASS
discovered_by = AYU
discovered_by = BHU
discovered_by = CHU
discovered_by = CSK
discovered_by = DAI
discovered_by = DAL
discovered_by = DTE
discovered_by = HJO
discovered_by = HKW
discovered_by = HTK
discovered_by = IGW
discovered_by = JAP
discovered_by = JIN
discovered_by = JTG
discovered_by = KHM
discovered_by = KNO
discovered_by = KOR
discovered_by = LNA
discovered_by = LUA
discovered_by = LXA
discovered_by = MCH
discovered_by = MGM
discovered_by = MIN
discovered_by = MIY
discovered_by = MNG
discovered_by = MRI
discovered_by = NHN
discovered_by = NNB
discovered_by = ODA
discovered_by = OTM
discovered_by = OUC
discovered_by = PEG
discovered_by = QII
discovered_by = QIN
discovered_by = QNG
discovered_by = RYU
discovered_by = RZJ
discovered_by = SHN
discovered_by = SHU
discovered_by = SMZ
discovered_by = SST
discovered_by = STM
discovered_by = STO
discovered_by = SUK
discovered_by = TAU
discovered_by = TGW
discovered_by = TIB
discovered_by = TKD
discovered_by = TKI
discovered_by = USG
discovered_by = VIE
discovered_by = WUU
discovered_by = WYU
discovered_by = XIA
discovered_by = YMN
discovered_by = indian discovered_by = india                                                            
#Near East
discovered_by = ADE
discovered_by = ALG
discovered_by = ALH
discovered_by = ARB
discovered_by = DUR
discovered_by = GRA
discovered_by = HED
discovered_by = MAM
discovered_by = MOR
discovered_by = NAJ
discovered_by = OMA
discovered_by = SHI
discovered_by = SHR
discovered_by = TRP
discovered_by = TUN

#Ottomans
discovered_by = AYD
discovered_by = CND
discovered_by = DUL
discovered_by = KAR
discovered_by = TUR                                                            
discovered_by = CHA                                                            
                                                              
1407.1.1 = { #Using the unpopularity of Ho Quy Ly, the Ming invade and occupy Dai Viet                                              
 owner = MNG                                                           
 controller = MNG                                                           
 }                                                             
1418.1.1 = { revolt = { type = nationalist_rebels size = 1 } } #Le Loi leads a revolt against the Ming                                         
1428.1.1 = { #The Ming abandon Dai Viet after the death of emperor Yongle                                                 
 revolt = { }                                                          
 owner = DAI                                                           
 controller = DAI                                                           
 }                                                             
1450.1.1 = { citysize = 5880 }                                                        
