# # # # # # # # # # # # # #                                                 
#633 - Flores                                                            
                                                              
culture = papuan                                                            
religion = animism                                                            
capital = "Flores"                                                            
trade_goods = unknown #spices                                                           
hre = no                                                            
base_tax = 4                                                            
manpower = 3                                                            
native_size = 10                                                            
native_ferocity = 1                                                            
native_hostileness = 3                                                            
discovered_by = MAJ                                                            
                                                              
