# # # # # # # # # # # # # # # # #                                              
#742 - Guayana                                                            
                                                              
culture = guajiro                                                            
religion = animism                                                            
capital = "Guayana"                                                            
trade_goods = unknown #coffee                                                           
hre = no                                                            
base_tax = 1                                                            
manpower = 1                                                            
native_size = 15                                                            
native_ferocity = 2                                                            
native_hostileness = 6                                                            
                                                              
