# # # # # # # # # # # # # # # # # # # # #                                          
#755 - Pernambuco                                                            
                                                              
culture = tupinamba                                                            
religion = animism                                                            
capital = "Olinda"                                                            
trade_goods = unknown #tobacco                                                           
hre = no                                                            
base_tax = 5                                                            
manpower = 1                                                            
native_size = 15                                                            
native_ferocity = 1                                                            
native_hostileness = 2                                                            
                                                              
