# # # # # # # # # # # # # #                                                 
#761 - Espirito Santo                                                           
                                                              
culture = tupinamba                                                            
religion = animism                                                            
capital = "Espirito Santo"                                                           
trade_goods = unknown #sugar                                                           
hre = no                                                            
base_tax = 1                                                            
manpower = 1                                                            
native_size = 10                                                            
native_ferocity = 1                                                            
native_hostileness = 3                                                            
                                                              
