# # # # # # # # # # # # # # # # #                                              
#766 - Sao Vicente                                                           
                                                              
culture = amazonian                                                            
religion = animism                                                            
capital = "Sao Vicente"                                                           
trade_goods = unknown #sugar                                                           
hre = no                                                            
base_tax = 5                                                            
manpower = 1                                                            
native_size = 10                                                            
native_ferocity = 1                                                            
native_hostileness = 2                                                            
                                                              
