# # # # # # # # # # # # # # # # # # #                                            
#784 - Huillimapu                                                            
                                                              
culture = patagonian                                                            
religion = animism                                                            
capital = "Huillimapu"                                                            
trade_goods = unknown #fish                                                           
hre = no                                                            
base_tax = 1                                                            
manpower = 1                                                            
native_size = 10                                                            
native_ferocity = 2                                                            
native_hostileness = 9                                                            
                                                              
