# # # # # # # # # # # # # # # # #                                              
#831 - Caracas                                                            
                                                              
culture = amazonian                                                            
religion = animism                                                            
capital = "Caracas"                                                            
trade_goods = unknown #fur                                                           
hre = no                                                            
base_tax = 1                                                            
manpower = 1                                                            
native_size = 25                                                            
native_ferocity = 1                                                            
native_hostileness = 5                                                            
                                                              
