# # # # # # # # # # # # # # # # # # #                                            
#941 - Cumberland                                                            
                                                                                                                       
culture = shawnee                                                            
religion = midewiwin                                                            
capital = "Cumberland"                                                                                                                       
hre = no                                                            
base_tax = 2                                                            
manpower = 1                                                            
trade_goods = unknown 
native_size = 20                                                            
native_ferocity = 3                                                            
native_hostileness = 9

