#DEI GRATIA

province_decisions = { 

	proselytize_catholic = {
		potential = { 
			religion = catholic
			owner = { 
				has_country_flag = true_faith
				check_variable = { which = "religious_fervor" value = 1 }
				religion = catholic
				num_of_religion = { religion = catholic value = 0.80 } 
				NOT = { has_country_flag = support_protestants_abroad }
				missionaries = 2 
				}
			PAP = { check_variable = { which = "papal_authority" value = 250 } }
			any_neighbor_province = { 
				OR = { religion = hussite religion = protestant religion = reformed religion = gnostic }
				NOT = { owned_by = THIS }
				NOT = { has_province_flag = catholic_missionary }
				NOT = { has_province_flag = catholic_missionary_active }
				NOT = { has_province_flag = protestant_missionary_active }
				NOT = { has_province_flag = reformed_missionary_active }
				NOT = { has_province_flag = hussite_missionary_active }
				NOT = { has_province_flag = gnostic_missionary_active }
				}
			}
		allow = { 
			owner = { missionaries = 5 treasury = 25 }
			}
		effect = { 
			owner = { 
				random_owned = { 
					limit = { 
						owner = { ai = no } 
						has_global_flag = faction_setup_complete 
						}
					owner = { change_variable = { which = "clergy_mood" value = 1 } } #Trivial positive effect
					}
				}
			owner = { missionaries = -1 treasury = -25 }
			random_neighbor_province = { 
				limit = { 
					NOT = { owned_by = THIS } 
					OR = { religion = hussite religion = protestant religion = reformed religion = gnostic }
					NOT = { has_province_flag = catholic_missionary }
					NOT = { has_province_flag = catholic_missionary_active }
					NOT = { has_province_flag = protestant_missionary_active }
					NOT = { has_province_flag = reformed_missionary_active }
					NOT = { has_province_flag = hussite_missionary_active }
					NOT = { has_province_flag = gnostic_missionary_active }
					}
				set_province_flag = catholic_missionary
				set_province_flag = catholic_missionary2
				revolt_risk = 1
				province_event = 55827
				owner = { relation = { who = THIS value = -25 } casus_belli = THIS }
				}
			}
		ai_will_do = { 
			factor = 1
			modifier = { 
				NOT = { owner = { has_country_flag = counter_reformation } }
				factor = 0
				}
			modifier = { 
				NOT = { owner = { treasury = 50 } }
				factor = 0
				}
			modifier = { 
				owner = { is_subject = yes }
				factor = 0
				}
			modifier = { 
				NOT = { owner = { check_variable = { which = "religious_fervor" value = 5 } } }
				factor = 0
				}
			}
		}
	proselytize_protestant = {
		potential = { 
			religion = protestant
			owner = { 
				has_country_flag = true_faith
				check_variable = { which = "religious_fervor" value = 1 }
				OR = { 
					AND = { 
						religion = protestant
						num_of_religion = { religion = protestant value = 0.80 } 
						}
					AND = { 
						religion = catholic
						num_of_religion = { religion = catholic value = 0.80 }
						has_country_flag = support_protestants_abroad
						}
					}
				missionaries = 2 
				}
			PAP = { check_variable = { which = "papal_authority" value = 250 } }
			any_neighbor_province = { 
				OR = { religion = hussite religion = catholic religion = reformed religion = gnostic }
				NOT = { owned_by = THIS }
				NOT = { has_province_flag = protestant_missionary }
				NOT = { has_province_flag = catholic_missionary_active }
				NOT = { has_province_flag = protestant_missionary_active }
				NOT = { has_province_flag = reformed_missionary_active }
				NOT = { has_province_flag = hussite_missionary_active }
				NOT = { has_province_flag = gnostic_missionary_active }
				}
			}
		allow = { 
			owner = { missionaries = 5 treasury = 25 }
			}
		effect = { 
			owner = { 
				random_owned = { 
					limit = { 
						owner = { ai = no } 
						has_global_flag = faction_setup_complete 
						}
					owner = { change_variable = { which = "clergy_mood" value = 1 } } #Trivial positive effect
					}
				}
			owner = { missionaries = -1 treasury = -25 }
			random_neighbor_province = { 
				limit = { 
					NOT = { owned_by = THIS } 
					OR = { religion = hussite religion = catholic religion = reformed religion = gnostic }
					NOT = { has_province_flag = protestant_missionary }
					NOT = { has_province_flag = catholic_missionary_active }
					NOT = { has_province_flag = protestant_missionary_active }
					NOT = { has_province_flag = reformed_missionary_active }
					NOT = { has_province_flag = hussite_missionary_active }
					NOT = { has_province_flag = gnostic_missionary_active }
					}
				set_province_flag = protestant_missionary
				set_province_flag = protestant_missionary2
				revolt_risk = 1
				province_event = 55827
				owner = { relation = { who = THIS value = -25 } casus_belli = THIS }
				}
			}
		ai_will_do = { 
			factor = 1
			modifier = { 
				NOT = { owner = { treasury = 50 } }
				factor = 0
				}
			modifier = { 
				owner = { is_subject = yes }
				factor = 0
				}
			modifier = { 
				NOT = { owner = { check_variable = { which = "religious_fervor" value = 5 } } }
				factor = 0
				}
			}
		}
	proselytize_reformed = {
		potential = { 
			religion = reformed
			owner = { 
				has_country_flag = true_faith
				check_variable = { which = "religious_fervor" value = 1 }
				religion = reformed 
				num_of_religion = { religion = reformed value = 0.80 } 
				missionaries = 2 
				}
			PAP = { check_variable = { which = "papal_authority" value = 250 } }
			any_neighbor_province = { 
				OR = { religion = hussite religion = catholic religion = protestant religion = gnostic }
				NOT = { owned_by = THIS }
				NOT = { has_province_flag = reformed_missionary }
				NOT = { has_province_flag = catholic_missionary_active }
				NOT = { has_province_flag = protestant_missionary_active }
				NOT = { has_province_flag = reformed_missionary_active }
				NOT = { has_province_flag = hussite_missionary_active }
				NOT = { has_province_flag = gnostic_missionary_active }
				}
			}
		allow = { 
			owner = { missionaries = 5 treasury = 25 }
			}
		effect = { 
			owner = { 
				random_owned = { 
					limit = { 
						owner = { ai = no } 
						has_global_flag = faction_setup_complete 
						}
					owner = { change_variable = { which = "clergy_mood" value = 1 } } #Trivial positive effect
					}
				}
			owner = { missionaries = -1 treasury = -25 }
			random_neighbor_province = { 
				limit = { 
					NOT = { owned_by = THIS } 
					OR = { religion = hussite religion = catholic religion = protestant religion = gnostic }
					NOT = { has_province_flag = reformed_missionary }
					NOT = { has_province_flag = catholic_missionary_active }
					NOT = { has_province_flag = protestant_missionary_active }
					NOT = { has_province_flag = reformed_missionary_active }
					NOT = { has_province_flag = hussite_missionary_active }
					NOT = { has_province_flag = gnostic_missionary_active }
					}
				set_province_flag = reformed_missionary
				set_province_flag = reformed_missionary2
				revolt_risk = 1
				province_event = 55827
				owner = { relation = { who = THIS value = -25 } casus_belli = THIS }
				}
			}
		ai_will_do = { 
			factor = 1
			modifier = { 
				NOT = { owner = { treasury = 50 } }
				factor = 0
				}
			modifier = { 
				owner = { is_subject = yes }
				factor = 0
				}
			modifier = { 
				NOT = { owner = { check_variable = { which = "religious_fervor" value = 5 } } }
				factor = 0
				}
			}
		}
	proselytize_hussite = {
		potential = { 
			religion = hussite
			owner = { 
				has_country_flag = true_faith
				check_variable = { which = "religious_fervor" value = 1 }
				religion = hussite
				num_of_religion = { religion = hussite value = 0.80 } 
				missionaries = 2 
				}
			PAP = { check_variable = { which = "papal_authority" value = 250 } }
			any_neighbor_province = { 
				OR = { religion = protestant religion = catholic religion = reformed religion = gnostic }
				NOT = { owned_by = THIS }
				NOT = { has_province_flag = hussite_missionary }
				NOT = { has_province_flag = catholic_missionary_active }
				NOT = { has_province_flag = protestant_missionary_active }
				NOT = { has_province_flag = reformed_missionary_active }
				NOT = { has_province_flag = hussite_missionary_active }
				NOT = { has_province_flag = gnostic_missionary_active }
				}
			}
		allow = { 
			owner = { missionaries = 5 treasury = 25 }
			}
		effect = { 
			owner = { 
				random_owned = { 
					limit = { 
						owner = { ai = no } 
						has_global_flag = faction_setup_complete 
						}
					owner = { change_variable = { which = "clergy_mood" value = 1 } } #Trivial positive effect
					}
				}
			owner = { missionaries = -1 treasury = -25 }
			random_neighbor_province = { 
				limit = { 
					NOT = { owned_by = THIS } 
					OR = { religion = protestant religion = catholic religion = reformed religion = gnostic }
					NOT = { has_province_flag = hussite_missionary }
					NOT = { has_province_flag = catholic_missionary_active }
					NOT = { has_province_flag = protestant_missionary_active }
					NOT = { has_province_flag = reformed_missionary_active }
					NOT = { has_province_flag = hussite_missionary_active }
					NOT = { has_province_flag = gnostic_missionary_active }
					}
				set_province_flag = hussite_missionary
				set_province_flag = hussite_missionary2
				revolt_risk = 1
				province_event = 55827
				owner = { relation = { who = THIS value = -25 } casus_belli = THIS }
				}
			}
		ai_will_do = { 
			factor = 1
			modifier = { 
				NOT = { owner = { treasury = 50 } }
				factor = 0
				}
			modifier = { 
				owner = { is_subject = yes }
				factor = 0
				}
			modifier = { 
				NOT = { owner = { check_variable = { which = "religious_fervor" value = 5 } } }
				factor = 0
				}
			}
		}
	proselytize_gnostic = {
		potential = { 
			religion = gnostic
			owner = { 
				has_country_flag = true_faith
				check_variable = { which = "religious_fervor" value = 1 }
				religion = gnostic 
				num_of_religion = { religion = gnostic value = 0.80 } 
				missionaries = 2 
				}
			PAP = { check_variable = { which = "papal_authority" value = 250 } }
			any_neighbor_province = { 
				OR = { religion = hussite religion = catholic religion = protestant religion = reformed }
				NOT = { owned_by = THIS }
				NOT = { has_province_flag = gnostic_missionary }
				NOT = { has_province_flag = catholic_missionary_active }
				NOT = { has_province_flag = protestant_missionary_active }
				NOT = { has_province_flag = reformed_missionary_active }
				NOT = { has_province_flag = hussite_missionary_active }
				NOT = { has_province_flag = gnostic_missionary_active }
				}
			}
		allow = { 
			owner = { missionaries = 5 treasury = 25 }
			}
		effect = { 
			owner = { 
				random_owned = { 
					limit = { 
						owner = { ai = no } 
						has_global_flag = faction_setup_complete 
						}
					owner = { change_variable = { which = "clergy_mood" value = 1 } } #Trivial positive effect
					}
				}
			owner = { missionaries = -1 treasury = -25 }
			random_neighbor_province = { 
				limit = { 
					NOT = { owned_by = THIS } 
					OR = { religion = hussite religion = catholic religion = protestant religion = reformed }
					NOT = { has_province_flag = gnostic_missionary }
					NOT = { has_province_flag = catholic_missionary_active }
					NOT = { has_province_flag = protestant_missionary_active }
					NOT = { has_province_flag = reformed_missionary_active }
					NOT = { has_province_flag = hussite_missionary_active }
					NOT = { has_province_flag = gnostic_missionary_active }
					}
				set_province_flag = gnostic_missionary
				set_province_flag = gnostic_missionary2
				revolt_risk = 1
				province_event = 55827
				owner = { relation = { who = THIS value = -25 } casus_belli = THIS }
				}
			}
		ai_will_do = { 
			factor = 1
			modifier = { 
				NOT = { owner = { treasury = 50 } }
				factor = 0
				}
			modifier = { 
				owner = { is_subject = yes }
				factor = 0
				}
			modifier = { 
				NOT = { owner = { check_variable = { which = "religious_fervor" value = 5 } } }
				factor = 0
				}
			}
		}
	convert_very_large_minority = { 
		potential = { 
			owner = { missionaries = 1 }
			has_owner_religion = yes
			controlled_by = owner
			OR = { 
				owner = { ai = no }
				NOT = { 
					AND = { 
						check_variable = { which = "protestant" value = 8 }
						NOT = { religion = protestant }
						owner = { religion = catholic }
						owner = { has_country_flag = spread_reformation }
						NOT = { religion_years = { protestant = 60 } }
						}
					}
				}
			OR = { 
				AND = { 
					check_variable = { which = "catholic" value = 8 }
					owner = { NOT = { religion = catholic } }
					}
				AND = { 
					check_variable = { which = "orthodox" value = 8 }
					owner = { NOT = { religion = orthodox } }
					}
				AND = { 
					check_variable = { which = "gnostic" value = 8 }
					owner = { NOT = { religion = gnostic } }
					}
				AND = { 
					check_variable = { which = "oriental" value = 8 }
					owner = { NOT = { religion = oriental } }
					}
				AND = { 
					check_variable = { which = "hussite" value = 9 }
					owner = { NOT = { religion = hussite } }
					}
				AND = { 
					check_variable = { which = "protestant" value = 8 }
					owner = { NOT = { religion = protestant } }
					}
				AND = { 
					check_variable = { which = "reformed" value = 9 }
					owner = { NOT = { religion = reformed } }
					}
				AND = { 
					check_variable = { which = "sunni" value = 8 }
					owner = { NOT = { religion = sunni } }
					}
				AND = { 
					check_variable = { which = "ibadi" value = 9 }
					owner = { NOT = { religion = ibadi } }
					}
				AND = { 
					check_variable = { which = "shiite" value = 9 }
					owner = { NOT = { religion = shiite } }
					}
				AND = { 
					check_variable = { which = "wahhabi" value = 8 }
					owner = { NOT = { religion = wahhabi } }
					}
				AND = { 
					check_variable = { which = "jain" value = 8 }
					owner = { NOT = { religion = jain } }
					}
				AND = { 
					check_variable = { which = "sikh" value = 8 }
					owner = { NOT = { religion = sikh } }
					}
				AND = { 
					check_variable = { which = "hindu" value = 8 }
					owner = { NOT = { religion = hinduism } }
					}
				AND = { 
					check_variable = { which = "zoroastrian" value = 9 }
					owner = { NOT = { religion = zoroastrian } }
					}
				AND = { 
					check_variable = { which = "confucian" value = 9 }
					owner = { NOT = { religion = confucianism } }
					}
				AND = { 
					check_variable = { which = "mahayana" value = 9 }
					owner = { NOT = { religion = shinto } }
					}
				AND = { 
					check_variable = { which = "theravada" value = 8 }
					owner = { NOT = { religion = buddhism } }
					}
				AND = { 
					check_variable = { which = "taoist" value = 8 }
					owner = { NOT = { religion = taoist } }
					}
				AND = { 
					check_variable = { which = "tengriist" value = 8 }
					owner = { NOT = { religion = shamanism } }
					}
				AND = { 
					check_variable = { which = "midewiwin" value = 8 }
					owner = { NOT = { religion = midewiwin } }
					}
				AND = { 
					check_variable = { which = "inti" value = 8 }
					owner = { NOT = { religion = inti } }
					}
				AND = { 
					check_variable = { which = "teotl" value = 8 }
					owner = { NOT = { religion = teotl } }
					}
				AND = { 
					check_variable = { which = "animist" value = 8 }
					owner = { NOT = { religion = animism } }
					}
				AND = { 
					check_variable = { which = "fetishist" value = 8 }
					owner = { NOT = { religion = fetishist } }
					}
				AND = { 
					check_variable = { which = "jewish" value = 9 }
					owner = { NOT = { religion = jewish } }
					}
				}
			}
		allow = { 
			NOT = { has_siege = yes }
			NOT = { has_province_modifier = convert_local_heretics }
			NOT = { has_province_modifier = conversion_tensions }
			NOT = { has_province_modifier = religious_autonomy }
			NOT = { has_province_modifier = religious_minority_support }
			owner = { 
				missionaries = 2 
				treasury = 50
				stability = 0
				war = no
				OR = { 
					advisor = theologian
					idea = church_attendance_duty
					idea = deus_vult
					ADM = 7
					check_variable = { which = "inquisition" value = 2 }
					check_variable = { which = "religious_fervor" value = 6 }
					}
				}
			}
		effect = {
			owner = { 
				random_owned = { 
					limit = { 
						owner = { ai = no } 
						has_global_flag = faction_setup_complete 
						}
					owner = { change_variable = { which = "clergy_mood" value = 1 } } #Trivial positive effect
					}
				}
			owner = { 
				missionaries = -1
				treasury = -25
				}
			add_province_modifier = { name = "convert_local_heretics" duration = 1825 }
			set_province_flag = minority_conversion
			}
		ai_will_do = { 
			factor = 1
			modifier = { 
				NOT = { owner = { missionaries = 4 } }
				factor = 0
				}
			modifier = { 
				revolt_risk = 1
				factor = 0
				}
			modifier = { 
				NOT = { owner = { treasury = 100 } }
				factor = 0
				}
			}
		}
	convert_large_minority = { 
		potential = { 
			owner = { missionaries = 1 }
			has_owner_religion = yes
			controlled_by = owner
			OR = { 
				owner = { ai = no }
				NOT = { 
					AND = { 
						check_variable = { which = "protestant" value = 6 }
						NOT = { check_variable = { which = "protestant" value = 8 } }
						owner = { religion = catholic }
						owner = { has_country_flag = spread_reformation }
						NOT = { religion_years = { protestant = 60 } }
						}
					}
				}
			NOT = { 
				OR = { 
					AND = { 
						check_variable = { which = "catholic" value = 8 }
						owner = { NOT = { religion = catholic } }
						}
					AND = { 
						check_variable = { which = "orthodox" value = 8 }
						owner = { NOT = { religion = orthodox } }
						}
					AND = { 
						check_variable = { which = "gnostic" value = 8 }
						owner = { NOT = { religion = gnostic } }
						}
					AND = { 
						check_variable = { which = "oriental" value = 8 }
						owner = { NOT = { religion = oriental } }
						}
					AND = { 
						check_variable = { which = "hussite" value = 9 }
						owner = { NOT = { religion = hussite } }
						}
					AND = { 
						check_variable = { which = "protestant" value = 8 }
						owner = { NOT = { religion = protestant } }
						}
					AND = { 
						check_variable = { which = "reformed" value = 9 }
						owner = { NOT = { religion = reformed } }
						}
					AND = { 
						check_variable = { which = "sunni" value = 8 }
						owner = { NOT = { religion = sunni } }
						}
					AND = { 
						check_variable = { which = "ibadi" value = 9 }
						owner = { NOT = { religion = ibadi } }
						}
					AND = { 
						check_variable = { which = "shiite" value = 9 }
						owner = { NOT = { religion = shiite } }
						}
					AND = { 
						check_variable = { which = "wahhabi" value = 8 }
						owner = { NOT = { religion = wahhabi } }
						}
					AND = { 
						check_variable = { which = "jain" value = 8 }
						owner = { NOT = { religion = jain } }
						}
					AND = { 
						check_variable = { which = "sikh" value = 8 }
						owner = { NOT = { religion = sikh } }
						}
					AND = { 
						check_variable = { which = "hindu" value = 8 }
						owner = { NOT = { religion = hinduism } }
						}
					AND = { 
						check_variable = { which = "zoroastrian" value = 9 }
						owner = { NOT = { religion = zoroastrian } }
						}
					AND = { 
						check_variable = { which = "confucian" value = 9 }
						owner = { NOT = { religion = confucianism } }
						}
					AND = { 
						check_variable = { which = "mahayana" value = 9 }
						owner = { NOT = { religion = shinto } }
						}
					AND = { 
						check_variable = { which = "theravada" value = 8 }
						owner = { NOT = { religion = buddhism } }
						}
					AND = { 
						check_variable = { which = "taoist" value = 8 }
						owner = { NOT = { religion = taoist } }
						}
					AND = { 
						check_variable = { which = "tengriist" value = 8 }
						owner = { NOT = { religion = shamanism } }
						}
					AND = { 
						check_variable = { which = "midewiwin" value = 8 }
						owner = { NOT = { religion = midewiwin } }
						}
					AND = { 
						check_variable = { which = "inti" value = 8 }
						owner = { NOT = { religion = inti } }
						}
					AND = { 
						check_variable = { which = "teotl" value = 8 }
						owner = { NOT = { religion = teotl } }
						}
					AND = { 
						check_variable = { which = "animist" value = 8 }
						owner = { NOT = { religion = animism } }
						}
					AND = { 
						check_variable = { which = "fetishist" value = 8 }
						owner = { NOT = { religion = fetishist } }
						}
					AND = { 
						check_variable = { which = "jewish" value = 9 }
						owner = { NOT = { religion = jewish } }
						}
					}
				}
			OR = { 
				AND = { 
					check_variable = { which = "catholic" value = 6 }
					owner = { NOT = { religion = catholic } }
					}
				AND = { 
					check_variable = { which = "orthodox" value = 6 }
					owner = { NOT = { religion = orthodox } }
					}
				AND = { 
					check_variable = { which = "gnostic" value = 6 }
					owner = { NOT = { religion = gnostic } }
					}
				AND = { 
					check_variable = { which = "oriental" value = 6 }
					owner = { NOT = { religion = oriental } }
					}
				AND = { 
					check_variable = { which = "hussite" value = 7 }
					owner = { NOT = { religion = hussite } }
					}
				AND = { 
					check_variable = { which = "protestant" value = 6 }
					owner = { NOT = { religion = protestant } }
					}
				AND = { 
					check_variable = { which = "reformed" value = 7 }
					owner = { NOT = { religion = reformed } }
					}
				AND = { 
					check_variable = { which = "sunni" value = 6 }
					owner = { NOT = { religion = sunni } }
					}
				AND = { 
					check_variable = { which = "ibadi" value = 7 }
					owner = { NOT = { religion = ibadi } }
					}
				AND = { 
					check_variable = { which = "shiite" value = 7 }
					owner = { NOT = { religion = shiite } }
					}
				AND = { 
					check_variable = { which = "wahhabi" value = 6 }
					owner = { NOT = { religion = wahhabi } }
					}
				AND = { 
					check_variable = { which = "jain" value = 6 }
					owner = { NOT = { religion = jain } }
					}
				AND = { 
					check_variable = { which = "sikh" value = 6 }
					owner = { NOT = { religion = sikh } }
					}
				AND = { 
					check_variable = { which = "hindu" value = 6 }
					owner = { NOT = { religion = hinduism } }
					}
				AND = { 
					check_variable = { which = "zoroastrian" value = 7 }
					owner = { NOT = { religion = zoroastrian } }
					}
				AND = { 
					check_variable = { which = "confucian" value = 7 }
					owner = { NOT = { religion = confucianism } }
					}
				AND = { 
					check_variable = { which = "mahayana" value = 7 }
					owner = { NOT = { religion = shinto } }
					}
				AND = { 
					check_variable = { which = "theravada" value = 6 }
					owner = { NOT = { religion = buddhism } }
					}
				AND = { 
					check_variable = { which = "taoist" value = 6 }
					owner = { NOT = { religion = taoist } }
					}
				AND = { 
					check_variable = { which = "tengriist" value = 6 }
					owner = { NOT = { religion = shamanism } }
					}
				AND = { 
					check_variable = { which = "midewiwin" value = 6 }
					owner = { NOT = { religion = midewiwin } }
					}
				AND = { 
					check_variable = { which = "inti" value = 6 }
					owner = { NOT = { religion = inti } }
					}
				AND = { 
					check_variable = { which = "teotl" value = 6 }
					owner = { NOT = { religion = teotl } }
					}
				AND = { 
					check_variable = { which = "animist" value = 6 }
					owner = { NOT = { religion = animism } }
					}
				AND = { 
					check_variable = { which = "fetishist" value = 6 }
					owner = { NOT = { religion = fetishist } }
					}
				AND = { 
					check_variable = { which = "jewish" value = 7 }
					owner = { NOT = { religion = jewish } }
					}
				}
			}
		allow = { 
			NOT = { has_province_modifier = convert_local_heretics }
			NOT = { has_province_modifier = conversion_tensions }
			NOT = { has_province_modifier = religious_autonomy }
			NOT = { has_province_modifier = religious_minority_support }
			owner = { 
				missionaries = 3
				treasury = 50
				stability = 1
				war = no
				OR = { 
					theologian = 2
					idea = church_attendance_duty
					ADM = 8
					check_variable = { which = "inquisition" value = 3 }
					check_variable = { which = "religious_fervor" value = 8 }
					}
				}
			}
		effect = {
			owner = { 
				random_owned = { 
					limit = { 
						owner = { ai = no } 
						has_global_flag = faction_setup_complete 
						}
					owner = { change_variable = { which = "clergy_mood" value = 1 } } #Trivial positive effect
					}
				}
			owner = { 
				missionaries = -1
				treasury = -25
				}
			add_province_modifier = { name = "convert_local_heretics" duration = 1825 }
			set_province_flag = minority_conversion
			}
		ai_will_do = { 
			factor = 1
			modifier = { 
				NOT = { owner = { missionaries = 4 } }
				factor = 0
				}
			modifier = { 
				revolt_risk = 1
				factor = 0
				}
			modifier = { 
				NOT = { owner = { treasury = 100 } }
				factor = 0
				}
			}
		}
	convert_small_minority = { 
		potential = { 
			owner = { missionaries = 1 }
			has_owner_religion = yes
			controlled_by = owner
			OR = { 
				owner = { ai = no }
				NOT = { 
					AND = { 
						check_variable = { which = "protestant" value = 4 }
						NOT = { check_variable = { which = "protestant" value = 6 } }
						owner = { religion = catholic }
						owner = { has_country_flag = spread_reformation }
						NOT = { religion_years = { protestant = 60 } }
						}
					}
				}
			NOT = { 
				OR = { 
					AND = { 
						check_variable = { which = "catholic" value = 6 }
						owner = { NOT = { religion = catholic } }
						}
					AND = { 
						check_variable = { which = "orthodox" value = 6 }
						owner = { NOT = { religion = orthodox } }
						}
					AND = { 
						check_variable = { which = "gnostic" value = 6 }
						owner = { NOT = { religion = gnostic } }
						}
					AND = { 
						check_variable = { which = "oriental" value = 6 }
						owner = { NOT = { religion = oriental } }
						}
					AND = { 
						check_variable = { which = "hussite" value = 7 }
						owner = { NOT = { religion = hussite } }
						}
					AND = { 
						check_variable = { which = "protestant" value = 6 }
						owner = { NOT = { religion = protestant } }
						}
					AND = { 
						check_variable = { which = "reformed" value = 7 }
						owner = { NOT = { religion = reformed } }
						}
					AND = { 
						check_variable = { which = "sunni" value = 6 }
						owner = { NOT = { religion = sunni } }
						}
					AND = { 
						check_variable = { which = "ibadi" value = 7 }
						owner = { NOT = { religion = ibadi } }
						}
					AND = { 
						check_variable = { which = "shiite" value = 7 }
						owner = { NOT = { religion = shiite } }
						}
					AND = { 
						check_variable = { which = "wahhabi" value = 6 }
						owner = { NOT = { religion = wahhabi } }
						}
					AND = { 
						check_variable = { which = "jain" value = 6 }
						owner = { NOT = { religion = jain } }
						}
					AND = { 
						check_variable = { which = "sikh" value = 6 }
						owner = { NOT = { religion = sikh } }
						}
					AND = { 
						check_variable = { which = "hindu" value = 6 }
						owner = { NOT = { religion = hinduism } }
						}
					AND = { 
						check_variable = { which = "zoroastrian" value = 7 }
						owner = { NOT = { religion = zoroastrian } }
						}
					AND = { 
						check_variable = { which = "confucian" value = 7 }
						owner = { NOT = { religion = confucianism } }
						}
					AND = { 
						check_variable = { which = "mahayana" value = 7 }
						owner = { NOT = { religion = shinto } }
						}
					AND = { 
						check_variable = { which = "theravada" value = 6 }
						owner = { NOT = { religion = buddhism } }
						}
					AND = { 
						check_variable = { which = "taoist" value = 6 }
						owner = { NOT = { religion = taoist } }
						}
					AND = { 
						check_variable = { which = "tengriist" value = 6 }
						owner = { NOT = { religion = shamanism } }
						}
					AND = { 
						check_variable = { which = "midewiwin" value = 6 }
						owner = { NOT = { religion = midewiwin } }
						}
					AND = { 
						check_variable = { which = "inti" value = 6 }
						owner = { NOT = { religion = inti } }
						}
					AND = { 
						check_variable = { which = "teotl" value = 6 }
						owner = { NOT = { religion = teotl } }
						}
					AND = { 
						check_variable = { which = "animist" value = 6 }
						owner = { NOT = { religion = animism } }
						}
					AND = { 
						check_variable = { which = "fetishist" value = 6 }
						owner = { NOT = { religion = fetishist } }
						}
					AND = { 
						check_variable = { which = "jewish" value = 7 }
						owner = { NOT = { religion = jewish } }
						}
					}
				}
			OR = { 
				AND = { 
					check_variable = { which = "catholic" value = 4 }
					owner = { NOT = { religion = catholic } }
					}
				AND = { 
					check_variable = { which = "orthodox" value = 4 }
					owner = { NOT = { religion = orthodox } }
					}
				AND = { 
					check_variable = { which = "gnostic" value = 4 }
					owner = { NOT = { religion = gnostic } }
					}
				AND = { 
					check_variable = { which = "oriental" value = 4 }
					owner = { NOT = { religion = oriental } }
					}
				AND = { 
					check_variable = { which = "hussite" value = 5 }
					owner = { NOT = { religion = hussite } }
					}
				AND = { 
					check_variable = { which = "protestant" value = 4 }
					owner = { NOT = { religion = protestant } }
					}
				AND = { 
					check_variable = { which = "reformed" value = 5 }
					owner = { NOT = { religion = reformed } }
					}
				AND = { 
					check_variable = { which = "sunni" value = 4 }
					owner = { NOT = { religion = sunni } }
					}
				AND = { 
					check_variable = { which = "ibadi" value = 5 }
					owner = { NOT = { religion = ibadi } }
					}
				AND = { 
					check_variable = { which = "shiite" value = 5 }
					owner = { NOT = { religion = shiite } }
					}
				AND = { 
					check_variable = { which = "wahhabi" value = 4 }
					owner = { NOT = { religion = wahhabi } }
					}
				AND = { 
					check_variable = { which = "jain" value = 4 }
					owner = { NOT = { religion = jain } }
					}
				AND = { 
					check_variable = { which = "sikh" value = 4 }
					owner = { NOT = { religion = sikh } }
					}
				AND = { 
					check_variable = { which = "hindu" value = 4 }
					owner = { NOT = { religion = hinduism } }
					}
				AND = { 
					check_variable = { which = "zoroastrian" value = 5 }
					owner = { NOT = { religion = zoroastrian } }
					}
				AND = { 
					check_variable = { which = "confucian" value = 5 }
					owner = { NOT = { religion = confucianism } }
					}
				AND = { 
					check_variable = { which = "mahayana" value = 5 }
					owner = { NOT = { religion = shinto } }
					}
				AND = { 
					check_variable = { which = "theravada" value = 4 }
					owner = { NOT = { religion = buddhism } }
					}
				AND = { 
					check_variable = { which = "taoist" value = 4 }
					owner = { NOT = { religion = taoist } }
					}
				AND = { 
					check_variable = { which = "tengriist" value = 4 }
					owner = { NOT = { religion = shamanism } }
					}
				AND = { 
					check_variable = { which = "midewiwin" value = 4 }
					owner = { NOT = { religion = midewiwin } }
					}
				AND = { 
					check_variable = { which = "inti" value = 4 }
					owner = { NOT = { religion = inti } }
					}
				AND = { 
					check_variable = { which = "teotl" value = 4 }
					owner = { NOT = { religion = teotl } }
					}
				AND = { 
					check_variable = { which = "animist" value = 4 }
					owner = { NOT = { religion = animism } }
					}
				AND = { 
					check_variable = { which = "fetishist" value = 4 }
					owner = { NOT = { religion = fetishist } }
					}
				AND = { 
					check_variable = { which = "jewish" value = 5 }
					owner = { NOT = { religion = jewish } }
					}
				}
			}
		allow = { 
			NOT = { has_province_modifier = convert_local_heretics }
			NOT = { has_province_modifier = conversion_tensions }
			NOT = { has_province_modifier = religious_autonomy }
			NOT = { has_province_modifier = religious_minority_support }
			owner = { 
				missionaries = 4
				treasury = 50
				stability = 2
				war = no
				OR = { 
					theologian = 3
					ADM = 9
					check_variable = { which = "religious_fervor" value = 10 }
					}
				}
			}
		effect = {
			owner = { 
				random_owned = { 
					limit = { 
						owner = { ai = no } 
						has_global_flag = faction_setup_complete 
						}
					owner = { change_variable = { which = "clergy_mood" value = 1 } } #Trivial positive effect
					}
				}
			owner = { 
				missionaries = -1
				treasury = -25
				}
			add_province_modifier = { name = "convert_local_heretics" duration = 1825 }
			set_province_flag = minority_conversion
			}
		ai_will_do = { 
			factor = 1
			modifier = { 
				NOT = { owner = { missionaries = 4 } }
				factor = 0
				}
			modifier = { 
				revolt_risk = 1
				factor = 0
				}
			modifier = { 
				NOT = { owner = { treasury = 100 } }
				factor = 0
				}
			}
		}
	convert_very_small_minority = { #Very small Jewish minorities are handled by SRI decisions
		potential = { 
			owner = { missionaries = 1 }
			has_owner_religion = yes
			controlled_by = owner
			OR = { 
				owner = { ai = no }
				NOT = { 
					AND = { 
						check_variable = { which = "protestant" value = 2 }
						NOT = { check_variable = { which = "protestant" value = 4 } }
						owner = { religion = catholic }
						owner = { has_country_flag = spread_reformation }
						NOT = { religion_years = { protestant = 60 } }
						}
					}
				}
			NOT = { 
				OR = { 
					AND = { 
						check_variable = { which = "catholic" value = 4 }
						owner = { NOT = { religion = catholic } }
						}
					AND = { 
						check_variable = { which = "orthodox" value = 4 }
						owner = { NOT = { religion = orthodox } }
						}
					AND = { 
						check_variable = { which = "gnostic" value = 4 }
						owner = { NOT = { religion = gnostic } }
						}
					AND = { 
						check_variable = { which = "oriental" value = 4 }
						owner = { NOT = { religion = oriental } }
						}
					AND = { 
						check_variable = { which = "hussite" value = 5 }
						owner = { NOT = { religion = hussite } }
						}
					AND = { 
						check_variable = { which = "protestant" value = 4 }
						owner = { NOT = { religion = protestant } }
						}
					AND = { 
						check_variable = { which = "reformed" value = 5 }
						owner = { NOT = { religion = reformed } }
						}
					AND = { 
						check_variable = { which = "sunni" value = 4 }
						owner = { NOT = { religion = sunni } }
						}
					AND = { 
						check_variable = { which = "ibadi" value = 5 }
						owner = { NOT = { religion = ibadi } }
						}
					AND = { 
						check_variable = { which = "shiite" value = 5 }
						owner = { NOT = { religion = shiite } }
						}
					AND = { 
						check_variable = { which = "wahhabi" value = 4 }
						owner = { NOT = { religion = wahhabi } }
						}
					AND = { 
						check_variable = { which = "jain" value = 4 }
						owner = { NOT = { religion = jain } }
						}
					AND = { 
						check_variable = { which = "sikh" value = 4 }
						owner = { NOT = { religion = sikh } }
						}
					AND = { 
						check_variable = { which = "hindu" value = 4 }
						owner = { NOT = { religion = hinduism } }
						}
					AND = { 
						check_variable = { which = "zoroastrian" value = 5 }
						owner = { NOT = { religion = zoroastrian } }
						}
					AND = { 
						check_variable = { which = "confucian" value = 5 }
						owner = { NOT = { religion = confucianism } }
						}
					AND = { 
						check_variable = { which = "mahayana" value = 5 }
						owner = { NOT = { religion = shinto } }
						}
					AND = { 
						check_variable = { which = "theravada" value = 4 }
						owner = { NOT = { religion = buddhism } }
						}
					AND = { 
						check_variable = { which = "taoist" value = 4 }
						owner = { NOT = { religion = taoist } }
						}
					AND = { 
						check_variable = { which = "tengriist" value = 4 }
						owner = { NOT = { religion = shamanism } }
						}
					AND = { 
						check_variable = { which = "midewiwin" value = 4 }
						owner = { NOT = { religion = midewiwin } }
						}
					AND = { 
						check_variable = { which = "inti" value = 4 }
						owner = { NOT = { religion = inti } }
						}
					AND = { 
						check_variable = { which = "teotl" value = 4 }
						owner = { NOT = { religion = teotl } }
						}
					AND = { 
						check_variable = { which = "animist" value = 4 }
						owner = { NOT = { religion = animism } }
						}
					AND = { 
						check_variable = { which = "fetishist" value = 4 }
						owner = { NOT = { religion = fetishist } }
						}
					}
				}
			OR = { 
				AND = { 
					check_variable = { which = "catholic" value = 2 }
					owner = { NOT = { religion = catholic } }
					}
				AND = { 
					check_variable = { which = "orthodox" value = 2 }
					owner = { NOT = { religion = orthodox } }
					}
				AND = { 
					check_variable = { which = "gnostic" value = 2 }
					owner = { NOT = { religion = gnostic } }
					}
				AND = { 
					check_variable = { which = "oriental" value = 2 }
					owner = { NOT = { religion = oriental } }
					}
				AND = { 
					check_variable = { which = "hussite" value = 3 }
					owner = { NOT = { religion = hussite } }
					}
				AND = { 
					check_variable = { which = "protestant" value = 2 }
					owner = { NOT = { religion = protestant } }
					}
				AND = { 
					check_variable = { which = "reformed" value = 3 }
					owner = { NOT = { religion = reformed } }
					}
				AND = { 
					check_variable = { which = "sunni" value = 2 }
					owner = { NOT = { religion = sunni } }
					}
				AND = { 
					check_variable = { which = "ibadi" value = 3 }
					owner = { NOT = { religion = ibadi } }
					}
				AND = { 
					check_variable = { which = "shiite" value = 3 }
					owner = { NOT = { religion = shiite } }
					}
				AND = { 
					check_variable = { which = "wahhabi" value = 2 }
					owner = { NOT = { religion = wahhabi } }
					}
				AND = { 
					check_variable = { which = "jain" value = 2 }
					owner = { NOT = { religion = jain } }
					}
				AND = { 
					check_variable = { which = "sikh" value = 2 }
					owner = { NOT = { religion = sikh } }
					}
				AND = { 
					check_variable = { which = "hindu" value = 2 }
					owner = { NOT = { religion = hinduism } }
					}
				AND = { 
					check_variable = { which = "zoroastrian" value = 3 }
					owner = { NOT = { religion = zoroastrian } }
					}
				AND = { 
					check_variable = { which = "confucian" value = 3 }
					owner = { NOT = { religion = confucianism } }
					}
				AND = { 
					check_variable = { which = "mahayana" value = 3 }
					owner = { NOT = { religion = shinto } }
					}
				AND = { 
					check_variable = { which = "theravada" value = 2 }
					owner = { NOT = { religion = buddhism } }
					}
				AND = { 
					check_variable = { which = "taoist" value = 2 }
					owner = { NOT = { religion = taoist } }
					}
				AND = { 
					check_variable = { which = "tengriist" value = 2 }
					owner = { NOT = { religion = shamanism } }
					}
				AND = { 
					check_variable = { which = "midewiwin" value = 2 }
					owner = { NOT = { religion = midewiwin } }
					}
				AND = { 
					check_variable = { which = "inti" value = 2 }
					owner = { NOT = { religion = inti } }
					}
				AND = { 
					check_variable = { which = "teotl" value = 2 }
					owner = { NOT = { religion = teotl } }
					}
				AND = { 
					check_variable = { which = "animist" value = 2 }
					owner = { NOT = { religion = animism } }
					}
				AND = { 
					check_variable = { which = "fetishist" value = 2 }
					owner = { NOT = { religion = fetishist } }
					}
				}
			}
		allow = { 
			NOT = { has_province_modifier = convert_local_heretics }
			NOT = { has_province_modifier = conversion_tensions }
			NOT = { has_province_modifier = religious_autonomy }
			NOT = { has_province_modifier = religious_minority_support }
			owner = { 
				missionaries = 5
				treasury = 50
				stability = 3
				war = no
				OR = { 
					theologian = 4
					check_variable = { which = "religious_fervor" value = 12 }
					}
				}
			}
		effect = {
			owner = { 
				random_owned = { 
					limit = { 
						owner = { ai = no } 
						has_global_flag = faction_setup_complete 
						}
					owner = { change_variable = { which = "clergy_mood" value = 1 } } #Trivial positive effect
					}
				}
			owner = { 
				missionaries = -1
				treasury = -25
				}
			add_province_modifier = { name = "convert_local_heretics" duration = 1825 }
			set_province_flag = minority_conversion
			}
		ai_will_do = { 
			factor = 1
			modifier = { 
				NOT = { owner = { missionaries = 4 } }
				factor = 0
				}
			modifier = { 
				revolt_risk = 1
				factor = 0
				}
			modifier = { 
				NOT = { owner = { treasury = 100 } }
				factor = 0
				}
			}
		}

	ai_missionaries = {
		potential = {
			owner = { ai = yes }
			has_owner_religion = no
			controlled_by = owner
			has_missionary = no
			OR = { 
				any_neighbor_province = { 
					has_owner_religion = yes
					owned_by = THIS
					}
				NOT = { any_neighbor_province = { base_tax = 1 } } #islands
				}
			OR = {
				religion_group = pagan
				owner = { accepted_culture = THIS }
				owner = { culture_group = THIS }
				is_core = THIS
				}
			NOT = { has_province_modifier = convert_local_heretics }
			NOT = { has_province_modifier = conversion_tensions }
			NOT = { 
				AND = { 
					religion = protestant
					owner = { has_country_flag = spread_reformation }
					NOT = { religion_years = { protestant = 60 } }
					}
				}
			}
		allow = { 
			NOT = { tolerance_to_this = 1 }
			NOT = { revolt_risk = 6 }
			owner = { 
				missionaries = 4
				treasury = 100
				stability = 1
				NOT = { war = yes }
				OR = { 
					ADM = 7
					idea = divine_supremacy
					idea = church_attendance_duty
					advisor = theologian
					defender_of_faith = yes
					}
				}
			}
		effect = { 
			set_variable = { which = missionary_chance value = 6 }
			add_province_modifier = { name = "convert_local_heretics" duration = 1825 }
			owner = { 
				missionaries = -1
				random_owned = { 
					limit = { 
						owner = { 
							OR = { 
								religion = catholic
								religion = protestant
								religion = orthodox
								religion = oriental
								religion = gnostic
								religion = sunni
								religion = wahhabi
								religion = buddhism
								religion = hinduism
								}
							}
						}
					THIS = { change_variable = { which = missionary_chance value = 3 } }
					}
				random_owned = { 
					limit = { owner = { religion_group = pagan } }
					THIS = { change_variable = { which = missionary_chance value = -3 } }
					}
				random_owned = { 
					limit = { THIS = { is_core = THIS } }
					THIS = { change_variable = { which = missionary_chance value = 3 } }
					}
				random_owned = { 
					limit = { has_building = temple }
					THIS = { change_variable = { which = missionary_chance value = 3 } }
					}
				random_owned = { 
					limit = { THIS = { NOT = { accepted_culture = THIS } } }
					THIS = { change_variable = { which = missionary_chance value = -3 } }
					}
				random_owned = { 
					limit = { THIS = { NOT = { religion_group = THIS } } }
					THIS = { change_variable = { which = missionary_chance value = -3 } }
					}
				random_owned = { 
					limit = { owner = { advisor = theologian } }
					THIS = { change_variable = { which = missionary_chance value = 3 } }
					}
				random_owned = { 
					limit = { owner = { idea = divine_supremacy } }
					THIS = { change_variable = { which = missionary_chance value = 6 } }
					}
				random_owned = { 
					limit = { THIS = { religion_group = pagan } }
					THIS = { change_variable = { which = missionary_chance value = 6 } }
					}
				random_owned = { 
					limit = { THIS = { religion = gnostic } }
					THIS = { change_variable = { which = missionary_chance value = 3 } }
					}
				random_owned = { 
					limit = { 
						THIS = { 
							OR = { 
								religion = reformed
								religion = hussite
								religion = shiite
								religion = ibadi
								religion = confucianism
								religion = shinto
								religion = sikh
								religion = jewish
								religion = jain
								religion = taoist
								}
							} 
						}
					THIS = { change_variable = { which = missionary_chance value = -3 } }
					}
				random_owned = { 
					limit = { 
						THIS = { NOT = { check_variable = { which = missionary_chance value = 3 } } }
						}
					THIS = { random = { chance = 1 change_variable = { which = "converted_heathens" value = 4 } change_variable = { which = "converted_heretics" value = 4 } } }
					}
				random_owned = { 
					limit = { 
						THIS = { check_variable = { which = missionary_chance value = 3 } }
						THIS = { NOT = { check_variable = { which = missionary_chance value = 6 } } }
						}
					THIS = { random = { chance = 6 change_variable = { which = "converted_heathens" value = 4 } change_variable = { which = "converted_heretics" value = 4 } } }
					}
				random_owned = { 
					limit = { 
						THIS = { check_variable = { which = missionary_chance value = 6 } }
						THIS = { NOT = { check_variable = { which = missionary_chance value = 9 } } }
						}
					THIS = { random = { chance = 12 change_variable = { which = "converted_heathens" value = 4 } change_variable = { which = "converted_heretics" value = 4 } } }
					}
				random_owned = { 
					limit = { 
						THIS = { check_variable = { which = missionary_chance value = 9 } }
						THIS = { NOT = { check_variable = { which = missionary_chance value = 12 } } }
						}
					THIS = { random = { chance = 18 change_variable = { which = "converted_heathens" value = 4 } change_variable = { which = "converted_heretics" value = 4 } } }
					}
				random_owned = { 
					limit = { 
						THIS = { check_variable = { which = missionary_chance value = 12 } }
						THIS = { NOT = { check_variable = { which = missionary_chance value = 15 } } }
						}
					THIS = { random = { chance = 24 change_variable = { which = "converted_heathens" value = 4 } change_variable = { which = "converted_heretics" value = 4 } } }
					}
				random_owned = { 
					limit = { 
						THIS = { check_variable = { which = missionary_chance value = 15 } }
						THIS = { NOT = { check_variable = { which = missionary_chance value = 18 } } }
						}
					THIS = { random = { chance = 30 change_variable = { which = "converted_heathens" value = 4 } change_variable = { which = "converted_heretics" value = 4 } } }
					}
				random_owned = { 
					limit = { 
						THIS = { check_variable = { which = missionary_chance value = 18 } }
						THIS = { NOT = { check_variable = { which = missionary_chance value = 21 } } }
						}
					THIS = { random = { chance = 36 change_variable = { which = "converted_heathens" value = 4 } change_variable = { which = "converted_heretics" value = 4 } } }
					}
				random_owned = { 
					limit = { 
						THIS = { check_variable = { which = missionary_chance value = 21 } }
						THIS = { NOT = { check_variable = { which = missionary_chance value = 24 } } }
						}
					THIS = { random = { chance = 42 change_variable = { which = "converted_heathens" value = 4 } change_variable = { which = "converted_heretics" value = 4 } } }
					}
				random_owned = { 
					limit = { 
						THIS = { check_variable = { which = missionary_chance value = 24 } }
						THIS = { NOT = { check_variable = { which = missionary_chance value = 27 } } }
						}
					THIS = { random = { chance = 48 change_variable = { which = "converted_heathens" value = 4 } change_variable = { which = "converted_heretics" value = 4 } } }
					}
				random_owned = { 
					limit = { 
						THIS = { check_variable = { which = missionary_chance value = 27 } }
						THIS = { NOT = { check_variable = { which = missionary_chance value = 30 } } }
						}
					THIS = { random = { chance = 54 change_variable = { which = "converted_heathens" value = 4 } change_variable = { which = "converted_heretics" value = 4 } } }
					}
				random_owned = { 
					limit = { 
						THIS = { check_variable = { which = missionary_chance value = 30 } }
						THIS = { NOT = { check_variable = { which = missionary_chance value = 33 } } }
						}
					THIS = { random = { chance = 60 change_variable = { which = "converted_heathens" value = 4 } change_variable = { which = "converted_heretics" value = 4 } } }
					}
				random_owned = { 
					limit = { 
						THIS = { check_variable = { which = missionary_chance value = 33 } }
						THIS = { NOT = { check_variable = { which = missionary_chance value = 36 } } }
						}
					THIS = { random = { chance = 66 change_variable = { which = "converted_heathens" value = 4 } change_variable = { which = "converted_heretics" value = 4 } } }
					}
				random_owned = { 
					limit = { 
						THIS = { check_variable = { which = missionary_chance value = 36 } }
						THIS = { NOT = { check_variable = { which = missionary_chance value = 39 } } }
						}
					THIS = { random = { chance = 72 change_variable = { which = "converted_heathens" value = 4 } change_variable = { which = "converted_heretics" value = 4 } } }
					}
				random_owned = { 
					limit = { 
						THIS = { check_variable = { which = missionary_chance value = 39 } }
						THIS = { NOT = { check_variable = { which = missionary_chance value = 42 } } }
						}
					THIS = { random = { chance = 78 change_variable = { which = "converted_heathens" value = 4 } change_variable = { which = "converted_heretics" value = 4 } } }
					}
				random_owned = { 
					limit = { 
						THIS = { check_variable = { which = missionary_chance value = 42 } }
						THIS = { NOT = { check_variable = { which = missionary_chance value = 45 } } }
						}
					THIS = { random = { chance = 84 change_variable = { which = "converted_heathens" value = 4 } change_variable = { which = "converted_heretics" value = 4 } } }
					}
				random_owned = { 
					limit = { 
						THIS = { check_variable = { which = missionary_chance value = 45 } }
						}
					THIS = { random = { chance = 90 change_variable = { which = "converted_heathens" value = 4 } change_variable = { which = "converted_heretics" value = 4 } } }
					}
				random_owned = { 
					limit = { 
						OR = { 
							owner = { religion = catholic }
							owner = { religion = gnostic }
							owner = { religion = sunni }
							}
						}
					owner = { treasury = -25 }
					}
				random_owned = { 
					limit = { 
						OR = { 
							owner = { religion = orthodox }
							owner = { religion = reformed }
							owner = { religion = oriental }
							owner = { religion = hussite }
							owner = { religion = wahhabi }
							}
						}
					owner = { treasury = -30 }
					}
				random_owned = { 
					limit = { owner = { religion_group = pagan } }
					owner = { treasury = -40 }
					}
				random_owned = { 
					limit = { 
						owner = { 
							NOT = { religion_group = pagan }
							NOT = { religion = catholic }
							NOT = { religion = gnostic }
							NOT = { religion = sunni }
							NOT = { religion = orthodox }
							NOT = { religion = reformed }
							NOT = { religion = oriental }
							NOT = { religion = hussite }
							NOT = { religion = wahhabi }
							} 
						}
					owner = { treasury = -35 }
					}
				}
			set_variable = { which = missionary_chance value = 0 }
			}		
		ai_will_do = {
			factor = 1
			}
		}

}
