#template = {
#	potential = {
#	}
#	allow = {
#	}
#	effect = {
#	}
#	ai_will_do = {
#		factor = 1
#	}
#}
#		modifier = {
#			factor = 0
#			port = no
#		}
#... ARE MULTIPLICATIVE (where factor of >0 means "will do")
#
# INDEX
#
#1) CHANGING GOVERNMENT FORM (ex absolutism.txt)
#2) MOVING UP IN RANK
#3) RESTORING AI ELECTOR'S OLD GOVERNMENT FORM

country_decisions = {

#1) CHANGING GOVERNMENT FORM (ex absolutism.txt)

# Imperial Government

	imperial_administration = {
		potential = {
			has_global_flag = sacra_romanum_imperium
			OR = {
				technology_group = latin
				technology_group = eastern
				technology_group = muslim
			}
			OR = {
				government = feudal_monarchy
				government = feudal_monarchy_kingdom
				government = despotic_monarchy
				AND = {
					ai = yes
					OR = {
						tag = TUR
						tag = MNG
					}
					OR = {
						government = merchant_republic
						government = noble_republic
						government = administrative_monarchy
						government = administrative_monarchy_kingdom
						government = administrative_republic
						government = theocratic_government
					}
				}
			}
			num_of_cities = 18
			OR = {
				num_of_cities = 30
				tag = TUR
				tag = MNG
			}
		}
		allow =  {
			stability = 2
			war = no 
			is_subject = no
		}
		effect = {
			government = imperial_government
			stability = -3
			prestige = 0.05
			change_variable = { which = AE_level value = 2 }
		}
		ai_will_do = {
			factor = 1
			modifier = {
				factor = 0
				religion = catholic
			}
			modifier = {
				factor = 0
				religion = protestant
			}
			modifier = {
				factor = 0
				religion = reformed
			}
		}
	}

	scandinavian_empire = {
		potential = {
			has_global_flag = sacra_romanum_imperium
			OR = {
				tag = DAN
				tag = NOR
				tag = SCA
				tag = SWE
			}
			OR = {
				AND = {
					owns = 1
					owns = 12
				}
				AND = {
					owns = 1
					owns = 17
				}
				AND = {
					owns = 12
					owns = 17
				}
			}
			OR = {
				government = feudal_monarchy
				government = feudal_monarchy_kingdom
				government = despotic_monarchy
			}
			NOT = { scandinavian_region = { owner = { government = imperial_government } } }
		}
		allow =  {
			war = no 
			is_subject = no
		}
	  	effect = {
			government = imperial_government
			stability = -3
			prestige = 0.05
			random_owned = {
				limit = { owner = { government = imperial_government } }
				owner = { change_variable = { which = AE_level value = 3 } }
			}
		}
		ai_will_do = {
			factor = 1
			modifier = {
				factor = 0	# will not do, if competent
				check_variable = { which = AE_level value = 4 }
			}
		}
	}

# Decisions to keep the AI from going the path of least resistance (and least plausibility)

merchant_republic_into_administrative_republic = {
	potential = {
		government_tech = 16
		OR = {
			government = merchant_republic
			AND = {
				has_global_flag = atage
				OR = {
					government = merchant_republic-upper
					government = merchant_republic-lower
					government = merchant_republic-lowest
				}
			}
		}
	}
	allow = {
		government_tech = 19
		stability = 0
		ADM = 6
		war = no
	}
	effect = {
		stability = -1
		random_owned = {
			limit = { owner = { government = merchant_republic } }
			owner = { government = administrative_republic }
		}
		random_owned = {
			limit = {
				has_global_flag = atage
				owner = { government = merchant_republic-upper }
			}
			owner = { government = administrative_republic-upper }
		}
		random_owned = {
			limit = {
				has_global_flag = atage
				owner = { government = merchant_republic-lower }
			}
			owner = { government = administrative_republic-lower }
		}
		random_owned = {
			limit = {
				has_global_flag = atage
				owner = { government = merchant_republic-lowest }
			}
			owner = { government = administrative_republic-lowest }
		}
	}
	ai_will_do = {
		factor = 1
		modifier = {
			factor = 0
			has_country_flag = hanseatic_member
			check_variable = { which = AE_level value = 4 }
		}
		modifier = {
			factor = 0
			num_of_cots = 1
			check_variable = { which = AE_level value = 4 }
		}
		modifier = {
			factor = 0
			check_variable = { which = AE_level value = 4 }
			total_merchants = 20
			OR = {
				NOT = { merchants = 1 }
				AND = {
					total_merchants = 21
					NOT = { merchants = 2 }
				}
				AND = {
					total_merchants = 22
					NOT = { merchants = 3 }
				}
				AND = {
					total_merchants = 23
					NOT = { merchants = 4 }
				}
				AND = {
					total_merchants = 24
					NOT = { merchants = 5 }
				}
				AND = {
					total_merchants = 25
					merchants = 5
				}
			}
		}
	}
}

administrative_republic_into_republican_dictatorship = {
	potential = {
		government_tech = 19
		NOT = { government_tech = 47 }
		OR = {
			government = administrative_republic
			AND = {
				has_global_flag = atage
				OR = {
					government = administrative_republic-upper
					government = administrative_republic-lower
					government = administrative_republic-lowest
				}
			}
		}
	}
	allow = {
		government_tech = 28
		stability = 3
		ADM = 6
		war = no
	}
	effect = {
		stability = -4
		random_owned = {
			limit = { owner = { government = administrative_republic } }
			owner = { government = republican_dictatorship }
		}
		random_owned = {
			limit = {
				has_global_flag = atage
				owner = { government = administrative_republic-upper }
			}
			owner = { government = republican_dictatorship-upper }
		}
		random_owned = {
			limit = {
				has_global_flag = atage
				owner = { government = administrative_republic-lower }
			}
			owner = { government = republican_dictatorship-lower }
		}
		random_owned = {
			limit = {
				has_global_flag = atage
				owner = { government = administrative_republic-lowest }
			}
			owner = { government = republican_dictatorship-lowest }
		}
	}
	ai_will_do = {
		factor = 1
		modifier = {
			factor = 0
			NOT = { has_country_flag = original_monarchy }
		}
	}
}

administrative_monarchy_into_absolute_monarchy = {
	potential = {
		government_tech = 18
		OR = {
			government = administrative_monarchy
			AND = {
				has_global_flag = atage
				OR = {
					government = administrative_monarchy-upper
					government = administrative_monarchy-lower
					government = administrative_monarchy-lowest
				}
			}
		}
		num_of_cities = 10
		OR = {	# Special restrictions for the AI
			ai = no
			NOT = { government_tech = 32 }
			num_of_cities = 24
		}
	}
	allow = {
		ADM = 7
		war = no
		stability = 0
		prestige = 0.75
		NOT = { centralization_decentralization = 0 }
		government_tech = 27
	}
	effect = {
		stability = -1
		centralization_decentralization = -2
		random_owned = {
			limit = {
				owner = {
					government = administrative_monarchy
					NOT = { has_global_flag = atage }
					NOT = { has_country_flag = kingdom }
				}
			}
			owner = { government = absolute_monarchy }
		}
		random_owned = {
			limit = {
				owner = {
					government = administrative_monarchy
					NOT = { has_global_flag = atage }
					has_country_flag = kingdom
				}
			}
			owner = { government = absolute_monarchy_kingdom }
		}
		random_owned = {
			limit = {
				has_global_flag = atage
				owner = { government = administrative_monarchy }
			}
			owner = { government = absolute_monarchy }
		}
		random_owned = {
			limit = {
				has_global_flag = atage
				owner = { government = administrative_monarchy-upper }
			}
			owner = { government = absolute_monarchy-upper }
		}
		random_owned = {
			limit = {
				has_global_flag = atage
				owner = { government = administrative_monarchy-lower }
			}
			owner = { government = absolute_monarchy-lower }
		}
		random_owned = {
			limit = {
				has_global_flag = atage
				owner = { government = administrative_monarchy-lowest }
			}
			owner = { government = absolute_monarchy-lowest }
		}
	}
	ai_will_do = {
		factor = 1
		modifier = {
			factor = 0
			NOT = { num_of_cities = 12 }
		}
	}
}

administrative_monarchy_into_absolute_monarchy_for_kingdoms = {
	potential = {
		has_global_flag = sacra_romanum_imperium
		government_tech = 18
		government = administrative_monarchy_kingdom
		num_of_cities = 10
		OR = {	# Special restrictions for the AI
			ai = no
			NOT = { government_tech = 32 }
			num_of_cities = 24
			prestige = 0.9
		}
	}
	allow = {
		ADM = 7
		war = no
		stability = 0
		prestige = 0.75
		NOT = { centralization_decentralization = 2 }
		government_tech = 27
	}
	effect = {
		stability = -1
		centralization_decentralization = -2
		government = absolute_monarchy_kingdom
	}
	ai_will_do = {
		factor = 1
		modifier = {
			factor = 0
			NOT = { num_of_cities = 12 }
		}
	}
}

theocracy_into_absolute_monarchy = {
	potential = {
		capital_scope = { hre = no }
		government_tech = 20
		OR = {
			government = theocratic_government
			AND = {
				has_global_flag = atage
				OR = {
					government = theocratic_government-upper
					government = theocratic_government-lower
					government = theocratic_government-lowest
				}
			}
		}
	}
	allow = {
		ADM = 7
		war = no
		stability = 3
		prestige = 0.75
		NOT = { centralization_decentralization = 0 }
		government_tech = 27
	}
	effect = {
		stability = -10
		centralization_decentralization = -1
		random_owned = {
			limit = { owner = { government = theocratic_government } }
			owner = { government = absolute_monarchy }
		}
		random_owned = {
			limit = {
				has_global_flag = atage
				owner = { government = theocratic_government-upper }
			}
			owner = { government = absolute_monarchy-upper }
		}
		random_owned = {
			limit = {
				has_global_flag = atage
				owner = { government = theocratic_government-lower }
			}
			owner = { government = absolute_monarchy-lower }
		}
		random_owned = {
			limit = {
				has_global_flag = atage
				owner = { government = theocratic_government-lowest }
			}
			owner = { government = absolute_monarchy-lowest }
		}
	}
	ai_will_do = {
		factor = 1
		modifier = {
			factor = 0
			NOT = { num_of_cities = 4 }
		}
	}
}

theocracy_into_absolute_monarchy_hre = {
	potential = {
		ai = no
		government_tech = 21
		capital_scope = { hre = yes }
		OR = {
			government = theocratic_government
			AND = {
				has_global_flag = atage
				OR = {
					government = theocratic_government-upper
					government = theocratic_government-lower
					government = theocratic_government-lowest
				}
			}
		}
	}
	allow = {
		war = no
		is_religion_enabled = protestant
		prestige = 0.5
		stability = 3
		NOT = { centralization_decentralization = 1 }
		government_tech = 27
		OR = {
			elector = no
			emperor = { NOT = { religion = catholic } }
			emperor = { NOT = { relation = { who = THIS value = 0 } } }
		}
	}
	effect = {
		stability = -10
		centralization_decentralization = -1
		random_owned = {
			limit = { owner = { government = theocratic_government } }
			owner = { government = absolute_monarchy }
		}
		random_owned = {
			limit = {
				has_global_flag = atage
				owner = { government = theocratic_government-upper }
			}
			owner = { government = absolute_monarchy-upper }
		}
		random_owned = {
			limit = {
				has_global_flag = atage
				owner = { government = theocratic_government-lower }
			}
			owner = { government = absolute_monarchy-lower }
		}
		random_owned = {
			limit = {
				has_global_flag = atage
				owner = { government = theocratic_government-lowest }
			}
			owner = { government = absolute_monarchy-lowest }
		}
	}
	ai_will_do = {
		factor = 1
	}
}

### IMPERIAL CITY ###

# Becoming an Imperial City

	reichsstadt = {
		potential = {
			NOT = { num_of_cities = 2 }
			OR = {
				government = republic
				has_country_modifier = hanseatic_league
				AND = {
					capital_scope = {
						has_province_flag = burghers_won
						has_province_flag = old_rights_city_granted
					}
				}
				capital_scope = { has_province_modifier = hanseatic_city }
			}
			capital_scope = { hre = yes controlled_by = owner }
			NOT = { government = imperial_city }
			NOT = { has_global_flag = HRE_reformation_war }
			NOT = { has_global_flag = HRE_social_revolution }
			emperor = { exists = yes }
			religion_group = christian
		}
		allow = {
			serfdom_freesubjects = 0
			aristocracy_plutocracy = 0
			ADM = 9
			stability = 3
			emperor = { relation = { who = THIS value = 200 } }
			war = no
			is_subject = no
			is_lesser_in_union = no
			NOT = { num_of_unions = 1 }
		}
		effect = {
			any_country = {
				limit = { government = imperial_city }
				relation = { who = THIS value = 100 }
			}
			capital_scope = {
				change_variable = { which = social_revolution value = -6 }
				province_event = 112952
			}
			years_of_income = -0.5
			stability = -2
			government = imperial_city
			aristocracy_plutocracy = 1
			serfdom_freesubjects = 1
		}
		ai_will_do = {
			factor = 1
			modifier = {
				factor = 0
				capital_scope = {
					NOT = { check_variable = { which = social_revolution value = 14 } }
					NOT = { has_province_flag = burghers_won }
					NOT = { has_province_flag = old_rights_city_granted }
				}
			}
			modifier = {
				factor = 0
				capital_scope = {
					has_province_flag = old_rights_city_granted
					NOT = {
						OR = {
							check_variable = { which = social_revolution value = 21 }
							has_province_flag = burghers_won
						}
					}
				}
			}
		}
	}

# Switching from Imperial City to something else

imperial_city_into_merchant_republic = {
	potential = { government = imperial_city }
	allow = {
		num_of_cities = 3
		government_tech = 12
		war = no
		ADM = 6
		stability = 2
		prestige = 0
		aristocracy_plutocracy = -1
		merchants = 5
		total_merchants = 18
	}
	effect = {
		random_owned = {
			limit = { NOT = { has_global_flag = atage } }
			owner = { government = merchant_republic }
		}
		random_owned = {
			limit = { has_global_flag = atage }
			owner = { government = merchant_republic-lower }
		}
		merchants = -5
		stability = -1
		aristocracy_plutocracy = 1
		any_owned = {
			limit = {
				NOT = { has_building = guardia_real }
				OR = {
					has_owner_culture = no
					trade_goods = grain
					trade_goods = wine
					trade_goods = wool
				}
			}
			add_province_modifier = {
				name = "fc_nobles_excluded"
				duration = 1825
			}
		}
	}
	ai_will_do = {
		factor = 1
		modifier = {
			factor = 0
			num_of_cities = 4
		}
	}
}

imperial_city_into_noble_republic = {
	potential = { government = imperial_city }
	allow = {
		num_of_cities = 3
		government_tech = 10
		war = no
		DIP = 7
		stability = 2
		prestige = 0
		NOT = { aristocracy_plutocracy = 2 }
	}
	effect = {
		random_owned = {
			limit = { NOT = { has_global_flag = atage } }
			owner = { government = noble_republic }
		}
		random_owned = {
			limit = { has_global_flag = atage }
			owner = { government = noble_republic-lowest }
		}
		stability = -1
		aristocracy_plutocracy = -2
		capital_scope = {
			add_province_modifier = {
				name = "fc_senate_deposed"
				duration = 3650
			}			
			create_revolt = 1
		}
	}
	ai_will_do = {
		factor = 1
		modifier = {
			factor = 0
			government_tech = 13
		}
		modifier = {
			factor = 0
			num_of_cities = 4
		}
	}
}

imperial_city_into_feudal_monarchy = {
	potential = { government = imperial_city }
	allow = {
		num_of_cities = 4
		government_tech = 8
		war = no
		MIL = 6
		stability = 3
		prestige = 0
		NOT = { aristocracy_plutocracy = 2 }
	}
	effect = {
		random_owned = {
			limit = { NOT = { has_global_flag = atage } }
			owner = { government = feudal_monarchy }
		}
		random_owned = {
			limit = { has_global_flag = atage }
			owner = { government = feudal_monarchy-lowest }
		}
		stability = -4
		aristocracy_plutocracy = -4
		capital_scope = {
			add_province_modifier = {
				name = "fc_senate_deposed"
				duration = 7300
			}
			create_revolt = 1
			any_neighbor_province = {
				limit = { owned_by = THIS }
				create_revolt = 1
			}
		}
		add_country_modifier = {
			name = "fc_king"
			duration = 3650
		}
	}
	ai_will_do = {
		factor = 1
	}
}

# Switching between governmental paths

autocratic_into_constitutional_government = {
	potential = {
		government_tech = 32
		NOT = { government = theocracy }
		OR = {
			government = monarchy
			government_tech = 47
		}
		OR = {
			government = absolute_monarchy
			government = enlightened_despotism
			government = bureaucratic_despotism
			government = republican_dictatorship
			government = revolutionary_empire
			AND = {
				NOT = { has_global_flag = atage }
				OR = {
					government = absolute_monarchy_kingdom
					government = enlightened_despotism_kingdom
				}
			}
			AND = {
				has_global_flag = atage
				OR = {
					government = absolute_monarchy-upper
					government = absolute_monarchy-lower
					government = absolute_monarchy-lowest
					government = enlightened_despotism-upper
					government = enlightened_despotism-lower
					government = enlightened_despotism-lowest
					government = bureaucratic_despotism-upper
					government = bureaucratic_despotism-lower
					government = bureaucratic_despotism-lowest
					government = republican_dictatorship-upper
					government = republican_dictatorship-lower
					government = republican_dictatorship-lowest
					government = revolutionary_empire-upper
					government = revolutionary_empire-lower
					government = revolutionary_empire-lowest
				}
			}
		}
		NOT = { has_country_flag = revolution }
		revolt_percentage = 0.5
		NOT = { stability = 0 }
	}
	allow = {
		war = no
		ADM = 6
	}
	effect = {
		aristocracy_plutocracy = 2
		serfdom_freesubjects = 2
		centralization_decentralization = 2
		stability = 7
		prestige = 0.25
#govt change
# non-ATAGE
		random_owned = {
			limit = {
				NOT = { has_global_flag = atage }
				owner = {
					government = monarchy
					has_country_flag = kingdom
					NOT = { government = revolutionary_empire }
				}
			}
			owner = { government = constitutional_monarchy_kingdom }
		}
		random_owned = {
			limit = {
				NOT = { has_global_flag = atage }
				owner = {
					government = monarchy
					NOT = { has_country_flag = kingdom }
					NOT = { government = revolutionary_empire }
				}
			}
			owner = { government = constitutional_monarchy }
		}
		random_owned = {
			limit = {
				NOT = { has_global_flag = atage }
				owner = {
					government = republic
				}
			}
			owner = { government = constitutional_republic }
		}
		random_owned = {
			limit = {
				NOT = { has_global_flag = atage }
				owner = {
					government = revolutionary_empire
				}
			}
			owner = { government = revolutionary_republic }
		}
# ATAGE
		random_owned = { 
			limit = { has_global_flag = atage owner = { government = monarchy has_country_flag = state } }
			owner = { government = constitutional_monarchy-lowest }
		}
		random_owned = { 
			limit = { has_global_flag = atage owner = { government = monarchy has_country_flag = principality } }
			owner = { government = constitutional_monarchy-lower }
		}
		random_owned = { 
			limit = { has_global_flag = atage owner = { government = monarchy has_country_flag = kingdom } }
			owner = { government = constitutional_monarchy }
		}
		random_owned = { 
			limit = { has_global_flag = atage owner = { government = monarchy has_country_flag = empire } }
			owner = { government = constitutional_monarchy-upper }
		}
		random_owned = { 
			limit = { has_global_flag = atage owner = { NOT = { government = monarchy } has_country_flag = state } }
			owner = { government = constitutional_republic-lowest }
		}
		random_owned = { 
			limit = { has_global_flag = atage owner = { NOT = { government = monarchy } has_country_flag = principality } }
			owner = { government = constitutional_republic-lower }
		}
		random_owned = { 
			limit = { has_global_flag = atage owner = { NOT = { government = monarchy } has_country_flag = kingdom } }
			owner = { government = constitutional_republic }
		}
		random_owned = { 
			limit = { has_global_flag = atage owner = { NOT = { government = monarchy } has_country_flag = empire } }
			owner = { government = constitutional_republic-upper }
		}
# end rebellions
		any_owned = {
			limit = { controller = { tag = REB } }
			change_controller = THIS
		}
		set_country_flag = parliament_initialized
		set_variable = { which = power_of_parliament value = 3 }
		capital_scope = { province_event = 112968 }	# elect parliament
	}
	ai_will_do = {
		factor = 1
		modifier = {
			factor = 0
			NOT = { revolt_percentage = 0.75 }
		}
		modifier = {
			factor = 0
			stability = -1
		}
		modifier = {
			factor = 0
			capital_scope = { controlled_by = owner has_siege = no }
		}
	}
}

offer_constitutional_monarchy = {
	potential = {
		has_country_flag = revolution
		NOT = { has_country_flag = national_assembly }
	}
	allow = {
		war = no
		ADM = 6
		OR = {
			NOT = { stability = 1 }
			revolt_percentage = 0.25
			war_exhaustion = 12
			NOT = { manpower_percentage = 0.1 }
			number_of_loans = 3
			is_bankrupt = yes
			revolution_target_exists = yes
		}
	}
	effect = {
		set_country_flag = national_assembly
		aristocracy_plutocracy = 2
		serfdom_freesubjects = 2
		centralization_decentralization = 2
		prestige = 0.25
#govt change
# non-ATAGE
		random_owned = {
			limit = {
				NOT = { has_global_flag = atage }
				owner = {
					government = monarchy
					has_country_flag = kingdom
					NOT = { government = revolutionary_empire }
				}
			}
			owner = { government = constitutional_monarchy_kingdom }
		}
		random_owned = {
			limit = {
				NOT = { has_global_flag = atage }
				owner = {
					government = monarchy
					NOT = { has_country_flag = kingdom }
					NOT = { government = revolutionary_empire }
				}
			}
			owner = { government = constitutional_monarchy }
		}
		random_owned = {
			limit = {
				NOT = { has_global_flag = atage }
				owner = {
					government = republic
				}
			}
			owner = { government = constitutional_republic }
		}
		random_owned = {
			limit = {
				NOT = { has_global_flag = atage }
				owner = {
					government = revolutionary_empire
				}
			}
			owner = { government = revolutionary_republic }
		}
# ATAGE
		random_owned = { 
			limit = { has_global_flag = atage owner = { government = monarchy has_country_flag = state } }
			owner = { government = constitutional_monarchy-lowest }
		}
		random_owned = { 
			limit = { has_global_flag = atage owner = { government = monarchy has_country_flag = principality } }
			owner = { government = constitutional_monarchy-lower }
		}
		random_owned = { 
			limit = { has_global_flag = atage owner = { government = monarchy has_country_flag = kingdom } }
			owner = { government = constitutional_monarchy }
		}
		random_owned = { 
			limit = { has_global_flag = atage owner = { government = monarchy has_country_flag = empire } }
			owner = { government = constitutional_monarchy-upper }
		}
		random_owned = { 
			limit = { has_global_flag = atage owner = { NOT = { government = monarchy } has_country_flag = state } }
			owner = { government = constitutional_republic-lowest }
		}
		random_owned = { 
			limit = { has_global_flag = atage owner = { NOT = { government = monarchy } has_country_flag = principality } }
			owner = { government = constitutional_republic-lower }
		}
		random_owned = { 
			limit = { has_global_flag = atage owner = { NOT = { government = monarchy } has_country_flag = kingdom } }
			owner = { government = constitutional_republic }
		}
		random_owned = { 
			limit = { has_global_flag = atage owner = { NOT = { government = monarchy } has_country_flag = empire } }
			owner = { government = constitutional_republic-upper }
		}
# end rebellions
		any_owned = {
			limit = { controller = { tag = REB } }
			change_controller = THIS
		}
# initiate parliament
		capital_scope = {
			add_province_modifier = { 
				name = "parliament"
				duration = 730	# 2 years
			}
		}
		set_country_flag = parliament_initialized
		set_country_flag = parliament_active
		set_country_flag = parliament_radical
		clr_country_flag = war_funds_approved
		clr_country_flag = asked_for_war_funds
		clr_country_flag = militia_approved
		clr_country_flag = asked_for_war_militia
		set_variable = { which = parliament value = 0 }
		set_variable = { which = number_of_mps value = 0 }
		set_variable = { which = power_of_parliament value = 12 }	# will start at very high power
# heavy bias towards a left-leaning majority
		any_owned = {
			limit = { has_province_flag = eligible_to_be_represented }
			set_variable = { which = parties value = -8 }
		}
		country_event = 3020
	}
	ai_will_do = {
		factor = 1
		modifier = {
			factor = 0
			NOT = { revolt_percentage = 0.25 }
			revolution_target_exists = no
			NOT = { number_of_loans = 3 }
			is_bankrupt = no
		}
		modifier = {
			factor = 0
			NOT = { war_exhaustion = 12 }
			revolution_target_exists = no
			NOT = { number_of_loans = 3 }
			is_bankrupt = no
		}
		modifier = {
			factor = 0
			manpower_percentage = 0.8
			revolution_target_exists = no
			NOT = { number_of_loans = 3 }
			is_bankrupt = no
		}
		modifier = {
			factor = 0
			capital_scope = { controlled_by = owner has_siege = no }
		}
	}
}

constitutional_into_autocratic_government = {
	potential = {
		government_tech = 27
		NOT = { government = theocracy }
		OR = {
			government = monarchy
			government_tech = 28
		}
		OR = {
			government = constitutional_monarchy
			government = constitutional_republic
			AND = {
				NOT = { has_global_flag = atage }
				government = constitutional_monarchy_kingdom
			}
			AND = {
				government = revolutionary_republic
				OR = {
					capital_scope = { has_province_modifier = conflict_with_the_estates }
					capital_scope = { has_province_modifier = parliament_dissolved }
					NOT = { MIL = 6 }
				}
			}
			AND = {
				has_global_flag = atage
				OR = {
					government = constitutional_monarchy-upper
					government = constitutional_monarchy-lower
					government = constitutional_monarchy-lowest
					government = constitutional_republic-upper
					government = constitutional_republic-lower
					government = constitutional_republic-lowest
				}
			}
		}
		NOT = { has_country_flag = revolution }
		NOT = { check_variable = { which = power_of_parliament value = 0 } }
		OR = {
			government = revolutionary_republic
			NOT = { check_variable = { which = power_of_parliament value = -10 } }
		}
	}
	allow = {
		NOT = { revolt_percentage = 0.1 }
		OR = {
			stability = 2
			MIL = 7
		}
		OR = {
			ADM = 8
			capital_scope = { infantry_in_province = 15 }
		}
		capital_scope = { controlled_by = THIS has_siege = no }
		land_maintenance = 1
	}
	effect = {
		aristocracy_plutocracy = -2
		serfdom_freesubjects = -2
		centralization_decentralization = -2
		stability = -5
		prestige = 0.1
#govt change
# non-ATAGE
		random_owned = {
			limit = { NOT = { has_global_flag = atage } owner = { government = constitutional_monarchy_kingdom } }
			owner = { government = absolute_monarchy_kingdom }
		}
		random_owned = {
			limit = { NOT = { has_global_flag = atage } owner = { government = constitutional_monarchy } }
			owner = { government = absolute_monarchy }
		}
		random_owned = {
			limit = { NOT = { has_global_flag = atage } owner = { government = constitutional_republic } }
			owner = { government = republican_dictatorship }
		}
		random_owned = {
			limit = { NOT = { has_global_flag = atage } owner = { government = revolutionary_republic } }
			owner = {
				government = revolutionary_empire
				define_ruler = { MIL = 8 }
			}
		}
# ATAGE
		random_owned = { 
			limit = { has_global_flag = atage owner = { government = monarchy has_country_flag = state } }
			owner = { government = absolute_monarchy-lowest }
		}
		random_owned = { 
			limit = { has_global_flag = atage owner = { government = monarchy has_country_flag = principality } }
			owner = { government = absolute_monarchy-lower }
		}
		random_owned = { 
			limit = { has_global_flag = atage owner = { government = monarchy has_country_flag = kingdom } }
			owner = { government = absolute_monarchy }
		}
		random_owned = { 
			limit = { has_global_flag = atage owner = { government = monarchy has_country_flag = empire } }
			owner = { government = absolute_monarchy-upper }
		}
		random_owned = { 
			limit = { has_global_flag = atage owner = { NOT = { government = monarchy } has_country_flag = state } }
			owner = { government = republican_dictatorship-lowest }
		}
		random_owned = { 
			limit = { has_global_flag = atage owner = { NOT = { government = monarchy } has_country_flag = principality } }
			owner = { government = republican_dictatorship-lower }
		}
		random_owned = { 
			limit = { has_global_flag = atage owner = { NOT = { government = monarchy } has_country_flag = kingdom } }
			owner = { government = republican_dictatorship }
		}
		random_owned = { 
			limit = { has_global_flag = atage owner = { NOT = { government = monarchy } has_country_flag = empire } }
			owner = { government = republican_dictatorship-upper }
		}
		clr_country_flag = parliament_initialized
		clr_country_flag = parliament_active
		capital_scope = { remove_province_modifier = parliament }
		random_owned = {
			limit = {
				is_capital = yes
				has_province_modifier = conflict_with_the_estates
			}
			remove_province_modifier = conflict_with_the_estates
		}
		random_owned = {
			limit = {
				is_capital = yes
				has_province_modifier = pending_poc_resolution
			}
			remove_province_modifier = pending_poc_resolution
		}
		random_owned = {
			limit = {
				is_capital = yes
				has_province_modifier = parliament_dissolved
			}
			remove_province_modifier = parliament_dissolved
		}
		random_owned = {
			limit = {
				has_owner_culture = yes
				has_owner_religion = yes
				is_overseas = no
				is_capital = no
				owner = { has_country_flag = parliament_radical }
			}
			create_revolt = 3
		}
		random_owned = {
			limit = {
				has_owner_culture = yes
				has_owner_religion = yes
				is_overseas = no
				is_capital = no
				owner = { has_country_flag = parliament_liberal }
			}
			create_revolt = 2
		}
		random_owned = {
			limit = {
				has_owner_culture = yes
				has_owner_religion = yes
				is_overseas = no
				is_capital = no
				owner = { has_country_flag = parliament_conservative }
			}
			create_revolt = 2
		}
		random_owned = {
			limit = {
				has_owner_culture = yes
				has_owner_religion = yes
				is_overseas = no
				is_capital = no
				owner = { has_country_flag = parliament_ultra_conservative }
			}
			create_revolt = 3
		}
	}
	ai_will_do = {
		factor = 1
		modifier = {
			factor = 0
			aristocracy_plutocracy = 0
		}
		modifier = {
			factor = 0
			serfdom_freesubjects = 0
		}
		modifier = {
			factor = 0
			centralization_decentralization = 2
		}
	}
}

#2) MOVING UP IN RANK

moving_on_up = {
	potential = {
		has_country_flag = kingdom
		has_global_flag = sacra_romanum_imperium
		NOT = { government = electoral_government }
		NOT = { government = feudal_monarchy_kingdom }
		NOT = { government = administrative_monarchy_kingdom }
		NOT = { government = absolute_monarchy_kingdom }
		NOT = { government = constitutional_monarchy_kingdom }
		NOT = { government = enlightened_despotism_kingdom }
		NOT = { government = imperial_government }
		NOT = { government = revolutionary_empire }
	}
	allow = {
		stability = 1
		prestige = 0
		war = no
		government = monarchy
	}
	effect = {
		stability = -1
		prestige = 0.1
		random_owned = {
			limit = {
				owner = {
					OR = {
						government = despotic_monarchy
						government = feudal_monarchy
						government = tribal_despotism
						government = tribal_federation
					}
				}
			}
			owner = { government = feudal_monarchy_kingdom }
		}
		random_owned = {
			limit = { owner = { government = administrative_monarchy } }
			owner = { government = administrative_monarchy_kingdom }
		}
		random_owned = {
			limit = { owner = { government = absolute_monarchy } }
			owner = { government = absolute_monarchy_kingdom }
		}
		random_owned = {
			limit = { owner = { government = constitutional_monarchy } }
			owner = { government = constitutional_monarchy_kingdom }
		}
		random_owned = {
			limit = { owner = { government = enlightened_despotism } }
			owner = { government = enlightened_despotism_kingdom }
		}
	}
	ai_will_do = { factor = 1 }
}

#3) RESTORING AI ELECTOR'S OLD GOVERNMENT FORM

restore_former_government = {
	potential = {
		government = electoral_government
		OR = {
			ai = no
			elector = no
			is_emperor = yes
			has_country_flag = rival_of_emperor
			AND = {
				any_known_country = {
					elector = yes
					capital_scope = { NOT = { owned_by = THIS } }
					NOT = { is_emperor = yes }
					NOT = { has_country_flag = rival_of_emperor }
					NOT = { has_country_flag = supports_emperor }
					NOT = { has_country_flag = supports_rival }
					government = monarchy
					preferred_emperor = THIS
				}
				any_known_country = {
					elector = yes
					capital_scope = { NOT = { owned_by = THIS } }
					NOT = { is_emperor = yes }
					NOT = { has_country_flag = rival_of_emperor }
					NOT = { has_country_flag = supports_emperor }
					NOT = { has_country_flag = supports_rival }
					government = theocracy
					preferred_emperor = THIS
				}
			}
		}
	}
	allow = {
		OR = {
			is_subject = no
			elector = no
		}
	}
	effect = {
		random_owned = { # elector_ex_despotic
			limit = { NOT = { has_global_flag = atage } owner = { has_country_flag = elector_ex_despotic } }
			owner = { government = despotic_monarchy }
		}
		random_owned = {
			limit = { has_global_flag = atage owner = { has_country_flag = elector_ex_despotic has_country_flag = state } }
			owner = { government = despotic_monarchy-lowest }
		}
		random_owned = {
			limit = { has_global_flag = atage owner = { has_country_flag = elector_ex_despotic has_country_flag = principality } }
			owner = { government = despotic_monarchy-lower }
		}
		random_owned = {
			limit = { has_global_flag = atage owner = { has_country_flag = elector_ex_despotic has_country_flag = kingdom } }
			owner = { government = despotic_monarchy }
		}
		random_owned = {
			limit = { has_global_flag = atage owner = { has_country_flag = elector_ex_despotic has_country_flag = empire } }
			owner = { government = despotic_monarchy-upper }
		}
		random_owned = { # elector_ex_feudal
			limit = { NOT = { has_global_flag = atage } owner = { has_country_flag = elector_ex_feudal NOT = { has_country_flag = kingdom } } }
			owner = { government = feudal_monarchy }
		}
		random_owned = {
			limit = { NOT = { has_global_flag = atage } owner = { has_country_flag = elector_ex_feudal has_country_flag = kingdom } }
			owner = { government = feudal_monarchy_kingdom }
		}
		random_owned = {
			limit = { has_global_flag = atage owner = { has_country_flag = elector_ex_feudal has_country_flag = state } }
			owner = { government = feudal_monarchy-lowest }
		}
		random_owned = {
			limit = { has_global_flag = atage owner = { has_country_flag = elector_ex_feudal has_country_flag = principality } }
			owner = { government = feudal_monarchy-lower }
		}
		random_owned = {
			limit = { has_global_flag = atage owner = { has_country_flag = elector_ex_feudal has_country_flag = kingdom } }
			owner = { government = feudal_monarchy }
		}
		random_owned = {
			limit = { has_global_flag = atage owner = { has_country_flag = elector_ex_feudal has_country_flag = empire } }
			owner = { government = feudal_monarchy-upper }
		}
		random_owned = { # elector_ex_administrative
			limit = { NOT = { has_global_flag = atage } owner = { has_country_flag = elector_ex_administrative NOT = { has_country_flag = kingdom } } }
			owner = { government = administrative_monarchy }
		}
		random_owned = {
			limit = { NOT = { has_global_flag = atage } owner = { has_country_flag = elector_ex_administrative has_country_flag = kingdom } }
			owner = { government = administrative_monarchy_kingdom }
		}
		random_owned = {
			limit = { has_global_flag = atage owner = { has_country_flag = elector_ex_administrative has_country_flag = state } }
			owner = { government = administrative_monarchy-lowest }
		}
		random_owned = {
			limit = { has_global_flag = atage owner = { has_country_flag = elector_ex_administrative has_country_flag = principality } }
			owner = { government = administrative_monarchy-lower }
		}
		random_owned = {
			limit = { has_global_flag = atage owner = { has_country_flag = elector_ex_administrative has_country_flag = kingdom } }
			owner = { government = administrative_monarchy }
		}
		random_owned = {
			limit = { has_global_flag = atage owner = { has_country_flag = elector_ex_administrative has_country_flag = empire } }
			owner = { government = administrative_monarchy-upper }
		}
		random_owned = { # elector_ex_absolute
			limit = { NOT = { has_global_flag = atage } owner = { has_country_flag = elector_ex_absolute NOT = { has_country_flag = kingdom } } }
			owner = { government = absolute_monarchy }
		}
		random_owned = {
			limit = { NOT = { has_global_flag = atage } owner = { has_country_flag = elector_ex_absolute has_country_flag = kingdom } }
			owner = { government = absolute_monarchy_kingdom }
		}
		random_owned = {
			limit = { has_global_flag = atage owner = { has_country_flag = elector_ex_absolute has_country_flag = state } }
			owner = { government = absolute_monarchy-lowest }
		}
		random_owned = {
			limit = { has_global_flag = atage owner = { has_country_flag = elector_ex_absolute has_country_flag = principality } }
			owner = { government = absolute_monarchy-lower }
		}
		random_owned = {
			limit = { has_global_flag = atage owner = { has_country_flag = elector_ex_absolute has_country_flag = kingdom } }
			owner = { government = absolute_monarchy }
		}
		random_owned = {
			limit = { has_global_flag = atage owner = { has_country_flag = elector_ex_absolute has_country_flag = empire } }
			owner = { government = absolute_monarchy-upper }
		}
		random_owned = { # elector_ex_constitutional
			limit = { NOT = { has_global_flag = atage } owner = { has_country_flag = elector_ex_constitutional NOT = { has_country_flag = kingdom } } }
			owner = { government = constitutional_monarchy }
		}
		random_owned = {
			limit = { NOT = { has_global_flag = atage } owner = { has_country_flag = elector_ex_constitutional has_country_flag = kingdom } }
			owner = { government = constitutional_monarchy_kingdom }
		}
		random_owned = {
			limit = { has_global_flag = atage owner = { has_country_flag = elector_ex_constitutional has_country_flag = state } }
			owner = { government = constitutional_monarchy-lowest }
		}
		random_owned = {
			limit = { has_global_flag = atage owner = { has_country_flag = elector_ex_constitutional has_country_flag = principality } }
			owner = { government = constitutional_monarchy-lower }
		}
		random_owned = {
			limit = { has_global_flag = atage owner = { has_country_flag = elector_ex_constitutional has_country_flag = kingdom } }
			owner = { government = constitutional_monarchy }
		}
		random_owned = {
			limit = { has_global_flag = atage owner = { has_country_flag = elector_ex_constitutional has_country_flag = empire } }
			owner = { government = constitutional_monarchy-upper }
		}
		random_owned = { # elector_ex_enlightened
			limit = { NOT = { has_global_flag = atage } owner = { has_country_flag = elector_ex_enlightened NOT = { has_country_flag = kingdom } } }
			owner = { government = enlightened_despotism }
		}
		random_owned = {
			limit = { NOT = { has_global_flag = atage } owner = { has_country_flag = elector_ex_enlightened has_country_flag = kingdom } }
			owner = { government = enlightened_despotism_kingdom }
		}
		random_owned = {
			limit = { has_global_flag = atage owner = { has_country_flag = elector_ex_enlightened has_country_flag = state } }
			owner = { government = enlightened_despotism-lowest }
		}
		random_owned = {
			limit = { has_global_flag = atage owner = { has_country_flag = elector_ex_enlightened has_country_flag = principality } }
			owner = { government = enlightened_despotism-lower }
		}
		random_owned = {
			limit = { has_global_flag = atage owner = { has_country_flag = elector_ex_enlightened has_country_flag = kingdom } }
			owner = { government = enlightened_despotism }
		}
		random_owned = {
			limit = { has_global_flag = atage owner = { has_country_flag = elector_ex_enlightened has_country_flag = empire } }
			owner = { government = enlightened_despotism-upper }
		}
		random_owned = {	# no flag
			limit = { owner = { government = electoral_government } }
			owner = { government = feudal_monarchy }
		}
		clr_country_flag = elector_ex_despotic
		clr_country_flag = elector_ex_feudal
		clr_country_flag = elector_ex_administrative
		clr_country_flag = elector_ex_absolute
		clr_country_flag = elector_ex_constitutional
		clr_country_flag = elector_ex_enlightened
	}
	ai_will_do = { factor = 1 }
}

} # end country_decisions