technology = { id = 0 average_year = 1398 range = 50 naval_morale = 0.00 bigship_fire = 1.00 lightship_fire = 1.00 galley_fire = 0.25 transport_fire = 0.25 bigship_shock = 0.50 lightship_shock = 0.25 galley_shock = 0.80 transport_shock = 0.25 }
technology = { id = 1 average_year = 1405 range = 55 naval_morale = 0.00 bigship_fire = 1.00 lightship_fire = 1.00 galley_fire = 0.25 transport_fire = 0.25 bigship_shock = 0.50 lightship_shock = 0.25 galley_shock = 0.85 transport_shock = 0.25 }
technology = { id = 2 average_year = 1415 range = 60 naval_morale = 0.00 bigship_fire = 1.00 lightship_fire = 1.00 galley_fire = 0.25 transport_fire = 0.25 bigship_shock = 0.55 lightship_shock = 0.30 galley_shock = 0.90 transport_shock = 0.30 enable = pinnace enable = carrack enable = galley enable = cog }
technology = { id = 3 average_year = 1423 range = 65 naval_morale = 0.00 bigship_fire = 1.00 lightship_fire = 1.00 galley_fire = 0.25 transport_fire = 0.25 bigship_shock = 0.60 lightship_shock = 0.30 galley_shock = 0.95 transport_shock = 0.30 }
technology = { id = 4 average_year = 1430 range = 70 naval_morale = 0.00 bigship_fire = 1.00 lightship_fire = 1.00 galley_fire = 0.25 transport_fire = 0.25 bigship_shock = 0.65 lightship_shock = 0.35 galley_shock = 1.00 transport_shock = 0.35 }
technology = { id = 5 average_year = 1440 range = 75 naval_morale = 0.00 bigship_fire = 1.00 lightship_fire = 1.00 galley_fire = 0.25 transport_fire = 0.25 bigship_shock = 0.70 lightship_shock = 0.40 galley_shock = 1.10 transport_shock = 0.40 shipyard = yes }
technology = { id = 6 average_year = 1450 range = 80 naval_morale = 0.00 bigship_fire = 1.01 lightship_fire = 1.01 galley_fire = 0.30 transport_fire = 0.27 bigship_shock = 0.75 lightship_shock = 0.50 galley_shock = 1.25 transport_shock = 0.50 }
technology = { id = 7 average_year = 1465 range = 85 naval_morale = 0.06 bigship_fire = 1.02 lightship_fire = 1.02 galley_fire = 0.32 transport_fire = 0.30 bigship_shock = 0.77 lightship_shock = 0.52 galley_shock = 1.27 transport_shock = 0.52 blockade = yes }
technology = { id = 8 average_year = 1475 range = 90 naval_morale = 0.12 bigship_fire = 1.05 lightship_fire = 1.05 galley_fire = 0.34 transport_fire = 0.32 bigship_shock = 0.70 lightship_shock = 0.55 galley_shock = 1.30 transport_shock = 0.55 }
technology = { id = 9 average_year = 1485 range = 95 naval_morale = 0.18 bigship_fire = 1.06 lightship_fire = 1.06 galley_fire = 0.36 transport_fire = 0.35 bigship_shock = 0.82 lightship_shock = 0.57 galley_shock = 1.32 transport_shock = 0.57 }
technology = { id = 10 average_year = 1495 range = 100 naval_morale = 0.24 bigship_fire = 1.07 lightship_fire = 1.07 galley_fire = 0.38 transport_fire = 0.37 bigship_shock = 0.85 lightship_shock = 0.60 galley_shock = 1.35 transport_shock = 0.60 enable = caravel enable = barque }
technology = { id = 11 average_year = 1497 range = 105 naval_morale = 0.30 bigship_fire = 1.10 lightship_fire = 1.10 galley_fire = 0.40 transport_fire = 0.40 bigship_shock = 0.87 lightship_shock = 0.62 galley_shock = 1.37 transport_shock = 0.62 }
technology = { id = 12 average_year = 1498 range = 110 naval_morale = 0.36 bigship_fire = 1.15 lightship_fire = 1.15 galley_fire = 0.45 transport_fire = 0.45 bigship_shock = 0.90 lightship_shock = 0.65 galley_shock = 1.40 transport_shock = 0.65 enable = flute }
technology = { id = 13 average_year = 1502 range = 115 naval_morale = 0.42 bigship_fire = 1.20 lightship_fire = 1.20 galley_fire = 0.50 transport_fire = 0.50 bigship_shock = 0.92 lightship_shock = 0.67 galley_shock = 1.42 transport_shock = 0.67 enable = nau wharf = yes }
technology = { id = 14 average_year = 1508 range = 120 naval_morale = 0.48 bigship_fire = 1.25 lightship_fire = 1.25 galley_fire = 0.55 transport_fire = 0.60 bigship_shock = 0.95 lightship_shock = 0.70 galley_shock = 1.45 transport_shock = 0.70 enable = early_usciere }
technology = { id = 15 average_year = 1518 range = 125 naval_morale = 0.54 bigship_fire = 1.30 lightship_fire = 1.30 galley_fire = 0.60 transport_fire = 0.70 bigship_shock = 0.97 lightship_shock = 0.72 galley_shock = 1.47 transport_shock = 0.72 }
technology = { id = 16 average_year = 1530 range = 130 naval_morale = 0.60 bigship_fire = 1.40 lightship_fire = 1.40 galley_fire = 0.65 transport_fire = 0.80 bigship_shock = 1.00 lightship_shock = 0.75 galley_shock = 1.50 transport_shock = 0.75 }
technology = { id = 17 average_year = 1540 range = 135 naval_morale = 0.66 bigship_fire = 1.50 lightship_fire = 1.50 galley_fire = 0.70 transport_fire = 0.90 bigship_shock = 1.05 lightship_shock = 0.77 galley_shock = 1.52 transport_shock = 0.77 }
technology = { id = 18 average_year = 1545 range = 140 naval_morale = 0.72 bigship_fire = 1.60 lightship_fire = 1.60 galley_fire = 0.75 transport_fire = 1.00 bigship_shock = 1.10 lightship_shock = 0.80 galley_shock = 1.54 transport_shock = 0.80 }
technology = { id = 19 average_year = 1550 range = 145 naval_morale = 0.78 bigship_fire = 1.70 lightship_fire = 1.70 galley_fire = 0.80 transport_fire = 1.03 bigship_shock = 1.15 lightship_shock = 0.82 galley_shock = 1.56 transport_shock = 0.82 }
technology = { id = 20 average_year = 1565 range = 150 naval_morale = 0.84 bigship_fire = 1.80 lightship_fire = 1.80 galley_fire = 0.85 transport_fire = 1.05 bigship_shock = 1.20 lightship_shock = 0.85 galley_shock = 1.58 transport_shock = 0.85 enable = galleon }
technology = { id = 21 average_year = 1585 range = 155 naval_morale = 0.90 bigship_fire = 1.90 lightship_fire = 1.90 galley_fire = 0.90 transport_fire = 1.07 bigship_shock = 1.25 lightship_shock = 0.87 galley_shock = 1.60 transport_shock = 0.87 enable = early_frigate }
technology = { id = 22 average_year = 1600 range = 160 naval_morale = 0.96 bigship_fire = 2.00 lightship_fire = 2.00 galley_fire = 0.95 transport_fire = 1.10 bigship_shock = 1.30 lightship_shock = 0.90 galley_shock = 1.62 transport_shock = 0.90 enable = galleass }
technology = { id = 23 average_year = 1610 range = 165 naval_morale = 1.02 bigship_fire = 2.05 lightship_fire = 2.05 galley_fire = 1.00 transport_fire = 1.13 bigship_shock = 1.35 lightship_shock = 0.92 galley_shock = 1.64 transport_shock = 0.92 enable = merchantman }
technology = { id = 24 average_year = 1620 range = 170 naval_morale = 1.08 bigship_fire = 2.10 lightship_fire = 2.10 galley_fire = 1.02 transport_fire = 1.15 bigship_shock = 1.40 lightship_shock = 0.95 galley_shock = 1.66 transport_shock = 0.95 enable = wargalleon }
technology = { id = 25 average_year = 1625 range = 175 naval_morale = 1.14 bigship_fire = 2.15 lightship_fire = 2.15 galley_fire = 1.04 transport_fire = 1.17 bigship_shock = 1.45 lightship_shock = 0.97 galley_shock = 1.68 transport_shock = 0.97 enable = frigate }
technology = { id = 26 average_year = 1636 range = 180 naval_morale = 1.20 bigship_fire = 2.20 lightship_fire = 2.20 galley_fire = 1.06 transport_fire = 1.20 bigship_shock = 1.50 lightship_shock = 1.00 galley_shock = 1.70 transport_shock = 1.00 reduced_naval_attrition = yes }
technology = { id = 27 average_year = 1644 range = 185 naval_morale = 1.26 bigship_fire = 2.25 lightship_fire = 2.25 galley_fire = 1.08 transport_fire = 1.22 bigship_shock = 1.55 lightship_shock = 1.02 galley_shock = 1.72 transport_shock = 1.02 }
technology = { id = 28 average_year = 1655 range = 190 naval_morale = 1.32 bigship_fire = 2.30 lightship_fire = 2.30 galley_fire = 1.10 transport_fire = 1.25 bigship_shock = 1.60 lightship_shock = 1.05 galley_shock = 1.74 transport_shock = 1.04 }
technology = { id = 29 average_year = 1660 range = 195 naval_morale = 1.38 bigship_fire = 2.35 lightship_fire = 2.35 galley_fire = 1.12 transport_fire = 1.28 bigship_shock = 1.65 lightship_shock = 1.07 galley_shock = 1.76 transport_shock = 1.06 enable = chebeck }
technology = { id = 30 average_year = 1675 range = 200 naval_morale = 1.44 bigship_fire = 2.40 lightship_fire = 2.40 galley_fire = 1.14 transport_fire = 1.30 bigship_shock = 1.70 lightship_shock = 1.10 galley_shock = 1.78 transport_shock = 1.08 enable = twodecker }
technology = { id = 31 average_year = 1690 range = 205 naval_morale = 1.50 bigship_fire = 2.45 lightship_fire = 2.45 galley_fire = 1.16 transport_fire = 1.33 bigship_shock = 1.75 lightship_shock = 1.12 galley_shock = 1.80 transport_shock = 1.10 enable = heavy_frigate }
technology = { id = 32 average_year = 1700 range = 210 naval_morale = 1.56 bigship_fire = 2.50 lightship_fire = 2.50 galley_fire = 1.18 transport_fire = 1.35 bigship_shock = 1.80 lightship_shock = 1.15 galley_shock = 1.82 transport_shock = 1.12 }
technology = { id = 33 average_year = 1709 range = 215 naval_morale = 1.62 bigship_fire = 2.55 lightship_fire = 2.55 galley_fire = 1.20 transport_fire = 1.37 bigship_shock = 1.85 lightship_shock = 1.17 galley_shock = 1.84 transport_shock = 1.14 enable = eastindiaman }
technology = { id = 34 average_year = 1714 range = 220 naval_morale = 1.68 bigship_fire = 2.60 lightship_fire = 2.60 galley_fire = 1.22 transport_fire = 1.40 bigship_shock = 1.90 lightship_shock = 1.20 galley_shock = 1.86 transport_shock = 1.16 }
technology = { id = 35 average_year = 1719 range = 225 naval_morale = 1.74 bigship_fire = 2.65 lightship_fire = 2.65 galley_fire = 1.24 transport_fire = 1.42 bigship_shock = 1.95 lightship_shock = 1.25 galley_shock = 1.88 transport_shock = 1.18 enable = late_usciere }
technology = { id = 36 average_year = 1723 range = 230 naval_morale = 1.80 bigship_fire = 2.70 lightship_fire = 2.70 galley_fire = 1.26 transport_fire = 1.45 bigship_shock = 2.00 lightship_shock = 1.30 galley_shock = 1.90 transport_shock = 1.20 enable = threedecker }
technology = { id = 37 average_year = 1725 range = 235 naval_morale = 1.86 bigship_fire = 2.75 lightship_fire = 2.75 galley_fire = 1.28 transport_fire = 1.48 bigship_shock = 2.02 lightship_shock = 1.35 galley_shock = 1.92 transport_shock = 1.22 }
technology = { id = 38 average_year = 1727 range = 240 naval_morale = 1.92 bigship_fire = 3.00 lightship_fire = 3.00 galley_fire = 1.30 transport_fire = 1.50 bigship_shock = 2.05 lightship_shock = 1.40 galley_shock = 1.94 transport_shock = 1.24 }
technology = { id = 39 average_year = 1730 range = 245 naval_morale = 1.98 bigship_fire = 3.02 lightship_fire = 3.02 galley_fire = 1.32 transport_fire = 1.55 bigship_shock = 2.07 lightship_shock = 1.45 galley_shock = 1.96 transport_shock = 1.26 }
technology = { id = 40 average_year = 1732 range = 250 naval_morale = 2.04 bigship_fire = 3.05 lightship_fire = 3.05 galley_fire = 1.34 transport_fire = 1.60 bigship_shock = 2.10 lightship_shock = 1.50 galley_shock = 1.98 transport_shock = 1.28 }
technology = { id = 41 average_year = 1735 range = 255 naval_morale = 2.10 bigship_fire = 3.07 lightship_fire = 3.07 galley_fire = 1.36 transport_fire = 1.65 bigship_shock = 2.12 lightship_shock = 1.52 galley_shock = 2.00 transport_shock = 1.30 }
technology = { id = 42 average_year = 1737 range = 260 naval_morale = 2.16 bigship_fire = 3.10 lightship_fire = 3.10 galley_fire = 1.38 transport_fire = 1.70 bigship_shock = 2.15 lightship_shock = 1.55 galley_shock = 2.01 transport_shock = 1.32 }
technology = { id = 43 average_year = 1743 range = 265 naval_morale = 2.22 bigship_fire = 3.12 lightship_fire = 3.12 galley_fire = 1.40 transport_fire = 1.75 bigship_shock = 2.17 lightship_shock = 1.57 galley_shock = 2.02 transport_shock = 1.34 enable = archipelago_frigate }
technology = { id = 44 average_year = 1747 range = 270 naval_morale = 2.28 bigship_fire = 3.15 lightship_fire = 3.15 galley_fire = 1.42 transport_fire = 1.80 bigship_shock = 2.20 lightship_shock = 1.60 galley_shock = 2.03 transport_shock = 1.36 enable = brig }
technology = { id = 45 average_year = 1750 range = 275 naval_morale = 2.34 bigship_fire = 3.17 lightship_fire = 3.17 galley_fire = 1.44 transport_fire = 1.85 bigship_shock = 2.22 lightship_shock = 1.62 galley_shock = 2.04 transport_shock = 1.38 }
technology = { id = 46 average_year = 1755 range = 280 naval_morale = 2.40 bigship_fire = 3.20 lightship_fire = 3.20 galley_fire = 1.46 transport_fire = 1.90 bigship_shock = 2.25 lightship_shock = 1.65 galley_shock = 2.05 transport_shock = 1.40 enable = ship_of_the_line }
technology = { id = 47 average_year = 1760 range = 285 naval_morale = 2.46 bigship_fire = 3.22 lightship_fire = 3.22 galley_fire = 1.48 transport_fire = 1.95 bigship_shock = 2.27 lightship_shock = 1.67 galley_shock = 2.06 transport_shock = 1.42 }
technology = { id = 48 average_year = 1765 range = 290 naval_morale = 2.52 bigship_fire = 3.25 lightship_fire = 3.25 galley_fire = 1.50 transport_fire = 2.00 bigship_shock = 2.30 lightship_shock = 1.70 galley_shock = 2.07 transport_shock = 1.44 }
technology = { id = 49 average_year = 1770 range = 295 naval_morale = 2.58 bigship_fire = 3.27 lightship_fire = 3.27 galley_fire = 1.52 transport_fire = 2.05 bigship_shock = 2.32 lightship_shock = 1.72 galley_shock = 2.08 transport_shock = 1.46 enable = sloop_of_war }
technology = { id = 50 average_year = 1775 range = 300 naval_morale = 2.64 bigship_fire = 3.30 lightship_fire = 3.30 galley_fire = 1.54 transport_fire = 2.10 bigship_shock = 2.35 lightship_shock = 1.75 galley_shock = 2.09 transport_shock = 1.48 }
technology = { id = 51 average_year = 1780 range = 310 naval_morale = 2.70 bigship_fire = 3.32 lightship_fire = 3.32 galley_fire = 1.56 transport_fire = 2.15 bigship_shock = 2.37 lightship_shock = 1.77 galley_shock = 2.10 transport_shock = 1.50 }
technology = { id = 52 average_year = 1785 range = 320 naval_morale = 2.76 bigship_fire = 3.35 lightship_fire = 3.35 galley_fire = 1.58 transport_fire = 2.20 bigship_shock = 2.40 lightship_shock = 1.80 galley_shock = 2.11 transport_shock = 1.52 }
technology = { id = 53 average_year = 1790 range = 330 naval_morale = 2.82 bigship_fire = 3.37 lightship_fire = 3.37 galley_fire = 1.60 transport_fire = 2.25 bigship_shock = 2.42 lightship_shock = 1.82 galley_shock = 2.12 transport_shock = 1.54 }
technology = { id = 54 average_year = 1791 range = 340 naval_morale = 2.88 bigship_fire = 3.40 lightship_fire = 3.40 galley_fire = 1.62 transport_fire = 2.30 bigship_shock = 2.45 lightship_shock = 1.85 galley_shock = 2.13 transport_shock = 1.56 }
technology = { id = 55 average_year = 1792 range = 350 naval_morale = 2.94 bigship_fire = 3.42 lightship_fire = 3.42 galley_fire = 1.64 transport_fire = 2.35 bigship_shock = 2.47 lightship_shock = 1.87 galley_shock = 2.14 transport_shock = 1.58 enable = first_rate }
technology = { id = 56 average_year = 1795 range = 360 naval_morale = 3.00 bigship_fire = 3.45 lightship_fire = 3.45 galley_fire = 1.66 transport_fire = 2.40 bigship_shock = 2.50 lightship_shock = 1.90 galley_shock = 2.15 transport_shock = 1.60 }
technology = { id = 57 average_year = 1798 range = 370 naval_morale = 3.08 bigship_fire = 3.47 lightship_fire = 3.47 galley_fire = 1.68 transport_fire = 2.50 bigship_shock = 2.52 lightship_shock = 1.92 galley_shock = 2.16 transport_shock = 1.62 }
technology = { id = 58 average_year = 1801 range = 380 naval_morale = 3.16 bigship_fire = 3.50 lightship_fire = 3.50 galley_fire = 1.70 transport_fire = 2.52 bigship_shock = 2.55 lightship_shock = 1.95 galley_shock = 2.17 transport_shock = 1.64 }
technology = { id = 59 average_year = 1803 range = 390 naval_morale = 3.24 bigship_fire = 3.52 lightship_fire = 3.52 galley_fire = 1.72 transport_fire = 2.55 bigship_shock = 2.57 lightship_shock = 1.97 galley_shock = 2.18 transport_shock = 1.66 }
technology = { id = 60 average_year = 1805 range = 400 naval_morale = 3.32 bigship_fire = 3.55 lightship_fire = 3.55 galley_fire = 1.74 transport_fire = 2.57 bigship_shock = 2.60 lightship_shock = 2.00 galley_shock = 2.19 transport_shock = 1.68 }
technology = { id = 61 average_year = 1807 range = 410 naval_morale = 3.40 bigship_fire = 3.57 lightship_fire = 3.57 galley_fire = 1.76 transport_fire = 2.60 bigship_shock = 2.62 lightship_shock = 2.02 galley_shock = 2.20 transport_shock = 1.70 }
technology = { id = 62 average_year = 1809 range = 420 naval_morale = 3.48 bigship_fire = 3.60 lightship_fire = 3.60 galley_fire = 1.78 transport_fire = 2.62 bigship_shock = 2.65 lightship_shock = 2.05 galley_shock = 2.21 transport_shock = 1.72 }
technology = { id = 63 average_year = 1811 range = 430 naval_morale = 3.56 bigship_fire = 3.62 lightship_fire = 3.62 galley_fire = 1.80 transport_fire = 2.65 bigship_shock = 2.67 lightship_shock = 2.07 galley_shock = 2.22 transport_shock = 1.74 }
technology = { id = 64 average_year = 1813 range = 440 naval_morale = 3.64 bigship_fire = 3.65 lightship_fire = 3.65 galley_fire = 1.82 transport_fire = 2.67 bigship_shock = 2.70 lightship_shock = 2.10 galley_shock = 2.23 transport_shock = 1.76 }
technology = { id = 65 average_year = 1815 range = 450 naval_morale = 3.72 bigship_fire = 3.67 lightship_fire = 3.67 galley_fire = 1.84 transport_fire = 2.70 bigship_shock = 2.75 lightship_shock = 2.15 galley_shock = 2.24 transport_shock = 1.78 }
technology = { id = 66 average_year = 1820 range = 460 naval_morale = 3.80 bigship_fire = 3.70 lightship_fire = 3.70 galley_fire = 1.86 transport_fire = 2.72 bigship_shock = 2.80 lightship_shock = 2.20 galley_shock = 2.25 transport_shock = 1.80 }
technology = { id = 67 average_year = 1830 range = 470 naval_morale = 3.85 bigship_fire = 3.75 lightship_fire = 3.75 galley_fire = 1.88 transport_fire = 2.75 bigship_shock = 2.85 lightship_shock = 2.25 galley_shock = 2.26 transport_shock = 1.82 }
technology = { id = 68 average_year = 1840 range = 480 naval_morale = 3.90 bigship_fire = 3.80 lightship_fire = 3.80 galley_fire = 1.90 transport_fire = 2.75 bigship_shock = 2.90 lightship_shock = 2.30 galley_shock = 2.27 transport_shock = 1.84 }
technology = { id = 69 average_year = 1850 range = 490 naval_morale = 3.95 bigship_fire = 3.90 lightship_fire = 3.90 galley_fire = 1.92 transport_fire = 2.80 bigship_shock = 2.95 lightship_shock = 2.35 galley_shock = 2.28 transport_shock = 1.86 }
technology = { id = 70 average_year = 1880 range = 500 naval_morale = 4.00 bigship_fire = 4.00 lightship_fire = 4.00 galley_fire = 1.95 transport_fire = 2.80 bigship_shock = 3.00 lightship_shock = 2.40 galley_shock = 2.29 transport_shock = 1.88 }
